<?xml version="1.0" encoding="UTF-8" standalone="no"?>
<!-- Created with Inkscape (http://www.inkscape.org/) -->

<svg
   width="70.499184mm"
   height="65.559761mm"
   viewBox="0 0 70.499182 65.559761"
   version="1.1"
   id="svg1"
   inkscape:version="1.4 (1:1.4+202410161351+e7c3feb100)"
   sodipodi:docname="mooc_floss_course_samples.svg"
   xml:space="preserve"
   inkscape:export-filename="html/images/mod3-troll.svg"
   inkscape:export-xdpi="96"
   inkscape:export-ydpi="96"
   inkscape:export-batch-path="video/patch_animation/patch_parts"
   inkscape:export-batch-name=" "
   xmlns:inkscape="http://www.inkscape.org/namespaces/inkscape"
   xmlns:sodipodi="http://sodipodi.sourceforge.net/DTD/sodipodi-0.dtd"
   xmlns="http://www.w3.org/2000/svg"
   xmlns:svg="http://www.w3.org/2000/svg"><sodipodi:namedview
     id="namedview1"
     pagecolor="#ffffff"
     bordercolor="#000000"
     borderopacity="0.25"
     inkscape:showpageshadow="2"
     inkscape:pageopacity="0.0"
     inkscape:pagecheckerboard="0"
     inkscape:deskcolor="#d1d1d1"
     inkscape:document-units="mm"
     inkscape:zoom="0.8332833"
     inkscape:cx="3915.2351"
     inkscape:cy="6428.1859"
     inkscape:window-width="1920"
     inkscape:window-height="1011"
     inkscape:window-x="0"
     inkscape:window-y="0"
     inkscape:window-maximized="1"
     inkscape:current-layer="layer1"
     showguides="true"
     showgrid="false"
     inkscape:lockguides="false"><inkscape:grid
       id="grid5732"
       units="mm"
       originx="-1207.6924"
       originy="-1081.5122"
       spacingx="0.26458332"
       spacingy="0.26458333"
       empcolor="#0099e5"
       empopacity="0.30196078"
       color="#0099e5"
       opacity="0.14901961"
       empspacing="5"
       enabled="true"
       visible="false" /><inkscape:page
       x="0"
       y="0"
       width="70.499184"
       height="65.559761"
       id="page2"
       margin="0"
       bleed="0" /></sodipodi:namedview><defs
     id="defs1" /><g
     inkscape:label="Layer 1"
     inkscape:groupmode="layer"
     id="layer1"
     transform="translate(-1283.1341,-954.22892)"><g
       id="g14062"><g
         id="g12764"><path
           id="path11743"
           style="opacity:0.25;fill:#000000;stroke-width:0.9;stroke-linecap:round;stroke-linejoin:round;stroke-opacity:0.996078;paint-order:markers fill stroke"
           d="m 1322.5605,962.59002 c -0.3087,-0.009 -0.617,0.002 -0.617,0.002 v 0 c 0,0 0.027,0.0174 0.044,0.0294 -0.024,0.0206 -0.024,0.0234 -0.052,0.0465 -0.3424,0.28266 -0.727,0.52647 -1.1328,0.73997 -1.8924,0.9958 -2.7711,1.1703 -4.948,1.8857 -1.129,0.2492 -2.2207,0.5536 -3.3176,0.7296 -2.0196,0.3239 -4.218,0.4375 -6.2854,0.3282 -1.2279,-0.065 -2.5489,-0.2564 -3.7228,-0.6346 -0.1862,-0.06 -0.4077,-0.194 -0.6888,-0.325 l 0.034,0.018 c -3e-4,-1e-4 -0.178,-0.058 -0.1783,-0.058 -3e-4,-1e-4 -0.1412,0.01 -0.1416,0.01 v 0.01 c -0.259,0.1461 -0.042,-0.1284 -0.2853,0.2093 -0.014,0.021 -0.024,0.042 -0.035,0.063 -0.01,0 -0.01,0 -0.015,0 h -0.022 c 0,0 -0.01,0 -0.01,0 0,0 0,-10e-5 -0.01,0 0,10e-5 -0.015,0 -0.015,0 -10e-5,10e-5 -0.056,0.02 -0.056,0.02 -0.1645,0.068 -0.2665,0.2301 -0.2572,0.4108 0.211,4.2239 -0.01,8.44887 -0.1659,12.68807 2e-4,-10e-5 0,0.01 0,0.01 -0.032,2.488 -0.2066,5.0166 0.053,7.5789 0.031,0.3034 0.086,0.5918 0.1372,0.8712 -0.2929,1.7854 -0.1737,3.6235 0.1856,5.3925 0.1929,0.9481 0.4209,1.9018 0.727,2.8396 0.1569,0.4783 0.336,0.9435 0.5204,1.4036 -0.063,0.066 -0.1264,0.1287 -0.1897,0.1974 -0.2978,0.3231 -0.5669,0.6713 -0.8505,1.0071 -0.6021,0.8378 -1.2558,1.7035 -1.5188,2.72344 -0.034,0.1324 -0.1419,0.5965 0.096,0.7214 0.048,0.025 0.1024,0.011 0.1575,0 l 5e-4,10e-5 c 0.017,0.012 0.036,0 0.055,-0.011 0.013,0 0.025,0 0.037,-0.01 0,0 0,-0.011 0,-0.025 0.01,-0.01 0.013,-0.014 0.018,-0.019 0.01,-0.01 0.013,-0.016 0.021,-0.024 0.073,0.085 0.2524,0.2462 0.2677,0.23 l 5e-4,-6e-4 c 1.0565,-0.5129 2.1023,-1.0471 3.1641,-1.5492 0.06,-0.027 0.1218,-0.053 0.1829,-0.079 0.021,0.04 0.042,0.079 0.063,0.1193 -0.015,0.049 -0.03,0.098 -0.041,0.1479 -0.1025,0.4573 -0.1668,0.9995 -0.2078,1.4567 -0.059,0.6583 -0.096,1.3746 -0.079,2.035 0.01,0.324 0.04,0.6472 0.061,0.9705 0.072,0.4296 0.1159,0.9151 0.3159,1.3173 0.05,0.1015 0.1176,0.2068 0.216,0.2626 0.093,0.052 0.2233,0.088 0.3183,0.039 0.034,-0.018 0.051,-0.052 0.061,-0.091 0.023,-0.013 0.05,-0.03 0.084,-0.058 0.055,-0.046 0.033,-0.1393 0.036,-0.2105 0,-0.082 0,-0.1638 0,-0.2459 l 0.025,-0.02 c 0.06,0.052 0.1655,0.1273 0.1737,0.1163 v -5e-4 c 0.059,-0.034 0.1208,-0.065 0.1783,-0.1015 0.5495,-0.3572 1.0834,-0.7558 1.6061,-1.1493 0.023,-0.018 0.026,-0.02 0.048,-0.037 2.2748,3.0281 5.0827,5.7374 8.2765,7.7386 0.6378,0.3998 1.2984,0.6813 1.8996,0.9969 0.028,0.014 0.057,0.026 0.087,0.035 -0.025,-0.01 0.1295,0.05 0.2925,0.1142 0.1628,0.063 0.3925,0.08 0.5907,0.1974 0.8804,0.5212 1.3892,0.2677 1.7999,0.2589 0.209,-0.051 0.4497,-0.094 0.7063,-0.1691 2.3792,-0.7224 4.695,-2.0322 6.687,-3.3848 0.7768,-0.5275 1.5041,-1.0988 2.2391,-1.6361 0.01,-0.01 0.016,-0.013 0.023,-0.019 0.7458,-0.6383 1.5314,-1.2571 2.2743,-1.9483 0.7605,-0.7075 1.4958,-1.4517 2.2051,-2.2235 0.045,0.034 0.052,0.04 0.1014,0.077 0.5227,0.3935 1.0571,0.7926 1.6066,1.1498 0.057,0.037 0.1186,0.068 0.1778,0.1013 v 5e-4 c 0.011,0.011 0.1191,-0.068 0.1777,-0.1194 l 0.021,0.017 c 0,0.084 0,0.1682 0,0.2522 0,0.071 -0.016,0.1636 0.039,0.2097 0.034,0.028 0.062,0.045 0.084,0.058 0.01,0.04 0.027,0.074 0.061,0.091 0.095,0.049 0.2251,0.013 0.3183,-0.039 0.098,-0.056 0.166,-0.161 0.216,-0.2624 0.2008,-0.4021 0.2442,-0.8877 0.3158,-1.3173 0.021,-0.3233 0.053,-0.6463 0.061,-0.9704 0.016,-0.6604 -0.02,-1.3769 -0.079,-2.0351 -0.025,-0.2817 -0.061,-0.5942 -0.1079,-0.9007 0.1408,-0.1965 0.2817,-0.3929 0.4186,-0.5922 0.9534,0.4575 1.8969,0.9354 2.8483,1.3973 l 6e-4,6e-4 c 0.015,0.016 0.1941,-0.1445 0.2677,-0.23 0.01,0.01 0.012,0.015 0.021,0.025 0.01,0.01 0.011,0.01 0.018,0.019 -0.01,0.015 -0.01,0.025 -0.01,0.025 0.013,0.01 0.024,0 0.037,0.01 0.019,0.01 0.039,0.022 0.056,0.01 l 6e-4,5e-4 c 0.055,0.015 0.1093,0.029 0.1575,0 0.2371,-0.1251 0.1307,-0.5885 0.096,-0.7208 -0.2629,-1.02004 -0.9167,-1.88624 -1.5188,-2.72394 -0.1164,-0.1378 -0.2302,-0.2781 -0.3447,-0.4175 0.023,-0.04 0.049,-0.08 0.071,-0.121 0.3186,-0.5656 0.5681,-1.1452 0.8366,-1.6887 0.01,-0.022 0.019,-0.045 0.026,-0.069 l 0.07,-0.2465 c 0.1571,-0.014 0.2906,-0.1109 0.3493,-0.2558 0.018,-0.056 0.029,-0.085 0.04,-0.1179 0.033,-0.028 0.063,-0.061 0.086,-0.098 0,-0.1062 0,-0.1264 -0.01,-0.1663 0.045,-0.1403 0.084,-0.2645 0.095,-0.3959 0.012,-0.1642 0.012,-0.3405 0.034,-0.7897 0,-0.042 0,-0.083 -0.012,-0.1235 0,-2e-4 -0.09,-0.1826 -0.09,-0.1829 -3e-4,-3e-4 -0.08,-0.081 -0.08,-0.082 -0.01,-0.397 -0.017,-0.7941 -0.02,-1.1897 -0.02,-3.3853 0.048,-6.7665 0.1685,-10.1462 0.1515,-5.3129 0.3461,-10.64849 0.015,-16.01237 l -0.019,0.1571 c 10e-5,-3e-4 0.016,-0.1833 0.016,-0.1835 10e-5,-3e-4 -0.046,-0.1515 -0.046,-0.1519 -10e-5,-2e-4 -0.062,-0.094 -0.062,-0.094 -2e-4,-2e-4 -1.9496,0.3564 -2.204,0.4129 -0.3137,0.073 -0.6331,0.1179 -0.7197,0.1259 -1.9748,0.2493 -4.0045,0.098 -6.0203,-0.2285 -0.7972,-0.1828 -1.5802,-0.32 -2.3214,-0.5337 -2.0384,-0.5879 -3.9611,-1.5745 -5.7577,-2.76269 0,-0.0835 -0.3134,-0.11432 -0.6223,-0.12401 z m -2.3771,2.67587 c -0.816,0.3866 -1.5637,0.6436 -2.4314,0.9296 0.8677,-0.286 1.6154,-0.543 2.4314,-0.9296 z m -6.4425,2.0045 5e-4,5e-4 c -0.249,0.056 -0.5034,0.094 -0.7569,0.1419 0.2551,-0.039 0.5075,-0.086 0.7565,-0.1418 z m 17.5364,0.085 c 0.4358,0.067 0.8744,0.1262 1.3152,0.1753 -0.4408,-0.049 -0.8793,-0.1088 -1.3152,-0.1753 z m 1.8448,0.2207 c 0.325,0.029 0.65,0.056 0.9762,0.071 -0.3264,-0.015 -0.651,-0.041 -0.9762,-0.071 z m -30.9531,0.7726 c 0.092,1.4998 0.097,2.99568 0.085,4.47768 0.012,-1.482 0.01,-2.97788 -0.085,-4.47768 z m -0.3106,18.02317 c 0.01,0.2105 0.025,0.4314 0.046,0.6532 0.052,0.081 0.077,0.1756 0.072,0.2692 -0.1029,1.6456 0.034,3.3141 0.3695,4.9558 0.2016,0.9849 0.4739,1.9603 0.8087,2.9156 0.079,0.2257 0.166,0.4506 0.2553,0.6754 l -6e-4,5e-4 c -0.089,-0.2252 -0.176,-0.4501 -0.2553,-0.6759 -0.3347,-0.9553 -0.607,-1.9306 -0.8081,-2.9156 -0.3355,-1.6417 -0.473,-3.3102 -0.37,-4.9558 0,-0.094 -0.02,-0.1882 -0.072,-0.2692 -0.021,-0.2218 -0.041,-0.4426 -0.046,-0.6532 z m 6.1594,17.63094 c 0.1239,0.1608 0.2478,0.3215 0.3746,0.4801 -0.1268,-0.1586 -0.2508,-0.3192 -0.3746,-0.4801 z m 1.0195,1.2584 c 0.1138,0.1337 0.2238,0.2705 0.3395,0.4025 -0.1157,-0.132 -0.2259,-0.2687 -0.3395,-0.4025 z m 1.2604,1.4071 c 0.1145,0.1205 0.2294,0.2408 0.3457,0.3597 -0.1164,-0.1189 -0.2312,-0.2391 -0.3457,-0.3597 z m 1.3275,1.3255 c 0.078,0.074 0.1592,0.1451 0.2383,0.2181 -0.079,-0.073 -0.1598,-0.1443 -0.2383,-0.2181 z m 1.185,1.0578 c 0.081,0.069 0.1615,0.1398 0.2434,0.2082 -0.082,-0.068 -0.1621,-0.1388 -0.2434,-0.2082 z m 1.3699,1.1059 c 0.098,0.075 0.1986,0.1487 0.2982,0.2227 -0.1,-0.074 -0.1994,-0.1475 -0.2982,-0.2227 z" /><g
           id="g11782"
           transform="translate(-47.555166,-29.431236)"><path
             id="path11645"
             style="fill:#ffdd55;stroke-width:0.9;stroke-linecap:round;stroke-linejoin:round;stroke-opacity:0.996078;paint-order:markers fill stroke"
             d="m 1368.9757,992.1516 c -0.3509,0.36013 -0.7467,0.66303 -1.1518,0.90482 -1.8625,1.11267 -3.0759,1.38755 -5.145,2.09759 -0.016,0.003 -0.03,0.0147 -0.047,0.0177 -1.1219,0.24431 -2.2524,0.56534 -3.4421,0.74976 -2.1422,0.33156 -4.4014,0.41387 -6.5867,0.24604 -1.3371,-0.10278 -2.7496,-0.34905 -4.0566,-0.84182 -0.07,-0.0271 -0.1056,-0.06 -0.1695,-0.0899 l -0.01,0.002 c 0.015,0.0322 0.021,0.0625 0.019,0.0987 0.2101,2.00173 0.2241,4.00256 0.2088,5.97851 -0.02,2.5303 -0.08,3.573 -0.1773,6.1128 -0.034,0.89 -0.1749,4.4825 -0.1984,5.4793 -0.016,0.66 -0.036,1.3114 -0.02,1.9533 0.01,0.2106 0.025,0.4314 0.046,0.6532 0.052,0.081 0.077,0.1755 0.072,0.2691 -0.1646,2.633 0.2853,5.324 1.1782,7.8714 0.3579,1.0208 0.8359,2.0275 1.2691,3.0742 0.6217,1.1085 1.1722,2.2285 1.8284,3.2583 0.9327,1.4637 1.9788,2.8584 3.1244,4.1661 1.8594,2.1228 3.9828,4.0144 6.3236,5.5847 0.2053,0.1377 0.4266,0.266 0.6501,0.3943 0.3072,0.1763 0.6224,0.3507 0.9426,0.5338 0.011,0 0.028,-0.018 0.037,-0.02 0.1356,0.01 0.2222,0.047 0.307,0.083 0.1703,0.073 0.3275,0.1682 0.4836,0.2511 0.091,0.048 5.9179,-1.7057 8.0393,-3.1859 0.7343,-0.5122 1.4457,-1.0767 2.1839,-1.6262 3.7326,-3.0187 6.8501,-6.7279 9.3839,-10.8205 0.213,-0.3439 0.4143,-0.7068 0.6176,-1.0738 0.089,-0.1609 0.177,-0.321 0.2692,-0.4832 0.113,-0.2581 0.2271,-0.515 0.3396,-0.7721 -0.143,-0.8874 -0.208,-2.1538 -0.2233,-2.4794 -0.1542,-3.4312 -0.081,-6.8486 0.025,-10.2511 0.1292,-3.6145 0.2863,-7.2223 0.3602,-10.83188 0.026,-1.26448 0.037,-1.90686 0.04,-2.2164 4e-4,-0.0458 0,-0.0371 0,-0.0693 v -0.009 c 0,-0.009 -0.01,-0.0399 -0.01,-0.0493 -0.01,-0.0433 9e-4,-0.0477 0,-0.0614 0,-0.0251 0,-0.0562 -10e-4,-0.10081 0,-0.18137 0.01,-0.6104 0.031,-1.59524 7e-4,-0.044 0,-0.0856 0,-0.12917 -0.2182,0.22327 -0.4791,0.38284 -0.7435,0.479 -0.3467,0.12412 -0.6907,0.18858 -0.906,0.22893 -0.2737,0.0511 -0.5481,0.092 -0.8231,0.12469 -1.8642,0.22337 -3.7513,0.0509 -5.5842,-0.2357 -0.01,0.002 -0.022,-0.008 -0.033,-0.006 -0.7841,-0.18515 -1.6045,-0.32946 -2.4293,-0.57567 -2.1661,-0.64676 -4.2015,-1.73016 -6.0259,-3.08612 z m -1.8944,2.79106 c -0.3874,0.19035 -0.7586,0.34853 -1.1359,0.49453 0.3773,-0.146 0.7485,-0.30418 1.1359,-0.49453 z m -17.0414,4.51132 c 0.026,0.98222 0.026,1.96122 0.019,2.93422 0.01,-0.973 0.01,-1.952 -0.019,-2.93422 z" /><path
             style="opacity:0.5;fill:#ffffff;stroke-width:0.9;stroke-linecap:round;stroke-linejoin:round;stroke-opacity:0.996078;-inkscape-stroke:none;paint-order:markers fill stroke"
             d="m 1351.3592,1023.7491 -3.5047,3.4375 -1.1456,2.0221 1.2133,1e-4 1.2129,-2.0222 2.8308,-2.7636 z"
             id="path11716" /><path
             style="opacity:0.5;fill:#ffffff;stroke-width:0.9;stroke-linecap:round;stroke-linejoin:round;stroke-opacity:0.996078;-inkscape-stroke:none;paint-order:markers fill stroke"
             d="m 1349.5397,995.91309 -0.068,21.29841 0.3373,1.7519 0.4046,0.2697 0.3369,-21.70249 z"
             id="path11717" /><path
             style="opacity:0.5;fill:#ffffff;stroke-width:0.9;stroke-linecap:round;stroke-linejoin:round;stroke-opacity:0.996078;-inkscape-stroke:none;paint-order:markers fill stroke"
             d="m 1384.9918,995.17159 -3.6397,0.67315 -3.3698,2.96567 3.8415,-0.26971 z"
             id="path11722" /><path
             style="opacity:0.5;fill:#ffffff;stroke-width:0.9;stroke-linecap:round;stroke-linejoin:round;stroke-opacity:0.996078;-inkscape-stroke:none;paint-order:markers fill stroke"
             d="m 1363.3564,993.89099 -3.6396,1.41541 2.2919,2.83088 2.6282,-0.74159 z"
             id="path11732" /><path
             id="path11733"
             style="opacity:0.2;fill:#000000;stroke-width:0.9;stroke-linecap:round;stroke-linejoin:round;stroke-opacity:0.996078;paint-order:markers fill stroke"
             d="m 1355.7187,1034.1521 c 1.8593,2.1228 3.9827,4.0145 6.3235,5.5847 0.4876,0.3271 1.0397,0.6118 1.5928,0.9281 0.011,0 0.028,-0.018 0.037,-0.02 0.1356,0.01 0.2222,0.047 0.3069,0.083 0.1704,0.073 0.3276,0.1682 0.4837,0.2511 0.091,0.048 5.9179,-1.7057 8.0393,-3.1858 0.7343,-0.5123 1.4456,-1.0768 2.1839,-1.6263 3.7326,-3.0187 6.8501,-6.7279 9.3839,-10.8205 0.3064,-0.4947 0.5842,-1.0248 0.8867,-1.557 0.1131,-0.2581 0.2271,-0.515 0.3396,-0.7721 -0.143,-0.8874 -0.2079,-2.1537 -0.2232,-2.4794 -0.1543,-3.4312 -0.081,-6.8486 0.025,-10.2511 0.1292,-3.6145 0.2863,-7.2223 0.3602,-10.83186 0.026,-1.26447 0.037,-1.90685 0.04,-2.2164 3e-4,-0.0458 0,-0.0371 0,-0.0693 v -0.009 c 0,-0.009 -0.01,-0.0399 -0.01,-0.0494 -0.01,-0.0433 10e-4,-0.0477 0,-0.0614 0,-0.0251 0,-0.0562 -10e-4,-0.10081 0,-0.18138 0.01,-0.6104 0.031,-1.59524 7e-4,-0.0441 0,-0.0857 0,-0.12917 l -2.5898,3.10089 c -0.074,3.60959 -0.13,5.85249 -0.2591,9.46699 -0.1064,3.4025 -0.1797,6.8204 -0.025,10.2515 0.015,0.3257 0.08,1.5916 0.2233,2.479 -0.1125,0.2571 -0.2266,0.5144 -0.3396,0.7725 -0.3026,0.5322 -0.5804,1.0623 -0.8867,1.557 -2.5339,4.0926 -5.6514,7.8014 -9.384,10.8201 -0.7382,0.5495 -1.4495,1.1139 -2.1838,1.6262 l -4.2721,2.4703 c -4.9545,-1.7269 -9.0065,-6.8384 -12.9599,-12.3191 l 2.8749,8.7009 z"
             sodipodi:nodetypes="cscccsscsccccsscscccsccccccccccccc" /><path
             id="path11734"
             style="stroke-width:0.9;stroke-linecap:round;stroke-linejoin:round;stroke-opacity:0.996078;paint-order:markers fill stroke"
             d="m 1368.2869,991.08082 c 0,0 0.026,0.0174 0.044,0.0294 -0.024,0.0206 -0.024,0.0234 -0.052,0.0465 -0.3424,0.28266 -0.7271,0.52653 -1.1328,0.74004 -1.8924,0.99577 -2.7711,1.17031 -4.948,1.88566 -1.129,0.24922 -2.2207,0.55365 -3.3176,0.72965 -2.0196,0.32381 -4.2181,0.43741 -6.2855,0.32812 -1.228,-0.065 -2.5488,-0.25636 -3.7227,-0.63455 -0.1862,-0.06 -0.4078,-0.19414 -0.6889,-0.32508 l 0.034,0.0179 c -3e-4,-1.2e-4 -0.178,-0.0579 -0.1783,-0.0579 -3e-4,-4e-5 -0.1413,0.008 -0.1417,0.008 v 0.009 c -0.2589,0.14612 -0.042,-0.12835 -0.2852,0.2093 -0.014,0.0214 -0.024,0.042 -0.035,0.063 -0.01,0.002 -0.01,0.002 -0.015,0.003 l -0.022,0.004 c 0,0 -0.01,0.002 -0.01,0.002 0,0 0,-9e-5 -0.01,0.002 0,9e-5 -0.015,0.003 -0.015,0.003 -2e-4,3e-5 -0.056,0.0195 -0.056,0.0195 -0.1646,0.0676 -0.2667,0.2301 -0.2573,0.41082 0.2109,4.22393 -0.01,8.44892 -0.1659,12.68812 2e-4,0 0,0.01 0,0.01 -0.032,2.488 -0.2066,5.0165 0.053,7.5789 0.031,0.3034 0.086,0.5918 0.1373,0.8713 -0.293,1.7853 -0.1738,3.6234 0.1855,5.3924 0.1929,0.9481 0.4209,1.9018 0.727,2.8396 0.3656,1.1151 0.8461,2.1685 1.2553,3.2169 0,0.018 0.015,0.034 0.025,0.051 0.6019,1.1108 1.1497,2.2853 1.849,3.4066 2.498,4.0052 5.9298,7.6516 9.9621,10.1782 0.6378,0.3998 1.2985,0.6813 1.8997,0.9969 0.028,0.014 0.057,0.026 0.087,0.035 -0.025,-0.01 0.1295,0.05 0.2925,0.1142 0.1628,0.063 0.3925,0.08 0.5907,0.1974 0.8804,0.5212 1.3892,0.268 1.7998,0.2593 0.2091,-0.051 0.4498,-0.094 0.7064,-0.1692 2.3792,-0.7224 4.6951,-2.0321 6.687,-3.3848 0.7769,-0.5275 1.5041,-1.0988 2.2391,-1.636 0.01,-0.01 0.016,-0.013 0.023,-0.019 0.7458,-0.6383 1.5315,-1.2571 2.2743,-1.9482 2.8607,-2.6616 5.3963,-5.8051 7.3241,-9.2284 0.3186,-0.5656 0.5682,-1.1452 0.8367,-1.6887 0.01,-0.022 0.019,-0.045 0.026,-0.069 l 0.07,-0.2465 c 0.1571,-0.014 0.2905,-0.1118 0.3493,-0.2563 0.018,-0.056 0.028,-0.085 0.039,-0.1173 0.033,-0.028 0.063,-0.061 0.086,-0.098 0,-0.1062 0,-0.1265 -0.01,-0.1664 0.045,-0.1403 0.085,-0.2644 0.095,-0.3958 0.012,-0.1642 0.011,-0.3409 0.034,-0.7901 0,-0.042 0,-0.083 -0.012,-0.1235 0,-3e-4 -0.09,-0.1822 -0.09,-0.1825 -2e-4,-3e-4 -0.08,-0.082 -0.08,-0.082 -0.01,-0.397 -0.017,-0.794 -0.02,-1.1896 -0.021,-3.3854 0.049,-6.7665 0.1689,-10.1462 0.1515,-5.3129 0.3457,-10.64844 0.015,-16.01235 l -0.019,0.15706 c 10e-5,-2.9e-4 0.016,-0.18319 0.016,-0.18344 0,-2.8e-4 -0.046,-0.15156 -0.046,-0.1519 -10e-5,-2.5e-4 -0.062,-0.0937 -0.062,-0.0941 -2e-4,-2.3e-4 -1.9494,0.35637 -2.2038,0.41301 -0.3137,0.0731 -0.633,0.11827 -0.7198,0.12593 -1.9747,0.24928 -4.0045,0.0978 -6.0203,-0.22843 -0.7972,-0.18289 -1.5801,-0.32008 -2.3213,-0.53381 -2.0384,-0.58789 -3.9611,-1.57449 -5.7578,-2.76268 -0.01,-0.16768 -1.2392,-0.12246 -1.2392,-0.12246 z m 0.6893,1.07336 c 1.8244,1.35596 3.8598,2.43936 6.026,3.08612 0.8247,0.24621 1.6451,0.39051 2.4293,0.57567 0.01,-0.002 0.022,0.005 0.033,0.006 2.1032,0.32886 4.2778,0.50876 6.4073,0.1111 0.2152,-0.0407 0.5592,-0.10481 0.9059,-0.22892 0.2645,-0.0962 0.5253,-0.25627 0.7436,-0.47954 0,0.0433 0,0.086 0,0.12969 -0.022,0.98484 -0.029,1.41393 -0.031,1.59524 -6e-4,0.0449 5e-4,0.0743 9e-4,0.10029 0,0.0129 -0.01,0.0181 0,0.0614 0,0.009 0.01,0.0424 0.01,0.0493 2e-4,6.9e-4 0,0.009 0,0.009 0,0.0328 0,0.0241 0,0.0693 0,0.30954 -0.014,0.95192 -0.04,2.2164 -0.074,3.60957 -0.2311,7.21737 -0.3602,10.83187 -0.1063,3.4025 -0.1796,6.8204 -0.025,10.2515 0.015,0.3257 0.08,1.5916 0.2232,2.479 -0.1125,0.2571 -0.2265,0.5144 -0.3395,0.7725 -0.3025,0.5322 -0.5804,1.0624 -0.8867,1.557 -2.5339,4.0926 -5.6513,7.8014 -9.3839,10.8201 -0.7383,0.5495 -1.4496,1.1139 -2.1839,1.6262 -2.1214,1.4802 -7.9475,3.2343 -8.0393,3.1862 -0.1562,-0.083 -0.3134,-0.1777 -0.4837,-0.2511 -0.085,-0.036 -0.1715,-0.073 -0.307,-0.083 -0.01,0 -0.026,0.019 -0.038,0.02 -0.553,-0.3163 -1.105,-0.601 -1.5926,-0.9281 -3.783,-2.5375 -7.0012,-5.9109 -9.448,-9.7508 -0.6561,-1.0298 -1.2067,-2.1498 -1.8283,-3.2582 -0.4332,-1.0467 -0.9113,-2.0534 -1.2692,-3.0742 -0.8929,-2.5474 -1.3428,-5.2385 -1.1782,-7.8714 0,-0.094 -0.02,-0.1881 -0.072,-0.2692 -0.021,-0.2218 -0.041,-0.4426 -0.046,-0.6532 -0.016,-0.6419 0.01,-1.2933 0.021,-1.9534 0.024,-0.9967 0.1645,-4.5892 0.1984,-5.4793 0.097,-2.5398 0.1569,-3.5824 0.1767,-6.1127 0.015,-1.97595 0,-3.97678 -0.2087,-5.97851 0,-0.0362 0,-0.0666 -0.019,-0.0987 l 0.01,-0.002 c 0.064,0.0301 0.099,0.063 0.1696,0.0899 1.307,0.49278 2.7195,0.73905 4.0566,0.84183 2.1854,0.16783 4.4445,0.0856 6.5866,-0.24603 1.1897,-0.18442 2.3202,-0.50562 3.4422,-0.74985 0.016,-0.003 0.031,-0.0148 0.047,-0.0177 2.0692,-0.71004 3.2824,-0.98491 5.1449,-2.09757 0.4051,-0.2418 0.8011,-0.54471 1.1519,-0.90485 z m -0.8825,3.13921 c -0.02,0.0172 -0.021,0.0191 -0.044,0.0387 -0.2857,0.23582 -0.6061,0.43943 -0.9446,0.61758 -1.5788,0.8308 -2.3124,0.97616 -4.1285,1.573 -0.942,0.2079 -1.8526,0.46191 -2.7678,0.60877 -1.685,0.27008 -3.5192,0.36506 -5.2441,0.27384 -1.0246,-0.0542 -2.1263,-0.21358 -3.1057,-0.5291 -0.1553,-0.0498 -0.3402,-0.16253 -0.5747,-0.27183 l 0.028,0.0154 c -2e-4,-5e-5 -0.1486,-0.0483 -0.1488,-0.0483 -3e-4,-4e-5 -0.118,0.006 -0.1184,0.006 v 0.009 c -0.216,0.12204 -0.035,-0.10694 -0.2377,0.17467 -0.012,0.0183 -0.019,0.035 -0.029,0.0529 0,9e-5 -0.01,0.002 -0.012,0.003 l -0.018,0.003 -0.01,0.002 c 0,0 -10e-5,-2.4e-4 -0.01,0.002 0,9e-5 -0.012,0.002 -0.012,0.002 -10e-5,10e-6 -0.047,0.0177 -0.047,0.0177 -0.1371,0.0562 -0.2223,0.19195 -0.2145,0.34257 0.176,3.52421 -0.01,7.04921 -0.1384,10.58601 0,-10e-5 0,0.01 0,0.01 -0.026,2.0758 -0.1725,4.1858 0.044,6.3236 0.026,0.2531 0.072,0.4934 0.1146,0.7267 -0.2444,1.4894 -0.1446,3.023 0.1551,4.4989 0.1608,0.7911 0.3512,1.5869 0.6067,2.3693 0.305,0.9304 0.7054,1.8089 1.0469,2.6836 0,0.016 0.014,0.029 0.021,0.043 0.5022,0.9267 0.9592,1.9061 1.5426,2.8416 2.0842,3.3416 4.9474,6.384 8.3117,8.492 0.5321,0.3336 1.0833,0.5681 1.5849,0.8314 0.023,0.013 0.048,0.022 0.073,0.029 -0.021,-0.01 0.1078,0.042 0.2439,0.096 0.1358,0.053 0.3071,0.1161 0.4931,0.1644 0.9826,0.2614 1.3229,0.2081 1.5019,0.2156 0.1744,-0.043 0.3749,-0.079 0.5891,-0.1409 1.985,-0.6026 3.917,-1.6955 5.5789,-2.8241 0.6482,-0.4401 1.2549,-0.9171 1.8682,-1.3653 0.01,0 0.013,-0.011 0.019,-0.015 0.6222,-0.5325 1.2777,-1.0491 1.8975,-1.6257 2.3867,-2.2206 4.5024,-4.8432 6.1109,-7.6993 0.2658,-0.472 0.4741,-0.9557 0.6981,-1.4092 0.01,-0.018 0.016,-0.037 0.022,-0.057 l 0.058,-0.2057 c 0.1312,-0.012 0.2426,-0.094 0.2914,-0.2145 0.015,-0.047 0.024,-0.07 0.033,-0.097 0.028,-0.023 0.052,-0.051 0.072,-0.082 0,-0.089 0,-0.1056 -0.01,-0.1389 0.038,-0.117 0.07,-0.2205 0.079,-0.3302 0.01,-0.137 0.01,-0.2846 0.029,-0.6594 0,-0.035 0,-0.069 -0.01,-0.1029 -10e-5,-1e-4 -0.075,-0.1521 -0.075,-0.1523 -2e-4,-3e-4 -0.066,-0.068 -0.066,-0.068 -0.01,-0.3313 -0.014,-0.6627 -0.016,-0.9927 -0.017,-2.8245 0.04,-5.6454 0.1406,-8.4651 0.1263,-4.4327 0.2881,-8.8841 0.012,-13.35945 l -0.016,0.13085 c 10e-5,-2.1e-4 0.014,-0.15221 0.014,-0.15247 10e-5,-1.9e-4 -0.039,-0.12624 -0.039,-0.12658 0,-1.8e-4 -0.052,-0.078 -0.052,-0.0789 -2e-4,-1.6e-4 -0.03,-0.032 -0.044,-0.0429 -0.051,-0.0441 -0.078,-0.0535 -0.098,-0.0623 -0.04,-0.0176 -0.057,-0.0216 -0.077,-0.0268 -0.038,-0.01 -0.9344,-0.0343 -0.9344,-0.0343 -2e-4,3e-5 -0.1043,0.0419 -0.1044,0.0419 l -0.085,0.0716 -0.073,0.14467 c -0.01,0.03 -0.01,0.06 -0.01,0.0904 0,0.009 0,0.009 0,0.013 -0.065,0.0265 -0.2057,0.0986 -0.4175,0.14815 -0.2619,0.0607 -0.5282,0.0987 -0.6009,0.10365 -1.6476,0.20796 -3.3411,0.0815 -5.023,-0.19077 -0.665,-0.15254 -1.3184,-0.26712 -1.9369,-0.44543 -1.7007,-0.4905 -3.3043,-1.3134 -4.8033,-2.30475 -0.01,-0.13992 -1.0106,-0.0854 -0.9964,-0.0764 z m 0.5373,0.87298 c 1.5221,1.1313 3.2203,2.03541 5.0276,2.57502 0.6881,0.20542 1.3725,0.32556 2.0268,0.48004 0.01,-0.002 0.018,0.006 0.027,0.006 1.7548,0.27435 3.5697,0.42423 5.3465,0.0925 0.1795,-0.034 0.4662,-0.0872 0.7554,-0.19087 0.2207,-0.0799 0.4381,-0.21374 0.6201,-0.40002 0,0.0362 0,0.0715 0,0.10809 -0.019,0.82169 -0.025,1.17937 -0.026,1.33067 0,0.038 0,0.062 5e-4,0.084 0,0.011 -0.01,0.015 8e-4,0.052 0,0.01 0.01,0.036 0.01,0.042 10e-5,5e-4 0,0.01 0,0.01 0,0.028 0,0.021 -8e-4,0.058 0,0.2582 -0.012,0.7939 -0.033,1.8489 -0.062,3.0116 -0.193,6.0216 -0.3008,9.0372 -0.089,2.8388 -0.1499,5.6903 -0.021,8.5529 0.012,0.2718 0.067,1.3284 0.1866,2.0687 -0.094,0.2146 -0.1889,0.4286 -0.2832,0.6438 -0.2524,0.4441 -0.4844,0.8871 -0.74,1.2997 -2.1141,3.4145 -4.7154,6.5088 -7.8295,9.0274 -0.616,0.4585 -1.2091,0.9291 -1.8217,1.3565 -1.7699,1.2349 -3.6772,2.3164 -5.7231,2.9957 0,-0.016 -0.796,-0.2723 -0.7959,-0.2722 0,0.01 0,0.01 0,0.015 -0.064,-0.027 -0.1171,-0.045 -0.1938,-0.086 -0.1302,-0.069 -0.262,-0.1481 -0.4041,-0.2093 -0.071,-0.03 -0.1422,-0.061 -0.2552,-0.07 -0.01,0 -0.021,0.016 -0.031,0.017 -0.4614,-0.2639 -0.9222,-0.5012 -1.3291,-0.7741 -3.1562,-2.1171 -5.8408,-4.9318 -7.8823,-8.1355 -0.5474,-0.8592 -1.0067,-1.7933 -1.5254,-2.7181 -0.3615,-0.8733 -0.7603,-1.7137 -1.0589,-2.5652 -0.7449,-2.1254 -1.1207,-4.3703 -0.9834,-6.5671 0,-0.078 -0.017,-0.1567 -0.06,-0.2242 -0.018,-0.185 -0.034,-0.3695 -0.039,-0.5452 -0.013,-0.5355 0,-1.0792 0.017,-1.6299 0.02,-0.8316 0.1376,-3.8291 0.1659,-4.5717 0.081,-2.119 0.1307,-2.9889 0.1473,-5.1 0.013,-1.6486 0,-3.3177 -0.1742,-4.98781 0,-0.0302 0,-0.0553 -0.015,-0.0822 l 0.01,0.007 c 0.053,0.025 0.082,0.0527 0.1416,0.0749 1.0904,0.41113 2.2687,0.61607 3.3843,0.70175 1.8233,0.14007 3.7081,0.0716 5.4952,-0.20513 0.9927,-0.15376 1.9362,-0.42111 2.8724,-0.62433 0.014,-0.003 0.026,-0.0139 0.039,-0.0163 1.7263,-0.59237 2.7389,-0.82192 4.2928,-1.75022 0.338,-0.20172 0.668,-0.45398 0.9606,-0.75447 z"
             sodipodi:nodetypes="cccscsssccscccccccscccccscccccsssccsccsscsssccccccsssscccccssscccsccccscccccsccsccsccccccsccccsscscccsssccccssccscccscsssccscccccccscccccscscsccssccsscsscsssscccccsssscscccsssccssccccccccscscssccccccccsccccsccccsccccccccscscccsssccccssccscscs" /><path
             id="path11735"
             style="fill:#000000;stroke-width:0.9;stroke-linecap:round;stroke-linejoin:round;stroke-opacity:0.996078;-inkscape-stroke:none;paint-order:markers fill stroke"
             d="m 1376.3906,1001.0236 c -0.011,-0.01 -0.022,0 -0.033,-0.01 0.01,0 0,10e-5 -0.013,0 -0.1848,0.035 -0.38,0.071 -0.5767,0.1359 v 0 c -0.6631,0.204 -0.8843,0.3763 -1.437,0.6997 v -10e-5 c -4e-4,2e-4 0,0 0,0 -0.021,0.025 -0.035,0.054 -0.039,0.086 -0.01,-0.01 -0.029,-0.014 -0.029,-0.014 l 0.042,-0.055 0.018,-0.014 c -0.01,0 -0.011,0 -0.016,0 -0.945,0.6612 -1.7003,1.5376 -2.233,2.5539 -0.1018,0.1947 -0.1823,0.3856 -0.2645,0.5591 2e-4,5e-4 10e-5,0 2e-4,0 -0.2875,0.6176 -0.4789,1.2835 -0.5896,1.9709 -0.1071,-0.4756 -0.2663,-0.9331 -0.4657,-1.3637 -2e-4,-5e-4 -10e-5,0 -10e-5,0 -0.1401,-0.2976 -0.3028,-0.5718 -0.4564,-0.8371 -0.1569,-0.2694 -0.3463,-0.4845 -0.4961,-0.6857 -4e-4,0 0,0 0,0 -0.2039,-0.2607 -0.4302,-0.5103 -0.6842,-0.7364 h -2e-4 c -0.4682,-0.4239 -0.9882,-0.8001 -1.571,-1.0816 h -0.01 c -0.3754,-0.1684 -0.7914,-0.3094 -1.2417,-0.3312 -7e-4,-4e-4 0,0 0,0 -0.3604,0.077 -0.6689,0.073 -1.0034,0.1011 v -10e-5 c -0.1662,0.022 -0.3301,0.061 -0.4848,0.1132 -1.2446,0.3095 -2.1442,0.9805 -2.7456,1.6191 0.1298,-0.2221 0.259,-0.4451 0.3891,-0.661 0.041,-0.068 0.091,-0.1405 0.1421,-0.2211 v -0.01 c 0.01,-0.013 0.016,-0.028 0.016,-0.028 0.012,-0.02 0.021,-0.043 0.024,-0.067 10e-5,-2e-4 0,-0.01 0.01,-0.017 0,-0.01 0,-0.012 0.01,-0.019 7e-4,-2e-4 3e-4,-10e-5 0,-0.01 10e-5,-9e-4 0,0 0,0 h 3e-4 c 10e-5,-1e-4 -3e-4,0 -2e-4,0 0,-0.01 10e-5,-0.048 -2e-4,-0.049 v 0 c 0,0 0,0 0,-0.01 0,0 0,-0.01 0,-0.012 0,-0.01 0,-0.021 0,-0.015 0,-2e-4 0,-0.016 0,-0.018 -0.012,-0.065 -0.049,-0.1344 -0.026,-0.072 0,-0.016 -0.014,-0.029 -0.024,-0.041 -0.013,-0.017 -0.022,-0.03 -0.032,-0.043 -5e-4,10e-5 0,0 0,0 -0.018,-0.022 -0.038,-0.046 -0.064,-0.07 v 0 c -0.024,-0.025 -0.05,-0.048 -0.076,-0.068 -6e-4,10e-5 0,0 0,0 -0.1653,-0.1145 -0.1175,-0.059 -0.3017,-0.08 -7e-4,1e-4 0,2e-4 0,2e-4 v -2e-4 h -0.01 -0.01 c 0,0 -0.062,0.023 -0.064,0.024 2e-4,7e-4 0,0 -0.01,0 -0.01,0 -0.011,0.011 -0.018,0.012 -0.01,0 -0.01,0 -0.012,0.011 h 0.021 c -0.013,0 -0.013,0.015 -0.024,0.023 0.019,-0.013 0.039,-0.018 0.039,-0.018 -0.017,0 -0.032,0.015 -0.045,0.025 -0.036,0.026 -0.075,0.062 -0.082,0.078 0,-0.01 0.01,-0.016 0.01,-0.016 -2e-4,3e-4 0.02,-0.025 0.031,-0.039 h -0.01 c -0.011,0.012 -0.027,0.03 -0.04,0.042 -0.6662,-1.0323 -2.9374,-1.7882 -3.655,-1.7756 -0.01,-0.01 -0.013,-0.01 -0.019,-0.013 -0.2045,0 -0.4102,0.022 -0.615,0.054 v -2e-4 c -0.6791,0.103 -0.9302,0.2406 -1.5142,0.4749 v -2e-4 c -0.013,0 -0.026,0 -0.037,0.016 -1.0317,0.5148 -1.9071,1.2686 -2.5832,2.1957 -0.1295,0.1775 -0.2364,0.353 -0.3432,0.5126 -5e-4,8e-4 0,0 0,0 -0.4987,0.7559 -0.9065,1.5954 -1.0785,2.5198 -0.1234,0.6641 -0.095,0.8901 -0.098,1.5425 l 0.01,0.029 c 0.09,1.1115 0.376,2.2213 1.0108,3.1884 0.3386,0.5163 0.5301,0.6745 0.9281,1.0759 0.01,0.01 0.017,0.015 0.026,0.021 0.7707,0.6838 1.6223,1.0893 2.5756,1.3762 0.1713,0.051 0.3384,0.091 0.494,0.1333 7e-4,5e-4 0,0 0,0 0.676,0.1685 1.3826,0.2366 2.0934,0.1327 0.4426,-0.065 0.6147,-0.1322 1.0021,-0.2487 0,0 10e-5,5e-4 0.014,0 0,-10e-5 -4e-4,-10e-5 0,-3e-4 0.01,0 0.016,0 0.024,0 0.1201,-0.047 0.2562,-0.093 0.3994,-0.1555 0.1,-0.043 0.2682,-0.1354 0.4217,-0.2454 0.1033,0 0.2005,-0.022 0.2363,-0.044 0.013,0 0.024,-0.014 0.033,-0.019 0.01,0 0.01,0 0.025,-0.017 0.01,0 0.024,-0.02 0.024,-0.02 l 0.028,-0.044 c 0.081,-0.081 0.1299,-0.1881 0.099,-0.3038 -10e-5,0 -0.011,-0.013 -0.012,-0.018 0.01,-0.046 0.015,-0.1047 0,-0.1799 -0.01,-0.052 -0.034,-0.074 -0.055,-0.095 -0.088,-0.5517 -0.2002,-1.2835 -0.2892,-1.8592 0.014,-0.019 0.023,-0.023 0.038,-0.053 -10e-5,-7e-4 2e-4,0 3e-4,0 0.053,-0.1094 0.075,-0.2521 0.016,-0.3984 -0.093,-0.2301 -0.3083,-0.3271 -0.4708,-0.3561 -0.1494,-0.026 -0.2849,-0.016 -0.3462,-0.016 -0.077,0 -0.1421,0.058 -0.1606,0.1334 v 4e-4 c 0,-2e-4 -0.016,0 -0.016,0 v 0 c -0.01,0 -0.022,0 -0.022,0 h -0.011 -0.01 l -0.053,0.04 0.097,-0.053 v 0.01 0 c 0,0 0.028,0.149 0.031,0.1643 v 0.01 c 0,0 -0.028,0 -0.046,0 -0.017,0 -0.023,0 -0.046,0.01 l 0.01,-0.01 c -0.029,0 -0.042,0 -0.059,0 l 0.017,-0.025 c -0.01,0 -0.02,0 -0.024,0.014 -4e-4,7e-4 -9e-4,2e-4 0,0 0,3e-4 -0.01,0 -0.01,0 -0.6029,0.1946 -1.2561,0.2444 -1.8685,0.1085 -0.1337,-0.029 -0.286,-0.081 -0.4533,-0.1302 -0.2249,-0.1006 -0.5339,-0.2327 -0.682,-0.3343 -0.5063,-0.3474 -0.5808,-0.5467 -0.6997,-1.1643 -0.011,-0.1656 -0.03,-0.3155 -0.03,-0.4439 -0.01,-0.653 0.1289,-1.3233 0.4083,-1.9038 0.052,-0.1077 0.1313,-0.2315 0.2108,-0.3689 0.1039,-0.1229 0.1915,-0.239 0.2713,-0.3184 0.1293,-0.1285 0.415,-0.2634 0.7333,-0.3457 0.3182,-0.082 0.6692,-0.1164 0.925,-0.107 h -2e-4 c 0.034,0 0.1276,0.026 0.232,0.051 0.1575,0.084 0.3365,0.1802 0.3861,0.229 0.1662,0.1637 0.2461,0.3388 0.2475,0.5555 l 0.01,0.03 v 0.014 -0.022 c 0,0 0.01,0.043 0.01,0.044 h -10e-5 c 2e-4,0 -3e-4,10e-5 0,0 3e-4,0 0,0.01 0,0.01 v 0.025 c 0,0.01 0,0.021 0.014,0.026 5e-4,-10e-5 0,0.01 0,0.01 l 2e-4,-10e-5 h -10e-5 c 0.03,0.081 0.1138,0.1293 0.1984,0.1132 l -0.1627,-0.053 c 3e-4,5e-4 -10e-5,0 2e-4,-10e-5 0.011,0.01 0,0.015 0.05,0.052 0,0 0,0.01 0.01,0.01 0,0 0.012,0.01 0.019,0.014 0.037,0.025 0.076,0.041 0.08,0.043 0.029,0.012 0.05,0.018 0.066,0.024 0,0.011 0,0.02 0.065,0.041 0.054,0.017 0.082,0.017 0.07,0.013 0.061,0.041 0.1209,0.076 0.1938,0.072 0.073,-3e-4 0.1397,-0.026 0.1783,-0.058 0.05,-0.034 0.094,-0.078 0.1157,-0.1095 0.066,-0.083 0.1308,-0.1827 0.1938,-0.2853 0.069,-0.1117 0.1309,-0.2235 0.1431,-0.2438 v 0 c 0.039,-0.062 0.076,-0.1259 0.1152,-0.1881 -0.1501,0.5127 -0.2584,1.037 -0.3028,1.5689 -0.07,0.8071 -0.016,1.6299 0.1933,2.4231 v 0 c 0.071,0.2517 0.1538,0.4959 0.2336,0.7338 0.057,0.1911 0.1489,0.3308 0.1937,0.4274 3e-4,-1e-4 0,0 0,0.01 v 0.017 c 0.1787,0.3564 0.3783,0.7244 0.6517,1.0577 4e-4,7e-4 10e-5,7e-4 0,0 3e-4,5e-4 -7e-4,2e-4 -5e-4,10e-5 0.3274,0.4147 0.71,0.7964 1.1561,1.1049 6e-4,4e-4 10e-5,9e-4 0,0 0.4099,0.2759 0.8631,0.4467 1.3105,0.5685 10e-5,5e-4 0,0 0,0 0.4688,0.1173 0.9431,0.1373 1.3973,0.1251 0.209,0 0.4161,-0.016 0.618,-0.048 0.573,-0.079 1.1467,-0.2328 1.6791,-0.5003 0.4994,-0.2408 0.9605,-0.5547 1.3688,-0.925 0.4302,-0.3927 0.8083,-0.8507 1.0972,-1.3663 0.1694,-0.3026 0.3279,-0.6214 0.447,-0.9658 v 0 c 0.069,-0.1848 0.1326,-0.3759 0.1829,-0.5752 0,0.015 0,0.021 0.01,0.035 0,0.01 0,0.01 0,0.016 2e-4,0 0,-0.011 0,0.01 -2e-4,1e-4 0,0.01 0,0.01 0.2521,1.087 0.697,2.143 1.467,3.0067 0.4107,0.4605 0.6254,0.5898 1.0786,0.9285 7e-4,6e-4 0,0 0.01,0.01 l 0.012,0.01 0.014,0.01 c 4e-4,3e-4 -10e-5,-5e-4 0,-2e-4 0.8609,0.5603 1.7613,0.8355 2.744,0.9788 0.1757,0.025 0.3458,0.042 0.5069,0.061 l -10e-5,-4e-4 c 0.6939,0.067 1.4015,0.031 2.0888,-0.1757 0.4251,-0.128 0.5886,-0.2228 0.9498,-0.3932 0.01,0 0.014,0 0.02,0 0.01,0 0.015,0 0.022,0 0.1131,-0.064 0.2411,-0.1312 0.3731,-0.2134 0.091,-0.056 0.2396,-0.1716 0.3726,-0.2992 0.111,-0.01 0.2052,-0.061 0.2285,-0.078 7e-4,0 0,3e-4 0,4e-4 0.012,-0.011 0.022,-0.017 0.032,-0.024 0.01,0 -10e-5,-2e-4 0.022,-0.019 l 0.011,-0.011 c 10e-5,-1e-4 0.016,-0.022 0.016,-0.022 0,-10e-5 0.012,-0.026 0.013,-0.027 l 0.01,-0.01 c 0.065,-0.086 0.1029,-0.1902 0.067,-0.2961 0,-0.011 0,-0.015 -0.01,-0.027 0,-0.012 -0.018,-0.025 -0.026,-0.039 0,-0.039 -0.01,-0.08 -0.026,-0.1372 -0.018,-0.048 -0.038,-0.071 -0.063,-0.09 -0.1691,-0.5342 -0.391,-1.2504 -0.5648,-1.8107 0.012,-0.021 0.02,-0.025 0.031,-0.061 0,-5e-4 2e-4,0 2e-4,0 0.034,-0.1153 0.036,-0.2573 -0.042,-0.3929 -7e-4,-5e-4 0,0 0,0 -0.1261,-0.2136 -0.3522,-0.2762 -0.5162,-0.2811 -0.1533,-0.01 -0.2855,0.026 -0.3468,0.036 -0.075,0.014 -0.1295,0.082 -0.1349,0.1586 -0.01,0 -0.011,0 -0.017,0 v 0 0.012 l 0.01,-0.01 c 0,0 0.029,0.099 0.042,0.139 0,0.01 0,0.022 0,0.022 2e-4,8e-4 0,0.01 0,0.01 0,0 -0.029,0 -0.047,-10e-5 0.02,0.01 0.049,0.01 0.049,0.01 -0.038,0 -0.075,0 -0.108,0.02 l 0.01,-0.023 -0.065,0.012 0.01,-0.014 c -9e-4,0 0,0 0,0 0,0 -0.01,0 -0.011,0.011 10e-5,8e-4 -0.01,0 -0.01,0 -0.5667,0.2797 -1.203,0.4228 -1.8263,0.3808 -5e-4,10e-5 10e-5,0 10e-5,10e-5 -0.1349,-0.01 -0.2911,-0.039 -0.4635,-0.064 -0.2377,-0.067 -0.5637,-0.1506 -0.7256,-0.2295 -0.5542,-0.2704 -0.6555,-0.4527 -0.8655,-1.0511 -0.038,-0.1558 -0.075,-0.302 -0.095,-0.432 -0.1012,-0.645 -0.066,-1.326 0.1245,-1.9415 5e-4,-2e-4 0,-1e-4 0,-2e-4 0.036,-0.1173 0.095,-0.2532 0.154,-0.4031 0.082,-0.1333 0.1507,-0.2569 0.218,-0.3472 0.1091,-0.1464 0.375,-0.3207 0.6775,-0.4491 0.3009,-0.128 0.6378,-0.2164 0.8925,-0.2425 3e-4,-10e-5 0,-2e-4 0,-2e-4 0.042,0 0.1371,0.01 0.2443,0.015 0.1665,0.059 0.3552,0.1285 0.4114,0.1695 0.1888,0.1377 0.2939,0.2988 0.3271,0.5126 v 0.01 0.012 c 0,0 0.016,0.037 0.016,0.039 h -10e-5 c 4e-4,-10e-5 0,0 0,0 7e-4,-2e-4 0,0.01 0,0.01 0,0.01 0,0.016 0.013,0.023 0,0.01 0.012,0.016 0.013,0.023 0,0 0,0.01 0,0.012 5e-4,-10e-5 0,0 0,0.01 6e-4,-10e-5 0,0.01 0,0.01 10e-5,0 0.011,0.01 0.011,0.01 l 0.1417,-0.1037 -0.1241,0.1246 0.01,0.01 v -2e-4 c 0.052,0.046 0.1257,0.056 0.1887,0.028 0,0 -0.1742,-0.015 -0.1741,-0.015 0.01,0.01 0.011,0.011 0.033,0.028 0,0 0,0.01 0.01,0.01 0.01,0.01 0.021,0.01 0.033,0.016 7e-4,3e-4 -10e-5,-7e-4 0,-2e-4 0.042,0.022 0.082,0.032 0.085,0.033 0.026,0.01 0.053,0.015 0.079,0.021 0.011,0.01 0.014,0.017 0.066,0.026 0.031,0 0.049,0 0.065,4e-4 0.069,0.035 0.136,0.064 0.2118,0.048 6e-4,-2e-4 -10e-5,-3e-4 -10e-5,-3e-4 0.061,-0.012 0.1204,-0.043 0.1613,-0.084 0.041,-0.037 0.077,-0.084 0.092,-0.1137 0.056,-0.096 0.1044,-0.2086 0.1529,-0.3229 0.051,-0.1196 0.097,-0.2346 0.1086,-0.2615 v 0 c 0.2556,-0.5905 0.5126,-1.1839 0.7596,-1.7824 0.1404,-0.3406 0.2701,-0.6798 0.4077,-1.0096 l 10e-5,10e-5 c 0.03,-0.073 0.07,-0.1508 0.109,-0.2392 6e-4,-10e-5 0,-0.01 0,-0.01 l 0.012,-0.03 c 0.01,-0.015 0.01,-0.031 0.013,-0.046 0,0 0.01,-0.019 0.01,-0.02 l 5e-4,-1e-4 c 2e-4,0 0,0 0,-0.01 9e-4,-2e-4 0,-0.01 0,-0.014 8e-4,-10e-5 0,-0.01 0,-0.01 -8e-4,1e-4 0,0.01 0,0.01 0,-10e-5 0,0.01 -0.01,0.014 v 0.01 0 c 0,0 0,-0.01 0.01,-0.01 0.011,-0.04 0.01,-0.082 -0.012,-0.1189 -1.5225,-1.545 -3.2471,-1.5446 -4.6431,-1.3787 z m 3.0737,9.1328 c 5e-4,-10e-5 0,-0.01 0,-0.01 -1e-4,0 10e-5,4e-4 10e-5,4e-4 0,0 0,0.01 0,0.01 z m -21.204,-8.5582 c 0.4902,-0.01 0.9824,0.076 1.4496,0.2445 0.1673,0.06 0.3512,0.1594 0.5571,0.2542 0.2905,0.1937 0.5356,0.3397 0.7374,0.5447 0.1219,0.1238 0.2029,0.2865 0.2842,0.463 -0.082,0.118 -0.1637,0.2343 -0.247,0.3612 -0.3015,0.4596 -0.576,0.9311 -0.8465,1.4051 -0.119,-0.1855 -0.2559,-0.3601 -0.4356,-0.4924 -0.1597,-0.1178 -0.3168,-0.1694 -0.4041,-0.215 -7e-4,-3e-4 0,0 0,0 -0.025,-0.012 -0.053,-0.023 -0.081,-0.029 -0.1066,-0.023 -0.2661,-0.083 -0.4677,-0.096 -0.7612,-0.05 -1.8214,0.099 -2.4412,0.6765 -0.1563,0.1458 -0.2638,0.2959 -0.3643,0.4092 l -0.01,0.011 c -3e-4,3e-4 -0.01,0.01 -0.01,0.016 -2e-4,3e-4 0.038,-0.028 0.055,-0.041 -0.024,0.013 -0.044,0.028 -0.061,0.048 v 0 l -0.01,0.01 -0.01,0.01 c -0.01,0.01 -0.01,0.011 -0.01,0.016 -3e-4,8e-4 0,0 0,0 v 0.01 c -0.461,0.6632 -0.7427,1.4225 -0.8356,2.2185 -0.061,0.5212 -0.029,0.682 0,1.1674 v 0.019 c -10e-5,0 0,0.01 0,0.01 0.083,0.546 0.2711,1.0732 0.6657,1.5151 0.2764,0.3092 0.6293,0.548 0.9611,0.7302 0.1889,0.1036 0.3707,0.1664 0.5178,0.232 0.01,0 0.012,0 0.021,0.01 0.01,0.01 0.016,0.017 0.061,0.02 l -0.038,-0.01 c 0.1708,0.05 0.3627,0.1238 0.585,0.1706 0.7426,0.156 1.5366,0.1152 2.2666,-0.1328 0.033,0.4193 0.093,0.8401 0.1773,1.2185 -0.056,0.031 -0.077,0.05 -0.2558,0.1196 -0.1024,0.039 -0.2186,0.077 -0.3415,0.1205 -7e-4,2e-4 -8e-4,-2e-4 0,-3e-4 -0.3598,0.1 -0.5146,0.1547 -0.8647,0.206 -0.5647,0.082 -1.1374,0.021 -1.7104,-0.124 v 0 c -0.3798,-0.1046 -0.5266,-0.1354 -0.8821,-0.2693 -0.5795,-0.2183 -1.116,-0.5217 -1.5762,-0.9209 -0.3675,-0.3692 -0.5006,-0.4654 -0.7803,-0.8847 -0.5241,-0.7857 -0.7568,-1.7172 -0.8753,-2.6907 h 10e-5 c -0.015,-0.559 -0.047,-0.7891 0.035,-1.3126 0.1204,-0.7655 0.4808,-1.4833 0.8915,-2.1942 0.2754,-0.4298 0.3103,-0.5156 0.632,-0.8934 0.5165,-0.6067 1.1707,-1.0855 1.8913,-1.4609 0.5312,-0.2169 0.7107,-0.3214 1.2558,-0.4067 v 10e-5 c 0.1697,-0.023 0.3338,-0.039 0.4945,-0.042 0.01,0 0.01,0 0.016,0 z m 18.3096,0.4192 c 0.4873,-0.082 0.9926,-0.068 1.4831,0.03 0.172,0.034 0.3649,0.1046 0.5808,0.1679 0.3182,0.1501 0.5811,0.2576 0.8129,0.4321 0.138,0.104 0.2428,0.2525 0.3488,0.4144 -0.064,0.1293 -0.123,0.2578 -0.1866,0.3953 -0.2308,0.4993 -0.4335,1.006 -0.6315,1.5152 -0.1452,-0.1666 -0.3055,-0.3189 -0.5032,-0.4237 -0.1754,-0.093 -0.3384,-0.1232 -0.4316,-0.1556 l 0.016,0.01 c -0.053,-0.024 -0.094,-0.024 -0.1029,-0.025 -5e-4,0 0,-3e-4 -10e-5,-3e-4 -0.109,-0.01 -0.2749,-0.043 -0.4759,-0.026 -0.7601,0.063 -1.7858,0.367 -2.3136,1.0289 -0.1346,0.1687 -0.223,0.3366 -0.3079,0.4656 0,0 0,0.01 -0.01,0.01 l -0.01,0.015 -0.01,0.01 c -0.373,0.7351 -0.5378,1.5403 -0.5121,2.356 0.016,0.5236 0.068,0.6801 0.1675,1.157 0,0 0,0.01 0,0.01 10e-5,0 0,-0.015 0,0 0,0.01 0,0.012 0,0.019 0.1617,0.5276 0.4261,1.0222 0.8822,1.4014 0.3192,0.2655 0.7029,0.451 1.0578,0.5824 0.203,0.075 0.3922,0.1085 0.5462,0.1514 10e-5,5e-4 0.01,0 0.01,0 0.014,0.01 0.029,0.01 0.029,0.01 h 0.01 c 0.1752,0.024 0.3774,0.069 0.6051,0.083 0.7569,0.045 1.5382,-0.1101 2.2237,-0.4625 0.095,0.409 0.2148,0.8162 0.3539,1.1782 -0.05,0.039 -0.067,0.059 -0.2335,0.154 -0.098,0.056 -0.2131,0.1116 -0.3313,0.1742 -6e-4,3e-4 0,0 0,10e-5 -0.3338,0.1495 -0.4793,0.2266 -0.8133,0.3276 -0.5465,0.1633 -1.1223,0.1879 -1.7111,0.1282 -0.3946,-0.048 -0.5417,-0.056 -0.9146,-0.137 -0.6085,-0.1313 -1.189,-0.3531 -1.7048,-0.6831 -7e-4,-4e-4 0,0 0,0 -0.408,-0.3032 -0.5542,-0.3855 -0.8894,-0.7555 -0.6344,-0.7007 -1.0041,-1.5899 -1.2645,-2.5357 -10e-5,-6e-4 3e-4,-10e-5 3e-4,-10e-5 -0.094,-0.5479 -0.1581,-0.7722 -0.1542,-1.3013 0.01,-0.7723 0.253,-1.5326 0.5534,-2.2934 l 0.01,-0.01 c 0.2093,-0.4662 0.2285,-0.5557 0.4909,-0.9762 0.4205,-0.6743 0.9983,-1.2437 1.6537,-1.7203 0.4995,-0.2956 0.6573,-0.4249 1.1865,-0.5901 0.1656,-0.049 0.3265,-0.091 0.4853,-0.117 0,0 0.01,0 0.01,-0.01 z m -8.3492,2.0302 c 0.2748,0.2693 0.5547,0.5342 0.8005,0.8335 5e-4,-10e-5 0,0 0,0 0.147,0.1737 0.2787,0.3509 0.3901,0.5395 5e-4,-1e-4 0,0 0,0 0.191,0.3081 0.3676,0.6157 0.4997,0.9301 2e-4,5e-4 10e-5,0 2e-4,0 0.1669,0.3841 0.2986,0.7764 0.3638,1.1746 0.055,0.3401 0.067,0.685 0.026,1.019 -0.035,0.2802 -0.1561,0.5776 -0.275,0.9059 -0.06,0.148 -0.153,0.306 -0.2485,0.4857 -0.3343,0.6019 -0.8073,1.1304 -1.3659,1.5374 -4e-4,4e-4 -10e-5,-5e-4 0,-3e-4 -6e-4,5e-4 0,0 0,0 -0.3863,0.2702 -0.8056,0.4916 -1.2454,0.6589 -0.3728,0.1335 -0.7655,0.2224 -1.1633,0.2736 -0.244,0.024 -0.5031,0.018 -0.7715,0.011 -0.29,-0.014 -0.5744,-0.065 -0.8424,-0.1623 -6e-4,2e-4 1e-4,10e-5 1e-4,2e-4 -0.4427,-0.1575 -0.8487,-0.4214 -1.1716,-0.7607 v 0 c -0.3232,-0.3221 -0.5849,-0.7169 -0.8035,-1.1394 -6e-4,-5e-4 -8e-4,1e-4 0,0 -0.1137,-0.2096 -0.2122,-0.4158 -0.274,-0.6191 l -0.1364,0.2233 c 0,0 0.133,-0.2348 0.1323,-0.2367 -3e-4,-8e-4 -10e-5,-7e-4 0,0 h 2e-4 10e-5 c -0.1392,-0.4034 -0.2662,-0.7966 -0.3147,-1.1839 -0.04,-0.3131 -0.06,-0.6262 -0.06,-0.939 v 0 c 0,-0.5489 0.082,-1.1009 0.2145,-1.6387 h 2e-4 c 0.06,-0.237 0.3778,-0.9935 1.03,-1.5916 1.6537,-1.5166 3.9732,-1.5383 5.2146,-0.3214 z m -2.2815,0.2419 c 0,0 -0.01,0 -0.01,0 -0.016,0 -0.034,0.01 -0.05,0.01 -0.066,8e-4 -0.1321,0.01 -0.1991,0.021 0,-1e-4 0,0 0,0 0,-1e-4 -0.01,0 -0.01,0 -5e-4,10e-5 10e-5,10e-5 10e-5,2e-4 l -10e-5,-10e-5 h -0.017 c -0.093,0.028 -0.1649,0.074 -0.215,0.1138 -0.05,0.04 -0.088,0.077 -0.078,0.069 -5e-4,0 0,-2e-4 0,-3e-4 -0.066,0.047 -0.1072,0.1174 -0.125,0.1933 -0.2306,0.014 -0.458,0.056 -0.6672,0.1564 -0.1838,0.086 -0.3213,0.196 -0.4284,0.2625 -0.012,0 -0.021,0.015 -0.031,0.023 0.01,0 0,0 -0.033,0.029 h -0.01 c -0.093,0.1008 -0.2395,0.219 -0.368,0.4 -0.3782,0.5332 -0.5443,1.2031 -0.493,1.8428 0.046,0.5708 0.1898,0.8168 0.3824,1.2759 l -0.01,-0.037 c 0,0.021 0.012,0.018 0.017,0.032 0,0 0,0.01 0,0.01 0.013,0.019 0.025,0.05 0.027,0.052 0.2874,0.4595 0.6781,1.0561 1.3989,1.1886 0.4489,0.082 0.8794,-0.031 1.2413,-0.2048 5e-4,0 0,2e-4 0,2e-4 0.2144,-0.1038 0.3736,-0.237 0.5085,-0.323 l -0.062,0.024 c 0.061,-0.011 0.083,-0.037 0.096,-0.048 0.012,-0.011 0.018,-0.015 0.01,0 0.01,0 0.011,-0.011 0.017,-0.013 0.1226,-0.1198 0.2848,-0.2493 0.4361,-0.4269 0.3981,-0.4668 0.6666,-1.0489 0.7127,-1.6805 0.041,-0.5679 -0.054,-0.7751 -0.1858,-1.2589 0,-0.018 -0.012,-0.018 -0.016,-0.032 l -5e-4,10e-5 c -0.013,-0.021 -0.023,-0.049 -0.026,-0.055 -0.2428,-0.5382 -0.5853,-1.076 -1.1581,-1.4102 -0.1668,-0.097 -0.3917,-0.2033 -0.6547,-0.2134 z m 1.8556,1.7142 c 1e-4,-10e-5 9e-4,4e-4 8e-4,-2e-4 v -0.013 c 0,0.01 0,0.01 0,0.012 z m -2.5595,-1.1375 c 0,0 0.012,0.016 0.013,0.019 0,0.01 -0.01,0.016 0,0.023 z m 0.9271,0.6594 c 0.026,0.027 0.1063,0.108 0.1063,0.108 0.01,0 0.011,0 0.033,-0.029 0.01,0 0.01,-0.011 0.015,-0.017 v 0 0 c 0,0 0,-0.01 0.01,-0.01 0.2034,0.1971 0.3742,0.4029 0.4878,0.6682 0.136,0.4147 0.1973,0.4878 0.1885,0.896 -0.01,0.4179 -0.1857,0.7992 -0.4681,1.1447 -0.082,0.099 -0.1994,0.2062 -0.3215,0.3302 -0.1434,0.098 -0.2618,0.1933 -0.3556,0.2413 -0.2101,0.1075 -0.4673,0.1719 -0.6407,0.1398 -0.1123,-0.021 -0.3561,-0.1734 -0.4568,-0.2909 -0.071,-0.082 -0.1465,-0.2157 -0.2429,-0.3602 -0.1772,-0.4022 -0.271,-0.5398 -0.3193,-0.94 -2e-4,-5e-4 -10e-5,0 -2e-4,0 -0.053,-0.4333 0.045,-0.8888 0.2754,-1.2572 0.042,-0.068 0.1347,-0.1637 0.23,-0.278 0.1102,-0.083 0.1992,-0.1618 0.2449,-0.1856 0.055,-0.029 0.1515,-0.055 0.2668,-0.081 0.2486,-0.057 0.478,-0.031 0.7007,0.078 v 2e-4 0 h 0.01 c 0.01,0 0.013,0.01 0.019,0.01 0.014,0.01 0.026,0.01 0.026,0.01 0,0 0.01,0.01 0.012,0.01 0,0 0.045,0.01 0.046,0 10e-5,4e-4 0.01,0 0.01,0 h 0.017 c 0.012,0 0.026,0 0.026,0 l 0.035,-0.01 0.028,-0.01 c 0,-2e-4 10e-5,2e-4 0,0 0,-4e-4 0.01,0 0.01,0 0.01,0 0.014,0 0.02,-0.013 h 0.023 c -10e-5,-7e-4 0.01,0 0.012,0 -1e-4,-4e-4 -1e-4,-8e-4 0.01,0 -1e-4,-5e-4 0.012,0 0.012,0 10e-5,-1e-4 0.014,-0.012 0.014,-0.012 0,0 -0.062,-0.093 -0.083,-0.1244 v 0 z m 12.8318,0.8718 c 0,0 0.01,0 0.015,0.01 0,0 10e-5,2e-4 -0.01,0 z m -18.772,3.5583 c 0.037,0.036 0.079,0.076 0.079,0.076 0,0 -0.04,-0.01 -0.078,-0.017 z m -0.2605,0.021 c 0,0 0.023,0.029 0.038,0.039 l 0.01,-0.01 c -0.017,-0.014 -0.041,-0.033 -0.041,-0.033 z m 0.069,0.055 c 10e-5,4e-4 0,0 -0.01,0 l 0.01,0.01 v 0 l -0.01,-0.01 z m 19.4619,0.018 c 0,0 0.02,0.023 0.034,0.03 v -0.01 l -0.036,-0.025 z m 0.073,0.047 c -5e-4,2e-4 0,0 1e-4,10e-5 10e-5,7e-4 0,0 -0.01,0 v 0 0 c -5e-4,-3e-4 3e-4,0 -10e-5,10e-5 z m -19.6246,0.1193 c 0,0.01 0,0 0,0.016 l -10e-5,-3e-4 v -0.01 c 0,0 10e-5,-5e-4 2e-4,0 z m 19.5476,0.056 c 0.01,0.035 0,0.039 0.031,0.073 l -0.01,-0.01 v -0.01 c 10e-5,10e-5 -0.02,-0.044 -0.02,-0.044 v -0.01 l 3e-4,-10e-5 z m -19.4877,0 c 0,0 0.01,0 0.01,0.01 -0.01,0.01 -0.021,0.024 -0.021,0.024 l -0.01,-0.01 c 0,0 0.015,-0.014 0.021,-0.02 z m 19.5208,0.072 c 0.01,0 0.012,0.01 0.016,0.01 10e-5,6e-4 -0.01,0.01 -0.01,0.01 0,0 0,-0.01 -0.011,-0.011 z m 1.4727,2.405 c 10e-5,10e-5 0.01,0.01 0.014,0.01 l -3e-4,10e-5 c 10e-5,0 -0.01,-0.01 -0.014,-0.01 z m 0.062,0.064 c 0,0.01 0.014,0.03 0.017,0.034 -6e-4,-10e-5 -0.01,0 -0.01,0 0,0 0,-0.023 -0.01,-0.034 z m -19.9104,0.098 c 0.012,0 0.021,0.01 0.028,0 -10e-5,-7e-4 -0.01,0 -0.01,0 0,0 -0.011,-0.01 -0.021,-0.01 z m -0.039,0.056 v 0.01 c -10e-5,0 0,0 0,0 v 0 z m 12.7987,0.029 c 0,0 0,0.1655 0,0.172 l -0.036,-0.01 c 0.01,-0.017 0.032,-0.1633 0.032,-0.1633 z m 5.9604,0.1255 -0.1179,0.1727 -0.048,-0.099 c 0.08,-0.035 0.1441,-0.063 0.1664,-0.073 z m -0.1132,0.011 -0.064,0.041 v -0.015 c 0.033,-0.015 0.036,-0.016 0.07,-0.027 z"
             sodipodi:nodetypes="ccsccssccccccscccsccscccscscssccscccsssssccssssscccscccscsssccsssccccscscccccsssccsscsscsscsscscsccsccssccsccccscscccssscccccccscccccccccscsccscsscccsccccssssssssccscsccccsccccsccccsccsccsscscscccccssscssscsssssccccscccscccsssscccsccccscsccccccccscccccccccscsccccscccsssccssccssssssssscccccccccscccccscccsccsccccccsssscssccccccscccscscscssscsscsscssscsscsssccsccccsccssccssscsscscscsscccccccscsccscsssccccssscssccscsccsscccsscsscccccccccccccscccccssccccccccscccscccsccccsccccssccccsccccscscscccsscsscccsccsscsccscsccsccscccscsscccscscscscscsccccssccsssccsssssssscccccccccccccccccccccccccscccccccscsccccsscccccccccccscccccccccccccccccccccccccccccccccccccccccccccccc" /><path
             style="fill:#ffdd55;fill-opacity:1;stroke-width:0.9;stroke-linecap:round;stroke-linejoin:round;stroke-opacity:0.996078;-inkscape-stroke:none;paint-order:markers fill stroke"
             d="m 1346.5284,1029.5889 c 0,0 0.4528,-1.2391 0.691,-1.5966 0.2384,-0.3574 4.2417,-4.4799 4.2417,-4.4799 l -0.3574,-1.0008 -1.1438,-2.097 0.3098,-0.8102 c 0,0 8.7453,-5.1472 15.084,-4.8612 6.3386,0.2859 14.7027,3.0501 16.6329,4.7182 1.9302,1.6681 2.0017,1.8349 2.0017,1.8349 l -6.4578,5.4092 c 0,0 -6.1242,-3.765 -10.0083,-3.5744 -3.8843,0.1907 -9.0076,1.4298 -9.7939,1.9062 -0.7864,0.4767 -0.4052,0.4766 -0.4052,0.4766 l 1.4298,2.4545 -8.2212,6.6007 c 0,0 0.1192,-6.3386 -0.024,-6.3624 -0.1431,-0.024 -3.9795,1.3821 -3.9795,1.3821 z"
             id="path11736" /><path
             style="fill:#ffdd55;fill-opacity:1;stroke-width:0.9;stroke-linecap:round;stroke-linejoin:round;stroke-opacity:0.996078;-inkscape-stroke:none;paint-order:markers fill stroke"
             d="m 1386.7517,1029.6563 c 0,0 -0.4529,-1.2391 -0.691,-1.5966 -0.2384,-0.3574 -4.2417,-4.4799 -4.2417,-4.4799 l 0.3574,-1.0008 1.1438,-2.097 -0.3098,-0.8103 c 0,0 -8.7454,-5.1471 -15.0841,-4.8611 -6.3386,0.2859 -14.7027,3.0501 -16.6329,4.7182 -1.9302,1.6681 -2.0016,1.8349 -2.0016,1.8349 l 6.4578,5.4092 c 0,0 6.1241,-3.765 10.0083,-3.5745 3.8842,0.1907 9.0076,1.4299 9.7939,1.9063 0.7864,0.4767 0.4051,0.4766 0.4051,0.4766 l -1.4297,2.4545 8.2211,6.6007 c 0,0 -0.1192,-6.3387 0.024,-6.3623 0.1426,-0.027 3.9795,1.382 3.9795,1.382 z"
             id="path11737" /><path
             style="opacity:0.5;fill:#ffffff;stroke-width:0.9;stroke-linecap:round;stroke-linejoin:round;stroke-opacity:0.996078;-inkscape-stroke:none;paint-order:markers fill stroke"
             d="m 1367.8724,1014.65 -7.5488,0.3369 -7.9531,2.8985 -1.7523,1.5503 0.2692,0.8088 c 0,0 6.6053,-2.9657 9.7731,-3.6397 3.1677,-0.6743 4.7855,-1.2805 6.2683,-0.9435 1.4828,0.337 9.0992,0.539 9.0992,0.539 z"
             id="path11738" /><path
             id="path11739"
             style="stroke-width:0.9;stroke-linecap:round;stroke-linejoin:round;stroke-opacity:0.996078;paint-order:markers fill stroke"
             d="m 1365.9552,1014.0603 c -2.8537,-0.01 -5.6374,0.4602 -8.3117,1.3916 -0.6683,0.2533 -1.345,0.487 -2.0044,0.7597 -1.1467,0.4743 -2.3531,1.0555 -3.4231,1.6728 -0.7757,0.4475 -1.419,0.8731 -2.0764,1.4459 -0.1489,0.1297 -0.2723,0.2821 -0.4087,0.4232 -0.024,0.022 0.3025,0.3155 0.3411,0.309 -0.2064,0.048 -0.7498,0.2653 -0.7313,0.3127 h -3e-4 c 0.066,0.1501 0.12,0.3054 0.1969,0.4501 0.4748,0.9029 1.109,1.7872 1.6826,2.6273 0.8591,1.2584 0.6338,0.9304 1.4992,2.1394 0.1355,0.1842 0.8952,1.2302 1.1172,1.4867 0.095,0.1096 0.19,0.2269 0.3157,0.2992 0.046,0.027 0.114,0 0.1587,-0.029 0.051,-0.033 0.115,-0.065 0.169,-0.1024 0.2205,0.091 0.5116,0.09 0.5151,-0.2088 0,-0.019 0,-0.041 0,-0.061 0.074,0.062 0.1409,0.1123 0.1509,0.1013 1.3121,-0.8547 2.6954,-1.6016 4.1709,-2.1358 0.4536,-0.1639 0.9182,-0.2965 1.3771,-0.4449 1.6504,-0.4471 3.3488,-0.607 5.0524,-0.6517 1.2168,-0.032 2.3782,-0.019 3.5879,0.1261 0.5278,0.063 1.048,0.1798 1.572,0.2698 1.2305,0.3442 1.4785,0.3662 2.6231,0.8619 0.3685,0.1596 0.7239,0.347 1.0821,0.5282 0.1519,0.077 1.6349,0.866 1.8298,0.9534 0.2431,0.1089 0.4996,0.1847 0.7493,0.2769 0.041,0 0.08,0 0.1206,0 -0.01,0.01 -0.013,0.013 -0.02,0.02 -0.03,0.023 0.303,0.443 0.3328,0.4195 v 6e-4 c 1.3869,-0.6635 2.5958,-1.6413 3.7347,-2.6614 0.4229,-0.3788 0.8376,-0.7669 1.2397,-1.1678 0.3646,-0.3633 0.7062,-0.7494 1.0593,-1.124 0.2582,-0.3188 0.5303,-0.6269 0.7746,-0.9565 0.1434,-0.1935 0.5638,-0.7931 0.6377,-1.126 0.064,-0.2874 -0.1895,-0.3627 -0.4552,-0.2957 0,-0.01 -0.011,-0.011 -0.013,-0.017 -0.014,-0.023 -0.031,-0.071 -0.054,-0.058 -0.1152,0.066 -0.2034,0.1718 -0.3008,0.2624 -0.3173,0.2956 -1.2061,1.1703 -1.4355,1.3948 -1.144,1.115 -2.2855,2.2331 -3.4376,3.3398 -0.3243,0.3115 -0.6507,0.6204 -0.9761,0.9307 -0.235,0.2151 -0.4746,0.4253 -0.7049,0.6455 0,0 -0.01,0 -0.01,0.01 -0.1015,-0.1304 -0.2029,-0.2608 -0.3044,-0.3912 -0.9801,-0.6578 -0.4162,-0.3002 -1.5405,-0.956 -0.3253,-0.1898 -0.6446,-0.3904 -0.9751,-0.571 -1.2571,-0.6868 -2.5709,-1.2493 -3.9688,-1.5839 -0.5618,-0.1078 -1.1187,-0.2467 -1.6857,-0.3235 -1.8842,-0.255 -3.7802,-0.1894 -5.6606,0.057 -0.5868,0.077 -1.1719,0.1695 -1.7508,0.2923 -0.545,0.1156 -1.0781,0.2818 -1.617,0.4227 -0.4783,0.1748 -0.9657,0.3258 -1.4351,0.523 -1.3535,0.5685 -2.673,1.338 -3.7191,2.3796 -0.061,0.061 -0.1176,0.1267 -0.1731,0.1933 -0.1037,-0.2379 -0.2402,-0.4683 -0.3173,-0.603 -0.1789,-0.3122 -0.3775,-0.6126 -0.5664,-0.9188 -1.1598,-1.7262 -2.3759,-3.4303 -3.8168,-4.9362 0,-0.01 -0.027,-0.01 -0.058,0 1.9956,-1.0384 4.0466,-1.9941 6.1655,-2.7957 0.6497,-0.2457 1.311,-0.4644 1.9663,-0.6966 1.5912,-0.4534 2.4539,-0.7459 4.085,-1.0304 1.2973,-0.2261 2.5365,-0.3248 3.855,-0.3266 1.5453,0 2.1183,0.097 3.6308,0.2553 1.6003,0.2068 3.1781,0.5438 4.7362,0.9379 1.081,0.2736 1.8247,0.4745 2.8587,0.8687 0.4205,0.1604 0.8261,0.3523 1.2392,0.5286 1.1259,0.5445 2.0715,1.3307 3.0562,2.0609 0.2954,0.2191 0.5752,0.4597 0.8945,0.6475 0.2729,0.1605 0.5816,0.2607 0.8723,0.3911 0.028,0.013 0.2206,-0.362 0.1922,-0.3746 -0.2211,-0.2564 -0.4204,-0.531 -0.6635,-0.7695 -0.2671,-0.2621 -0.5691,-0.4912 -0.8625,-0.7276 -1.0115,-0.8147 -2.062,-1.5988 -3.2458,-2.188 -0.4361,-0.1903 -0.8628,-0.3997 -1.3079,-0.571 -1.4601,-0.5619 -2.9908,-0.9173 -4.5228,-1.2573 -0.5312,-0.1179 -1.061,-0.24 -1.5952,-0.3452 -0.5602,-0.1103 -1.1248,-0.2004 -1.6872,-0.3007 -1.7046,-0.2073 -2.057,-0.3 -3.8091,-0.3034 z m 0.3075,2.3957 v 0 c -0.5278,0 -1.0554,0.036 -1.5648,0.1013 -0.022,0.014 -0.042,0.028 -0.059,0.046 -0.1187,-0.01 -0.245,-0.013 -0.3748,0.032 l 10e-5,-4e-4 c -0.1016,0.034 -0.1671,0.1258 -0.1602,0.2206 0.097,1.3092 0.1737,2.509 0.3482,3.8138 0,0.022 0.01,0.044 0.021,0.064 0.058,0.1192 0.1454,0.235 0.2941,0.2495 0.1483,0.014 0.2433,-0.083 0.2946,-0.1632 0.093,-0.1441 0.1355,-0.3113 0.1023,-0.4946 0.024,-0.196 0.015,-0.3957 0.011,-0.5772 0,-0.1286 0.01,-0.2085 0.022,-0.2967 0.5286,0.01 1.0636,0 1.5886,-0.06 0.023,0 0.047,-0.01 0.067,-0.021 0.069,-0.034 0.1261,-0.069 0.1767,-0.123 0.051,-0.053 0.095,-0.145 0.084,-0.2382 -0.017,-0.092 -0.064,-0.1567 -0.1111,-0.1958 -0.047,-0.04 -0.096,-0.062 -0.1452,-0.081 -0.1996,-0.079 -0.425,-0.1063 -0.6222,-0.07 0.016,0 0.031,-0.01 0.046,-0.01 -0.3849,-0.01 -0.7695,0.012 -1.1529,0.044 -0.03,-0.4864 -0.1028,-0.9594 -0.1866,-1.4402 0.1762,0.01 0.3561,-0.01 0.4227,0 0.01,0 0.022,0 0.032,0 0.6578,-0.017 1.3474,0.015 2.0396,-0.1162 l 0.035,-0.01 c 0.072,-0.025 0.1326,-0.046 0.1975,-0.1078 0.016,-0.015 0.033,-0.035 0.047,-0.058 0.014,-0.023 0.026,-0.051 0.033,-0.082 0.012,-0.062 0,-0.126 -0.032,-0.1668 -0.013,-0.02 -0.026,-0.036 -0.039,-0.049 -0.042,-0.043 -0.086,-0.06 -0.1246,-0.077 -0.052,-0.023 -0.1036,-0.038 -0.1591,-0.05 -0.2241,-0.055 -0.477,-0.077 -0.6098,-0.078 -0.1728,-0.01 -0.3468,-0.015 -0.5219,-0.015 z m 2.1466,0.1313 c -10e-5,0 -10e-5,0 -2e-4,0 10e-5,2e-4 10e-5,2e-4 10e-5,5e-4 z m -2e-4,0 c -0.038,0 -0.075,0 -0.1122,-5e-4 -10e-5,10e-5 0,0.01 0,0.01 -0.075,0.01 -0.1478,0.028 -0.2099,0.074 -0.1245,0.09 -0.1542,0.2178 -0.1627,0.3141 -0.018,0.1927 0.02,0.3788 0.012,0.4398 0,0.01 -0.01,0.019 -0.01,0.028 0,0.3219 -0.013,0.6454 -0.029,0.9679 -0.035,0.6925 -0.1008,1.511 -0.1358,2.2035 8e-4,0.01 0,0.015 0,0.023 0.01,0.1293 0.04,0.2713 0.1753,0.3416 0.1099,0.059 0.2121,0.026 0.2852,-0.023 0.015,-0.012 0.028,-0.021 0.041,-0.031 0.1463,-0.1162 0.2508,-0.2952 0.2511,-0.5261 0.2351,-1.0572 0.3701,-2.1856 0.262,-3.2804 v -0.017 c -0.01,-0.038 -0.021,-0.1101 -0.034,-0.1834 -0.014,-0.073 -0.028,-0.1468 -0.094,-0.2409 -0.03,-0.039 -0.075,-0.066 -0.1251,-0.077 -0.038,-0.01 -0.077,-0.014 -0.1158,-0.017 10e-5,0 -1e-4,0 0,-0.01 z m -5.2156,0.017 c -0.061,0 -0.1216,0 -0.1819,0 -0.061,0 -0.1168,0.01 -0.1736,0.017 v -0.011 c -0.043,0.01 -0.087,0.017 -0.1298,0.04 -0.7848,0.1381 -1.5613,0.3643 -2.299,0.6568 -0.067,0.037 -0.113,0.098 -0.1256,0.1648 -0.1276,0 -0.2573,0 -0.3902,0.052 -0.097,0.042 -0.1617,0.1311 -0.1575,0.2237 0.043,1.1311 0.1624,2.2455 0.402,3.3114 0.021,0.1593 0.083,0.3546 0.1902,0.5194 0.055,0.082 0.1203,0.1733 0.2573,0.2062 0.068,0.017 0.1506,0.01 0.2135,-0.026 0.064,-0.03 0.108,-0.077 0.1467,-0.1302 0.024,-0.031 0.038,-0.069 0.042,-0.108 0.046,-0.5874 -0.051,-1.1145 -0.1028,-1.6552 0.6625,-0.043 1.3256,-0.096 1.9807,-0.2408 0.1995,-0.014 0.3493,-0.1004 0.4512,-0.2594 0.026,-0.04 0.049,-0.089 0.054,-0.1519 0,-0.063 -0.017,-0.1388 -0.06,-0.1922 -0.086,-0.1049 -0.2016,-0.1221 -0.3235,-0.1262 -0.685,-0.074 -1.3573,0.069 -1.9927,0.1494 -0.018,-0.01 -0.031,0.01 -0.047,0.01 -0.1083,0.035 -0.1518,0.028 -0.1607,0.039 0,-0.014 -0.012,-0.018 0,-0.06 0.01,-0.019 0,-0.037 0,-0.055 -0.043,-0.3424 -0.1011,-0.6737 -0.1579,-1.015 0.055,0 0.1099,0.038 0.158,0.032 0.2364,-0.031 0.454,-0.129 0.5706,-0.1526 h 0.019 c 0.6549,-0.1935 1.3459,-0.3421 2.0221,-0.5844 0.012,0 0.023,0 0.035,-0.01 0.076,-0.039 0.1377,-0.077 0.1932,-0.1375 0.056,-0.061 0.1063,-0.1708 0.076,-0.2671 -0.027,-0.098 -0.1033,-0.14 -0.1602,-0.1669 -0.057,-0.028 -0.1118,-0.04 -0.1695,-0.052 -0.058,-0.011 -0.1175,-0.017 -0.1778,-0.02 z m 8.3075,0.085 v 0.01 c -0.013,0 -0.028,0 -0.041,0 -1.0656,0.1728 -1.7242,1.026 -2.0713,1.8313 -0.2731,0.6545 -0.3974,1.4824 0.061,2.1518 0.2698,0.425 0.7065,0.6795 1.1518,0.7385 0.5647,0.1143 1.1643,0.019 1.6805,-0.2639 0.1992,-0.1081 0.2896,-0.3246 0.2522,-0.526 -0.018,-0.1013 -0.092,-0.2226 -0.2154,-0.2564 -0.1069,-0.029 -0.2062,0.01 -0.2935,0.069 -0.6066,0.205 -1.2939,0.298 -1.8118,-0.04 -0.157,-0.1211 -0.2279,-0.2869 -0.2455,-0.5019 -0.022,-0.2176 0.03,-0.4703 0.1059,-0.681 0.248,-0.7077 0.6953,-1.3948 1.3865,-1.7157 0.01,0 0.017,-0.012 0.024,-0.014 0.069,-0.044 0.1822,-0.034 0.2129,-0.02 10e-5,8e-4 0.01,0 0.01,0 9e-4,0 0.012,0.017 -0.032,0.065 -0.047,0.069 -0.048,0.1563 0,0.2253 0.042,0.066 0.087,0.1205 0.1514,0.1643 0.064,0.044 0.155,0.071 0.2403,0.063 0.1709,-0.019 0.2542,-0.1337 0.3065,-0.232 0.052,-0.099 0.079,-0.2058 0.087,-0.3168 0,-0.107 0,-0.2194 -0.072,-0.3297 -0.082,-0.1775 -0.2369,-0.2994 -0.3979,-0.354 -0.042,-0.014 -0.085,-0.025 -0.1266,-0.034 h -0.01 c -0.1266,-0.027 -0.2499,-0.031 -0.3586,-0.031 z m 2.7279,1.1451 c -0.043,0 -0.092,0 -0.1479,0.019 -0.057,0.022 -0.099,0.066 -0.1188,0.1209 -0.1495,0.4085 -0.2587,0.889 -0.4207,1.0842 -0.025,0.031 -0.041,0.068 -0.044,0.107 -0.029,0.2268 -0.128,0.4612 -0.2305,0.725 -0.182,0.4872 -0.3905,0.9741 -0.5571,1.4852 v 0.012 c -0.043,0.1693 -0.032,0.342 0.046,0.4677 0.076,0.1257 0.1933,0.1835 0.3017,0.2118 0.2162,0.057 0.4459,0.02 0.6067,-0.017 h -0.01 c 0.3635,-0.059 0.7523,0 1.1564,0.019 0.077,0 0.1502,-0.049 0.183,-0.1287 0.06,-0.1486 0.033,-0.3367 -0.05,-0.4397 -0.084,-0.1027 -0.1899,-0.1502 -0.2976,-0.1851 -0.208,-0.067 -0.4291,-0.073 -0.5572,-0.082 -0.1788,-0.036 -0.3559,0.01 -0.5095,0.034 0.2417,-0.4581 0.4623,-0.9304 0.6589,-1.4118 0.1022,0.04 0.1913,0.076 0.3188,0.1194 0.1874,0.064 0.419,0.1113 0.645,0 0.076,-0.038 0.1233,-0.1184 0.1173,-0.2046 -0.011,-0.1585 -0.1012,-0.2911 -0.2026,-0.3721 -0.1014,-0.082 -0.2119,-0.1246 -0.3147,-0.1617 -0.1025,-0.036 -0.1996,-0.067 -0.2646,-0.096 -0.025,-0.013 -0.018,-0.012 -0.031,-0.018 0.036,-0.1139 0.077,-0.2337 0.099,-0.3359 0.022,-0.09 0.032,-0.1089 0.05,-0.1566 0.8078,0.3002 1.6146,0.5594 2.3927,0.846 -0.01,-0.01 -0.02,-0.012 -0.03,-0.017 0.1098,0.062 0.1727,0.071 0.2847,0.071 0.029,-0.01 0.058,0 0.1023,-0.019 0.043,-0.017 0.1217,-0.054 0.1525,-0.1457 0.01,-0.038 -0.011,-0.054 -0.016,-0.084 0.01,-0.012 0.017,-0.012 0.022,-0.019 0.037,-0.078 0.027,-0.1814 -0.01,-0.2435 -0.066,-0.1239 -0.1516,-0.1602 -0.2341,-0.2046 -0.084,-0.044 -0.172,-0.08 -0.245,-0.1131 -0.073,-0.031 -0.1392,-0.068 -0.1256,-0.057 -0.012,-0.012 -0.028,-0.018 -0.043,-0.024 h 0.01 c -0.746,-0.318 -1.5288,-0.5816 -2.3451,-0.7462 -0.04,-0.01 -0.078,0 -0.1126,0.021 -0.028,-0.014 -0.064,-0.031 -0.1127,-0.047 0,0 -0.01,0.01 -0.011,0.011 -0.028,-0.01 -0.064,-0.021 -0.1064,-0.025 z m 0.1474,0.1148 c -0.027,0.023 -0.048,0.052 -0.059,0.086 0,-0.013 0.016,-0.052 0.056,-0.083 z m -16.9613,0.5508 c -0.3424,-0.017 -0.6975,0.031 -1.033,0.1407 -0.016,0.012 -0.024,0.015 -0.04,0.025 -0.4437,-0.1847 -0.9313,-0.1398 -1.3797,0.057 -2e-4,2e-4 10e-5,6e-4 2e-4,8e-4 v 0 c -0.2249,0.099 -0.437,0.2323 -0.6325,0.3922 -3e-4,-10e-5 -8e-4,-4e-4 -2e-4,-7e-4 -0.196,0.1592 -0.3728,0.3439 -0.5271,0.54 -0.2195,0.2802 -0.3529,0.5816 -0.5037,0.8475 -0.01,0.015 -0.012,0.024 -0.015,0.036 -0.088,0.2916 -0.2211,0.5963 -0.2595,0.9276 -0.1048,0.9058 0.2067,1.8299 1.0061,2.2598 0.3554,0.1913 0.6481,0.2472 0.9365,0.2408 0.2881,-0.01 0.5679,-0.067 0.9332,-0.09 l 0.05,-0.01 c 0.2802,-0.1305 0.5928,-0.2244 0.8884,-0.3902 0.8412,-0.4717 1.6155,-1.2147 2.0831,-2.0965 0.1315,-0.2482 0.2447,-0.519 0.3002,-0.8035 0.054,-0.2766 0,-0.5313 0,-0.7581 0.01,-0.021 0,-0.042 -0.011,-0.059 -0.096,-0.1899 -0.1637,-0.4429 -0.3421,-0.6418 -0.3476,-0.3863 -0.8822,-0.5895 -1.4526,-0.6166 z m -0.2403,0.8816 c 0.3644,-0.01 0.6236,0 0.8821,0.1933 0.082,0.06 0.1432,0.1877 0.2336,0.3162 0.015,0.1743 0.052,0.3261 0.032,0.4465 -0.075,0.415 -0.3843,0.8895 -0.6656,1.2263 -0.3798,0.4544 -0.7874,0.8085 -1.2945,1.109 -0.2081,0.1232 -0.4547,0.2084 -0.7023,0.3292 -0.1814,0.048 -0.3336,0.1217 -0.4573,0.1261 -0.4505,0.014 -0.7549,-0.1723 -0.9596,-0.4806 -0.2058,-0.3093 -0.2907,-0.7391 -0.2543,-1.1561 0.02,-0.2262 0.1095,-0.4686 0.1788,-0.7311 0.2654,-0.5271 0.3499,-0.7837 0.7922,-1.1757 h -0.01 c 0.047,-0.043 0.096,-0.066 0.1422,-0.088 l -3e-4,10e-5 c 0.047,-0.021 0.095,-0.035 0.1431,-0.047 -0.043,0.066 -0.086,0.1332 -0.1281,0.2021 -0.04,0.065 -0.026,0.1393 0.033,0.1741 0,0 0.019,0.01 0.034,0.02 0,0.01 0.02,0.01 0.031,0.014 0,0.01 0,0.01 0.024,0.01 h 0.014 c 3e-4,10e-5 0.024,0 0.026,0 4e-4,0 0.056,-0.01 0.056,-0.01 1e-4,0 0.05,-0.022 0.05,-0.022 0,-10e-5 0.051,-0.051 0.051,-0.051 -0.01,0.01 -0.017,0.019 -0.025,0.028 0.052,-0.052 0.1065,-0.1042 0.1617,-0.1555 0.141,-0.052 0.2714,-0.1074 0.3913,-0.137 0.3455,-0.086 0.8759,-0.1391 1.2217,-0.1456 z m 20.5863,0.098 c -0.029,0 -0.059,0 -0.091,0.017 -0.1128,0.036 -0.1597,0.1222 -0.1927,0.2083 -0.5485,0.8514 -1.051,1.6839 -1.4676,2.6195 -0.06,0.1267 -0.087,0.2606 -0.043,0.385 0.043,0.1243 0.1547,0.1857 0.2486,0.1911 0.1866,0.012 0.3825,-0.1192 0.4842,-0.3586 0.1022,-0.1239 0.1885,-0.2621 0.2579,-0.3793 0.055,-0.094 0.077,-0.1121 0.1023,-0.1432 0.1053,0.084 0.2157,0.1419 0.3044,0.1866 0.1312,0.064 0.2025,0.1139 0.2346,0.2051 0,0.011 0,0.02 0.014,0.028 0.2596,0.4926 0.3502,1.0726 0.3408,1.6651 0,0.012 0,0.022 0.01,0.034 0.013,0.068 0.025,0.1312 0.063,0.1861 0.038,0.055 0.1083,0.093 0.1747,0.088 0.1338,-0.01 0.2102,-0.1066 0.2739,-0.1932 0.063,-0.087 0.1155,-0.1878 0.1488,-0.2981 0.028,-0.093 0.047,-0.1998 0.021,-0.3055 0.014,-0.3931 -0.043,-0.7796 -0.1611,-1.1514 0.4162,0.01 0.8505,-0.031 1.2733,-0.2198 0.2569,-0.1189 0.5141,-0.312 0.6992,-0.5617 0.1862,-0.2508 0.2995,-0.5743 0.2242,-0.9172 -0.07,-0.3276 -0.2938,-0.568 -0.54,-0.7339 v 0 c -0.082,-0.055 -0.1659,-0.1011 -0.247,-0.1405 -0.5594,-0.2616 -1.2216,-0.4326 -1.8608,-0.2781 -0.015,-0.014 -0.036,-0.03 -0.076,-0.059 -0.037,-0.026 -0.1016,-0.069 -0.1871,-0.07 z m 0.2641,0.723 c 0.014,0.01 0.026,0.02 0.04,0.022 0.099,0.02 0.1923,0.021 0.2801,0.022 0.1758,3e-4 0.3251,0.01 0.3927,0.045 0.018,0.01 0.035,0.012 0.055,0.018 0.2881,0.069 0.5678,0.1475 0.8082,0.2734 h -0.012 c 0.01,0.01 0.013,0.01 0.019,0.01 0.03,0.011 0.061,0.024 0.09,0.045 -10e-5,-1e-4 2e-4,-3e-4 0.01,0 v 0 c 0.09,0.053 0.1735,0.128 0.2243,0.2062 0.063,0.1001 0.073,0.1836 0.031,0.2842 -0.2561,0.3434 -0.6971,0.5128 -1.1172,0.5339 -0.1936,0 -0.3927,0.021 -0.5462,0.01 -0.1577,-0.014 -0.2403,-0.042 -0.3023,-0.1654 v 0.02 c -0.093,-0.2422 -0.3024,-0.3074 -0.4016,-0.3747 -0.023,-0.017 -0.016,-0.01 -0.024,-0.017 0.011,-0.011 0.014,-0.018 0.02,-0.028 0.1601,-0.2998 0.2931,-0.5991 0.4299,-0.9043 z" /><path
             style="opacity:0.25;fill:#000000;stroke-width:0.9;stroke-linecap:round;stroke-linejoin:round;stroke-opacity:0.996078;-inkscape-stroke:none;paint-order:markers fill stroke"
             d="m 1358.3552,1001.4683 c -1.1085,0.01 -2.1536,0.5119 -3.0145,1.1811 -1.0943,0.8636 -1.8284,2.1156 -2.2583,3.4264 -0.3426,1.1413 -0.1765,2.3766 0.1929,3.4899 0.2733,0.8479 0.801,1.6028 1.5018,2.1523 0.8243,0.6898 1.8771,1.0359 2.9198,1.2264 0.6698,0.044 1.3633,0.057 2.0027,-0.1789 0.2402,-0.1 0.5375,-0.1277 0.7258,-0.3161 0.083,-0.2845 -0.063,-0.5801 -0.073,-0.8632 -0.034,-0.1835 0.01,-0.542 -0.2702,-0.5397 -0.8793,0.241 -1.8336,0.2567 -2.6957,-0.064 -0.9022,-0.3182 -1.7785,-0.9764 -2.0237,-1.9439 -0.1611,-0.6017 -0.1349,-1.2343 -0.066,-1.8498 0.1634,-0.8463 0.5167,-1.6859 1.1211,-2.3123 0.6175,-0.6041 1.54,-0.7198 2.3574,-0.6867 0.4706,0.01 0.9008,0.2597 1.2151,0.5954 0.1865,0.1695 0.4349,0.01 0.5226,-0.1839 0.2823,-0.4917 0.5977,-0.9655 0.8927,-1.4485 0.025,-0.2066 -0.1476,-0.3957 -0.2641,-0.5585 -0.7266,-0.7163 -1.7649,-1.1356 -2.7859,-1.1258 z"
             id="path11740" /><path
             style="opacity:0.25;fill:#000000;stroke-width:0.9;stroke-linecap:round;stroke-linejoin:round;stroke-opacity:0.996078;-inkscape-stroke:none;paint-order:markers fill stroke"
             d="m 1365.9104,1003.033 c -1.7038,0.049 -3.3959,1.1163 -4.0065,2.7356 -0.6074,1.9173 -0.234,4.1601 1.0988,5.6911 0.6629,0.7715 1.7007,1.1931 2.7143,1.0939 1.7568,-0.064 3.4503,-1.1164 4.2502,-2.6884 0.3796,-0.6905 0.6002,-1.4937 0.4562,-2.2821 -0.1749,-1.0525 -0.6864,-2.0321 -1.3558,-2.8539 -0.5295,-0.5586 -1.0599,-1.181 -1.8087,-1.4434 -0.429,-0.1637 -0.8883,-0.2558 -1.3482,-0.2529 z m -0.01,1.4163 c 0.6611,0.027 1.1654,0.5602 1.4952,1.0868 0.3143,0.512 0.4928,1.1142 0.4305,1.718 -0.011,0.5772 -0.287,1.1501 -0.6666,1.5915 -0.5131,0.5846 -1.2562,1.056 -2.0623,0.9628 -0.7012,-0.1108 -1.1532,-0.7496 -1.4496,-1.3413 -0.2697,-0.5155 -0.3441,-1.1084 -0.2693,-1.681 0.097,-0.8625 0.7164,-1.7113 1.5881,-1.9051 0.1918,-0.01 0.3964,-0.065 0.4728,-0.2618 0.113,-0.1295 0.2966,-0.1672 0.4609,-0.1698 z"
             id="path11741" /><path
             style="opacity:0.25;fill:#000000;stroke-width:0.9;stroke-linecap:round;stroke-linejoin:round;stroke-opacity:0.996078;-inkscape-stroke:none;paint-order:markers fill stroke"
             d="m 1377.1223,1001.8344 c -1.1147,1e-4 -2.1552,0.5785 -2.9532,1.3228 -0.9459,0.8403 -1.5439,1.9983 -1.8875,3.202 -0.2266,0.7324 -0.2684,1.5225 -0.1453,2.2776 0.2051,1.0463 0.5977,2.0862 1.2838,2.9138 0.8958,1.0805 2.2901,1.6072 3.6577,1.7303 0.9194,0.1182 1.8615,-0.068 2.6785,-0.5016 0.2186,-0.1162 0.6076,-0.2214 0.5468,-0.545 -0.098,-0.3434 -0.2004,-0.6726 -0.304,-1.0095 -0.1768,-0.2317 -0.4804,-0.023 -0.6924,0.035 -1.266,0.4346 -2.7777,0.2866 -3.842,-0.55 -0.7578,-0.6164 -0.9773,-1.6426 -0.9848,-2.5679 -0.025,-1.0162 0.2404,-2.1076 0.9741,-2.8474 0.5737,-0.5425 1.3861,-0.7671 2.1585,-0.7974 0.4206,-0.011 0.8242,0.1512 1.1476,0.4137 0.2153,0.1499 0.4376,-0.063 0.4957,-0.2687 0.1958,-0.5035 0.44,-0.9886 0.6309,-1.4927 0.059,-0.3107 -0.261,-0.5083 -0.4682,-0.6781 -0.676,-0.4386 -1.4888,-0.6761 -2.2962,-0.6372 z"
             id="path11742" /><path
             id="path11744"
             style="fill:#000000;stroke-width:0.9;stroke-linecap:round;stroke-linejoin:round;stroke-opacity:0.996078;-inkscape-stroke:none;paint-order:markers fill stroke"
             d="m 1351.7039,1023.0862 c -0.1061,0.042 -0.2157,0.076 -0.3179,0.1267 -0.4212,0.2099 -0.8283,0.4828 -1.1989,0.7679 -0.6386,0.4911 -1.1746,0.9782 -1.7239,1.5741 -0.2978,0.3232 -0.567,0.6714 -0.8506,1.0072 -0.6021,0.8377 -1.2558,1.7039 -1.5188,2.7238 -0.034,0.1324 -0.1417,0.5965 0.096,0.7214 0.048,0.025 0.1026,0.011 0.1577,0 5e-4,5e-4 2e-4,0 6e-4,-10e-5 0.017,0.012 0.036,0 0.055,-0.01 0.013,0 0.025,0 0.037,-0.01 0,0 0,-0.011 0,-0.025 0.01,-0.01 0.013,-0.014 0.018,-0.019 0.01,-0.01 0.013,-0.016 0.02,-0.024 0.073,0.085 0.2524,0.2462 0.2677,0.23 l 5e-4,-6e-4 c 1.0565,-0.5129 2.1024,-1.047 3.1642,-1.5492 0.099,-0.044 0.2006,-0.084 0.2992,-0.1295 -0.033,0.1057 -0.071,0.21 -0.095,0.3178 -0.1025,0.4573 -0.1673,0.9996 -0.2082,1.4568 -0.059,0.6582 -0.095,1.3745 -0.079,2.0349 0.01,0.324 0.04,0.6472 0.061,0.9705 0.072,0.4296 0.1151,0.9152 0.3159,1.3173 0.05,0.1014 0.1176,0.2068 0.2159,0.2625 0.093,0.053 0.2234,0.088 0.3184,0.039 0.034,-0.018 0.051,-0.052 0.061,-0.091 0.023,-0.013 0.05,-0.03 0.084,-0.058 0.055,-0.046 0.033,-0.1392 0.036,-0.2104 0,-0.095 0,-0.1901 0,-0.2853 0.05,0.049 0.1894,0.1482 0.1985,0.136 l -10e-5,-6e-4 c 0.059,-0.034 0.1205,-0.065 0.1779,-0.1014 0.5495,-0.3572 1.0839,-0.7562 1.6066,-1.1498 0.9063,-0.6822 0.9713,-0.7381 1.8939,-1.4552 0.9749,-0.756 1.9716,-1.4849 2.9301,-2.2619 0.2765,-0.224 0.7758,-0.6356 1.0475,-0.9255 0.052,-0.055 0.088,-0.1237 0.1317,-0.1855 -0.019,-0.014 -0.036,-0.031 -0.055,-0.048 0,0 0.01,-0.01 0.01,-0.013 0.077,0.056 0.1674,0.088 0.3064,0.073 0,0 0.054,0.026 0.056,0.022 0.039,-0.026 0.09,-0.04 0.1169,-0.079 0.1593,-0.2361 0.074,-0.2944 0.01,-0.5706 -0.073,-0.152 -0.1361,-0.3101 -0.2206,-0.4563 -0.3563,-0.6135 -0.9327,-1.2999 -1.525,-1.6991 -0.123,-0.083 -0.2581,-0.1465 -0.387,-0.2196 -0.039,-0.012 -0.2159,0.5409 -0.1768,0.5535 v -10e-5 c 0.01,0.033 0,0.07 0.019,0.098 0.068,0.1086 0.1565,0.2028 0.2351,0.3038 0.1076,0.1387 0.2166,0.2768 0.3241,0.4155 0.2468,0.3187 0.4896,0.6403 0.7348,0.9602 -0.148,-0.153 -0.3187,-0.2865 -0.5705,-0.4238 -0.1853,-0.092 -0.366,-0.1935 -0.556,-0.2749 -0.5814,-0.2489 -1.4067,-0.5089 -2.0464,-0.3524 -0.064,0.012 -0.1189,0.056 -0.1783,0.084 -0.025,0.014 0.1392,0.3697 0.1643,0.358 0.099,0.024 0.3504,0.082 0.4176,0.1044 0.1462,0.048 0.2887,0.1074 0.4325,0.1624 0.2595,0.099 0.8456,0.3262 1.0971,0.435 0.1719,0.074 0.3399,0.157 0.5101,0.2357 0.1409,0.047 0.2828,0.09 0.4253,0.1302 -0.3377,0.1568 -0.6932,0.3703 -0.9566,0.5343 -1.0708,0.6673 -2.0725,1.4363 -3.0349,2.2505 -0.8862,0.7722 -0.9647,0.8147 -1.7751,1.616 -0.4671,0.4618 -0.9626,0.9487 -1.2924,1.526 -0.027,0.047 -0.046,0.1002 -0.065,0.1519 -0.011,-0.2881 -0.037,-0.5769 -0.023,-0.8646 -0.01,-0.9821 0,-1.9657 -0.05,-2.947 -0.022,-0.4416 -0.064,-1.0317 -0.1334,-1.4837 -0.024,-0.126 -0.056,-0.2507 -0.08,-0.3767 0,-0.022 -0.236,-0.05 -0.3525,-0.05 9e-4,-4e-4 0,-3e-4 -10e-5,-6e-4 0.08,-0.042 0.2483,-0.1191 0.1618,-0.1932 0,0 0.01,0 0.01,0 0.015,-0.064 0.065,-0.1288 0.044,-0.1907 -0.1079,-0.3317 -0.7468,-0.1616 -0.9271,-0.1137 -0.1984,0.068 -0.4009,0.1253 -0.5959,0.2025 -0.7405,0.294 -1.5198,0.7062 -2.1182,1.2594 0.5121,-0.735 1.0038,-1.4851 1.573,-2.1787 0.2662,-0.3256 0.5261,-0.6565 0.7985,-0.9767 0.8376,-0.9847 1.7356,-1.9205 2.6685,-2.8148 0.024,-0.013 -0.155,-0.3489 -0.1803,-0.3395 z" /><path
             id="path11748"
             style="fill:#000000;stroke-width:0.9;stroke-linecap:round;stroke-linejoin:round;stroke-opacity:0.996078;-inkscape-stroke:none;paint-order:markers fill stroke"
             d="m 1381.3298,1023.0862 c 0.106,0.042 0.2156,0.076 0.3178,0.1268 0.4213,0.2099 0.8283,0.4827 1.1989,0.7678 0.6387,0.4912 1.1747,0.9782 1.7239,1.5742 0.2979,0.3231 0.567,0.6713 0.8507,1.0071 0.602,0.8377 1.2557,1.704 1.5188,2.7239 0.035,0.1323 0.1414,0.5966 -0.096,0.7213 -0.048,0.025 -0.1028,0.01 -0.1576,0 -5e-4,4e-4 -3e-4,-10e-5 -7e-4,-2e-4 -0.016,0.012 -0.037,0 -0.056,-0.01 -0.014,-0.01 -0.025,-0.01 -0.037,-0.01 0,0 0,-0.01 0.01,-0.025 -0.011,-0.01 -0.012,-0.014 -0.018,-0.019 -0.011,-0.01 -0.013,-0.016 -0.021,-0.025 -0.074,0.086 -0.2525,0.2463 -0.2677,0.23 l -5e-4,-5e-4 c -1.0566,-0.5129 -2.1025,-1.0471 -3.1642,-1.5492 -0.099,-0.045 -0.2006,-0.084 -0.2992,-0.1296 0.033,0.1057 0.071,0.2101 0.095,0.3177 0.1027,0.4573 0.1676,0.9996 0.2085,1.4568 0.059,0.6583 0.095,1.3746 0.079,2.0349 -0.01,0.3242 -0.04,0.6472 -0.061,0.9705 -0.072,0.4296 -0.1151,0.9152 -0.3158,1.3173 -0.05,0.1014 -0.1177,0.2068 -0.216,0.2626 -0.093,0.052 -0.2233,0.088 -0.3184,0.039 -0.034,-0.018 -0.05,-0.052 -0.061,-0.091 -0.022,-0.013 -0.05,-0.03 -0.084,-0.058 -0.055,-0.046 -0.035,-0.1389 -0.039,-0.2098 0,-0.095 0,-0.19 0,-0.2852 -0.05,0.049 -0.1894,0.1482 -0.1984,0.1359 v -5e-4 c -0.059,-0.034 -0.1204,-0.064 -0.1779,-0.1015 -0.5495,-0.3572 -1.0839,-0.7562 -1.6066,-1.1497 -0.9063,-0.6823 -0.9713,-0.7382 -1.894,-1.4552 -0.9748,-0.756 -1.9715,-1.4849 -2.93,-2.262 -0.2765,-0.224 -0.7758,-0.6356 -1.0474,-0.9255 -0.053,-0.055 -0.088,-0.1237 -0.1318,-0.1855 0.019,-0.014 0.036,-0.031 0.054,-0.048 0,0 -0.011,-0.01 -0.011,-0.013 -0.077,0.057 -0.1674,0.088 -0.3063,0.073 0,0 -0.054,0.025 -0.056,0.022 -0.039,-0.026 -0.091,-0.04 -0.117,-0.079 -0.1593,-0.2362 -0.075,-0.2944 -0.01,-0.5706 0.073,-0.152 0.1361,-0.3102 0.2206,-0.4563 0.3563,-0.6135 0.9327,-1.2999 1.525,-1.699 0.123,-0.083 0.2581,-0.1466 0.387,-0.2197 0.038,-0.016 0.2159,0.5409 0.1772,0.5533 h 10e-5 c -0.01,0.033 0,0.07 -0.018,0.098 -0.067,0.1086 -0.1564,0.2028 -0.2351,0.3038 -0.1075,0.1387 -0.2165,0.2768 -0.324,0.4156 -0.2469,0.3186 -0.4896,0.6402 -0.7349,0.9601 0.1481,-0.153 0.3188,-0.2864 0.5706,-0.4237 0.1852,-0.092 0.366,-0.1936 0.5561,-0.275 0.5813,-0.2488 1.4065,-0.509 2.0464,-0.3521 0.064,0.012 0.1189,0.057 0.1782,0.084 0.025,0.013 -0.1392,0.3697 -0.1643,0.358 -0.098,0.027 -0.3505,0.082 -0.4176,0.1042 -0.1461,0.048 -0.2886,0.1079 -0.4325,0.1626 -0.2594,0.099 -0.8456,0.3263 -1.0971,0.4351 -0.1719,0.074 -0.3398,0.157 -0.51,0.2356 -0.1409,0.047 -0.2829,0.09 -0.4254,0.1299 0.3376,0.1568 0.6932,0.3703 0.9566,0.5344 1.0708,0.6672 2.0725,1.4362 3.0349,2.2505 0.8862,0.7721 0.9646,0.8146 1.7751,1.6159 0.467,0.4619 0.9626,0.9487 1.2924,1.526 0.027,0.047 0.046,0.1003 0.065,0.1519 0.011,-0.288 0.037,-0.5768 0.023,-0.8646 0.01,-0.9821 0,-1.9657 0.05,-2.947 0.022,-0.4416 0.064,-1.0317 0.1334,-1.4837 0.024,-0.126 0.056,-0.2507 0.08,-0.3767 0,-0.022 0.2354,-0.053 0.3523,-0.05 -8e-4,-4e-4 2e-4,-3e-4 2e-4,-6e-4 -0.081,-0.042 -0.2483,-0.1191 -0.1618,-0.1932 0,0 -0.01,0 -0.01,0 -0.012,-0.064 -0.065,-0.1288 -0.045,-0.1906 0.1078,-0.3317 0.7467,-0.1614 0.927,-0.1137 0.1985,0.068 0.401,0.1253 0.5959,0.2026 0.7405,0.294 1.5198,0.7062 2.1182,1.2593 -0.512,-0.735 -1.0038,-1.4851 -1.573,-2.1787 -0.2661,-0.3255 -0.526,-0.6564 -0.7985,-0.9767 -0.8376,-0.9846 -1.7356,-1.9205 -2.6685,-2.8148 -0.023,-0.014 0.155,-0.3489 0.1803,-0.3395 z" /><path
             id="path11749"
             style="opacity:0.2;fill:#000000;fill-opacity:1;stroke-width:0.9;stroke-linecap:round;stroke-linejoin:round;stroke-opacity:0.996078;-inkscape-stroke:none;paint-order:markers fill stroke"
             d="m 1366.2317,1023.1952 c -3.9097,0.036 -9.0041,1.6785 -9.9519,2.3735 -1.011,0.7414 -1.2134,1.1462 -1.2134,1.1462 l 3.7068,1.2128 -0.202,-1.6174 c 0,0 8.0882,-2.5614 12.4018,-0.7416 4.3135,1.8198 4.8524,1.82 4.8524,1.82 l -1.4826,0.6739 0.5968,0.2785 0.414,0.5979 6.9422,5.4591 0.337,-0.8088 c 0,0 -0.2022,-0.4042 -1.6176,-1.7523 -1.1361,-1.0821 -3.1577,-2.6316 -3.9387,-3.222 1.0257,-0.5698 2.8987,-1.6498 3.669,-2.372 1.0785,-1.0109 2.0221,-1.4831 2.0221,-1.4831 l -0.5389,-1.4826 -4.4484,3.5047 c 0,0 -6.8077,-3.3697 -10.7843,-3.5719 -0.2485,-0.013 -0.5037,-0.017 -0.7643,-0.015 z" /><path
             id="path11750"
             style="opacity:0.2;fill:#000000;fill-opacity:1;stroke-width:0.9;stroke-linecap:round;stroke-linejoin:round;stroke-opacity:0.996078;-inkscape-stroke:none;paint-order:markers fill stroke"
             d="m 1350.5505,1019.5029 -0.6739,1.2805 3.9765,5.392 0.2176,-0.136 0.3891,0.9447 3.3026,-2.2914 c 0,0 5.1898,-1.0111 6.6053,-1.4154 1.4153,-0.4044 6.2006,0.2695 7.953,0.6739 1.7523,0.4044 5.6617,2.7636 5.6617,2.7636 l 5.9309,-5.1898 -1.3478,-1.0785 -4.718,4.4483 c 0,0 0,0.5393 -1.0785,-0.3369 -1.0784,-0.8762 -2.9657,-1.5502 -6.2684,-2.6959 -3.3026,-1.1462 -5.3915,-0.4042 -8.8289,-0.067 -2.3067,0.2261 -4.9489,1.9536 -6.4564,3.0762 z" /><path
             style="opacity:0.2;fill:#000000;fill-opacity:1;stroke-width:0.9;stroke-linecap:round;stroke-linejoin:round;stroke-opacity:0.996078;-inkscape-stroke:none;paint-order:markers fill stroke"
             d="m 1357.1557,1027.3887 -7.0096,5.5942 0.4719,1.4828 7.6835,-6.3356 z"
             id="path11752" /><path
             style="fill:#000000;fill-opacity:1;stroke-width:0.9;stroke-linecap:round;stroke-linejoin:round;stroke-opacity:0.996078;-inkscape-stroke:none;paint-order:markers fill stroke"
             id="path11753"
             d="m 1365.8473,1025.4421 c -0.4156,0.6592 -0.7387,1.3964 -1.0433,2.1421 0,0.028 -0.2243,0.4617 -0.1338,0.5102 0.057,0.031 0.1317,-0.011 0.1832,0.031 0.025,0.02 -0.023,0.083 -0.01,0.1151 0.015,0.026 0.012,-0.061 0.018,-0.091 0,0 -0.049,-0.023 -0.05,-0.019 v 0 c -0.018,0.088 -0.066,0.3063 -0.026,0.3605 0.053,0.074 0.1554,0.06 0.2359,0.063 0.2072,0.01 0.3375,-0.3082 0.4513,-0.4634 0.3818,-0.7241 0.766,-1.4784 0.9287,-2.3327 0.018,-0.05 -0.5398,-0.3649 -0.5575,-0.3153 z" /><path
             style="fill:#000000;fill-opacity:1;stroke-width:0.9;stroke-linecap:round;stroke-linejoin:round;stroke-opacity:0.996078;-inkscape-stroke:none;paint-order:markers fill stroke"
             id="path11754"
             d="m 1364.8501,1028.0311 c -0.2419,-0.067 -0.3405,-0.1053 -0.6155,-0.118 -0.1502,-0.01 -0.3012,0.01 -0.452,0.015 -0.4454,0.023 -0.8866,0.089 -1.3308,0.151 -0.2693,0.067 -0.546,0.1113 -0.8051,0.2412 -0.065,0.032 -0.2127,0.1232 -0.25,0.2057 -0.044,0.097 -0.053,0.2099 -0.08,0.3149 0.2482,0.3048 0.2047,0.3165 0.4698,0.143 0.01,0 0,-0.08 -0.01,-0.079 v 0 c -0.033,-0.032 -0.072,-0.06 -0.1,-0.099 -0.039,-0.054 -0.076,-0.4946 0.1406,0.1262 -0.025,0.08 -0.05,0.1582 -0.074,0.2373 -0.01,0.012 -0.019,0.032 -0.01,0.036 0.03,0.013 0.064,0 0.096,9e-4 0.056,0 0.1114,-3e-4 0.1667,0 0.956,-0.037 -0.5703,0.029 0.601,-0.022 0.446,-0.036 0.8868,-0.081 1.3309,-0.1598 0.144,-0.028 0.2877,-0.054 0.4308,-0.09 0.1856,-0.055 0.324,-0.1199 0.4951,-0.1997 0.039,-0.01 0.027,-0.6903 -0.011,-0.687 z" /><path
             style="fill:#000000;fill-opacity:1;stroke-width:0.9;stroke-linecap:round;stroke-linejoin:round;stroke-opacity:0.996078;-inkscape-stroke:none;paint-order:markers fill stroke"
             id="path11755"
             d="m 1361.7535,1029.5338 c 0.7006,0.6214 1.4408,1.1742 2.2018,1.6703 0.093,0.057 0.1817,0.1284 0.2799,0.1708 0.013,0.01 -0.016,-0.037 2e-4,-0.051 0.017,-0.029 0.055,-0.033 0.072,-0.061 0.085,-0.1573 0.1759,-0.3145 0.2264,-0.4934 0.015,-0.051 -0.068,0.077 -0.1114,0.086 -0.047,0.01 -0.091,-0.022 -0.1369,-0.034 -0.01,0 -0.029,0.1036 -0.022,0.1055 v 0 c 0.04,0.048 0.086,0.088 0.1184,0.1431 0.042,0.068 0.039,0.2548 0.1007,0.2214 0.1485,-0.08 0.2372,-0.2806 0.3271,-0.4492 0.023,-0.042 0.021,-0.1144 -0.01,-0.1535 -0.037,-0.056 -0.5196,-0.5116 -0.5848,-0.5739 -0.2647,-0.222 -0.5432,-0.4636 -0.8199,-0.6597 -0.4761,-0.3377 -0.9809,-0.6292 -1.5141,-0.7898 -0.049,-0.011 -0.1764,0.856 -0.1276,0.8674 z" /><path
             style="fill:#000000;fill-opacity:1;stroke-width:0.9;stroke-linecap:round;stroke-linejoin:round;stroke-opacity:0.996078;-inkscape-stroke:none;paint-order:markers fill stroke"
             id="path11773"
             d="m 1363.9801,1030.7645 c -0.047,0.059 -0.1001,0.1125 -0.1414,0.1788 -0.1255,0.201 -0.2858,0.565 -0.3744,0.7763 -0.203,0.4837 -0.3782,0.9806 -0.5402,1.4875 0.052,0.017 -0.2389,0.5815 -0.1216,0.6377 0.1168,0.056 0.2418,0.079 0.3638,0.1119 0.015,0.01 -0.04,-0.01 -0.043,-0.026 -0.011,-0.059 0,-0.1191 0,-0.1788 0.025,-0.054 0.049,-0.1073 0.074,-0.1615 0.01,-0.012 -0.073,-0.061 -0.077,-0.054 v 0 c -0.025,0.055 -0.049,0.1107 -0.074,0.1666 -0.013,0.016 -0.2646,0.2686 -0.2254,0.3207 0.1222,0.1636 0.3557,0.2647 0.497,0.1032 0.1072,-0.123 0.211,-0.3963 0.273,-0.5366 0.1943,-0.491 0.3531,-0.9554 0.5177,-1.4629 0.087,-0.268 0.1883,-0.5292 0.2615,-0.8036 0.021,-0.076 0.029,-0.1553 0.043,-0.2329 0.019,-0.039 -0.4189,-0.3667 -0.4374,-0.3278 z" /><path
             style="fill:#000000;fill-opacity:1;stroke-width:0.9;stroke-linecap:round;stroke-linejoin:round;stroke-opacity:0.996078;-inkscape-stroke:none;paint-order:markers fill stroke"
             id="path11774"
             d="m 1363.2384,1034.4232 c 0.7976,0.061 1.5858,-0.2784 2.3093,-0.6679 0.2186,-0.118 0.4293,-0.2571 0.6441,-0.3854 0.2975,-0.2339 0.9183,-0.5444 1.1175,-0.9539 0.07,-0.1435 0.01,-0.2903 -0.1272,-0.3153 -0.054,-0.01 -0.099,0.052 -0.1484,0.077 -0.01,0 0.047,0.1002 0.052,0.096 v 0 c 0.041,-0.041 0.1086,-0.056 0.125,-0.1174 0.038,-0.1531 -0.072,-0.2673 -0.1745,-0.2687 -0.096,-9e-4 -0.192,0.027 -0.2854,0.053 -0.3141,0.1126 -0.702,0.3443 -0.9912,0.503 -0.7054,0.4023 -0.5629,0.315 -1.2661,0.739 -0.4483,0.27 -0.8911,0.5654 -1.3647,0.7609 -0.028,0.01 0.081,0.4814 0.109,0.4717 z" /><path
             style="fill:#000000;fill-opacity:1;stroke-width:0.9;stroke-linecap:round;stroke-linejoin:round;stroke-opacity:0.996078;-inkscape-stroke:none;paint-order:markers fill stroke"
             id="path11775"
             d="m 1366.4297,1032.6713 c 0.5752,0.5621 1.2199,0.991 1.893,1.3372 0.1469,0.076 0.2979,0.1381 0.4468,0.2071 0.089,0.036 0.4246,0.1855 0.5546,0.2062 0.038,0.01 0.1112,0.034 0.1152,-0.013 0,-0.067 -0.122,-0.095 -0.1023,-0.1581 0.052,-0.1594 0.2154,-0.2278 0.2758,-0.3819 0.022,-0.054 -0.094,0.027 -0.1403,0.042 -0.022,-0.022 -0.045,-0.043 -0.067,-0.065 6e-4,-3e-4 -0.05,0.022 -0.047,0.03 v 0 c 0.015,0.035 0.022,0.069 0.029,0.1067 0,0 -0.2913,1.2265 0.3048,-0.1431 0.031,-0.07 -0.085,-0.1174 -0.1259,-0.1776 -0.03,-0.044 -0.051,-0.096 -0.086,-0.1337 -0.1488,-0.1619 -0.3936,-0.3233 -0.5522,-0.4394 -0.4646,-0.278 -0.936,-0.5512 -1.4288,-0.7438 -0.085,-0.033 -0.5374,-0.1888 -0.6902,-0.1722 -0.019,0 -0.016,0.045 -0.023,0.068 -0.025,-0.031 -0.3739,0.4061 -0.3492,0.4372 z" /><path
             style="fill:#000000;fill-opacity:1;stroke-width:0.9;stroke-linecap:round;stroke-linejoin:round;stroke-opacity:0.996078;-inkscape-stroke:none;paint-order:markers fill stroke"
             id="path11776"
             d="m 1369.3243,1033.4721 c -0.1397,-0.4541 -0.2273,-0.9309 -0.3538,-1.3904 -0.052,-0.1943 -0.2375,-0.7717 -0.3011,-0.9755 -0.069,-0.142 -0.1403,-0.6294 -0.3515,-0.6237 -0.1023,0 -0.219,0.01 -0.2991,0.086 -0.035,0.034 0.054,0.088 0.076,0.1366 0.021,0.047 0.035,0.1002 0.052,0.1506 0,0.01 0.073,0 0.072,-0.013 v 0 c -0.01,-0.05 -0.019,-0.1024 -0.014,-0.1527 0,-0.028 0.061,-0.069 0.037,-0.072 -0.1051,-0.021 -0.3368,-0.027 -0.3529,0.1047 -0.012,0.1043 0.091,0.5339 0.097,0.5648 0.1387,0.5247 0.2639,1.0305 0.458,1.5292 0.1031,0.263 0.2325,0.5714 0.3825,0.8036 0.04,0.061 0.092,0.1066 0.1373,0.1599 0.017,0.032 0.3757,-0.2747 0.3585,-0.3066 z" /><path
             style="fill:#000000;fill-opacity:1;stroke-width:0.9;stroke-linecap:round;stroke-linejoin:round;stroke-opacity:0.996078;-inkscape-stroke:none;paint-order:markers fill stroke"
             id="path11777"
             d="m 1368.4394,1030.9254 c 0.1071,-0.035 0.2147,-0.066 0.3206,-0.1067 0.3161,-0.1211 0.7329,-0.3164 1.0346,-0.4588 0.3539,-0.1703 0.7766,-0.3837 1.1216,-0.5881 0.1311,-0.078 0.2576,-0.1679 0.3866,-0.2515 0.069,-0.066 0.1477,-0.1187 0.2077,-0.1982 0.094,-0.1231 0.012,-0.3052 -0.1271,-0.339 -0.056,-0.014 -0.09,0.092 -0.1347,0.1381 -0.01,0 0.051,0.1149 0.057,0.1099 v 0 c 0.058,-0.024 0.1517,-0.01 0.1735,-0.082 0.062,-0.1952 -0.044,-0.3507 -0.179,-0.3568 -0.093,0 -0.1851,0.025 -0.2778,0.037 -0.1438,0.049 -0.2885,0.095 -0.4296,0.1558 -0.584,0.244 -1.1537,0.5566 -1.6952,0.9232 -0.1467,0.099 -0.2926,0.201 -0.4315,0.3168 -0.091,0.076 -0.1708,0.1695 -0.256,0.2547 -0.025,0.02 0.2028,0.4621 0.2278,0.4418 z" /><path
             style="fill:#000000;fill-opacity:1;stroke-width:0.9;stroke-linecap:round;stroke-linejoin:round;stroke-opacity:0.996078;-inkscape-stroke:none;paint-order:markers fill stroke"
             id="path11778"
             d="m 1370.9778,1028.4895 c -0.064,-0.018 -0.128,-0.041 -0.1912,-0.054 -0.3789,-0.074 -0.7502,-0.083 -1.1224,-0.1149 -0.4266,-0.036 -0.4618,-0.046 -0.8872,-0.1036 -0.3608,-0.02 -0.7454,-0.1653 -1.0983,-0.139 -0.043,-9e-4 -0.2668,0.015 -0.2374,0.1882 0.016,0.085 0.078,0.1602 0.1144,0.2424 0,0 -0.012,-0.063 -0.012,-0.064 v 0 c -0.01,0.064 -0.048,0.1223 -0.026,0.1931 0.057,0.177 0.2978,0.302 0.3836,0.3429 0.398,0.1895 0.7898,0.2217 1.182,0.3223 0.1572,0.022 0.3159,0.053 0.4718,0.066 0.5273,0.044 1.0669,0.014 1.5099,-0.2373 0.053,-0.021 0.092,-0.07 0.1348,-0.1113 0.027,-0.01 -0.2019,-0.5428 -0.225,-0.5305 z" /><path
             style="fill:#000000;fill-opacity:1;stroke-width:0.9;stroke-linecap:round;stroke-linejoin:round;stroke-opacity:0.996078;-inkscape-stroke:none;paint-order:markers fill stroke"
             id="path11779"
             d="m 1366.0789,1025.1832 c 0.027,0.1419 0.039,0.2854 0.07,0.427 0.093,0.4238 0.2247,0.8496 0.3686,1.2562 0.1452,0.4112 0.3002,0.8136 0.5096,1.1811 0.074,0.1274 0.1646,0.2348 0.247,0.3524 0.4007,0.1065 0.2428,0.1539 0.4986,-0.037 0,0 -0.041,-0.066 -0.042,-0.064 v 0 c 0.1067,-0.01 0.038,0.014 0.1394,-0.2023 -0.03,-0.1137 -0.056,-0.2293 -0.093,-0.3415 -0.071,-0.2271 -0.322,-0.906 -0.391,-1.0961 -0.1866,-0.516 -0.3675,-1.0355 -0.5859,-1.5343 -0.014,-0.075 -0.7397,-0.016 -0.7258,0.06 z" /><path
             style="fill:#bfa640;fill-opacity:1;stroke-width:0.9;stroke-linecap:round;stroke-linejoin:round;stroke-opacity:0.996078;-inkscape-stroke:none;paint-order:markers fill stroke"
             d="m 1366.2121,1026.5296 c -0.284,0.01 -0.2433,0.3778 -0.3837,0.5507 -0.24,0.439 -0.4129,0.9367 -0.7505,1.3107 -0.1151,0.071 -0.3086,0.048 -0.334,0.2274 -0.4339,0.2707 -0.9812,0.2153 -1.4349,0.4161 -0.2425,0.2389 0.039,0.5665 0.2557,0.7067 0.3923,0.3268 0.7995,0.6654 1.1163,1.0592 -0.075,0.2274 -0.2896,0.3329 -0.4143,0.5148 -0.273,0.6674 -0.5006,1.3615 -0.6694,2.0614 0.029,0.3338 0.4359,0.2266 0.6246,0.1029 0.9025,-0.4566 1.7144,-1.0846 2.6704,-1.4281 0.1886,-0.096 0.2334,0.1399 0.3307,0.2402 0.082,0.2344 0.4015,0.1922 0.5787,0.3321 0.2006,0.096 0.6136,0.2584 0.6744,-0.075 -0.1514,-0.5928 -0.3707,-1.1826 -0.4436,-1.7883 0.1547,-0.1488 0.362,-0.2322 0.5038,-0.4049 0.2906,-0.2944 0.746,-0.4338 0.9457,-0.808 0.077,-0.3653 -0.4014,-0.3769 -0.6404,-0.4371 -0.4236,-0.1161 -0.9925,-0.1434 -1.2222,-0.5772 -0.044,-0.2335 -0.3406,-0.2263 -0.4131,-0.4467 -0.3026,-0.4425 -0.3967,-1.011 -0.6867,-1.4637 -0.079,-0.082 -0.1996,-0.096 -0.3076,-0.093 z"
             id="path11780" /><path
             style="opacity:0.25;fill:#000000;stroke-width:0.9;stroke-linecap:round;stroke-linejoin:round;stroke-opacity:0.996078;-inkscape-stroke:none;paint-order:markers fill stroke"
             d="m 1368.809,991.98604 -0.3336,3.52672 4.4322,2.38298 2.6689,-2.95485 z"
             id="path11781" /><path
             style="opacity:0.25;fill:#000000;stroke-width:0.9;stroke-linecap:round;stroke-linejoin:round;stroke-opacity:0.996078;-inkscape-stroke:none;paint-order:markers fill stroke"
             d="m 1348.125,994.89322 3.3838,3.43145 6.9105,0.90551 -4.7659,-3.57445 z"
             id="path11782" /></g></g><rect
         style="opacity:0;fill:#ffffff;stroke-width:0.622001;stroke-linecap:square;-inkscape-stroke:none;paint-order:markers stroke fill"
         id="rect14062"
         width="70.499184"
         height="65.559776"
         x="1283.134"
         y="954.22894" /></g></g></svg>
