<?xml version="1.0" encoding="UTF-8" standalone="no"?>
<!-- Created with Inkscape (http://www.inkscape.org/) -->

<svg
   width="63.090073mm"
   height="61.967407mm"
   viewBox="0 0 63.090071 61.967407"
   version="1.1"
   id="svg1"
   inkscape:version="1.4 (1:1.4+202410161351+e7c3feb100)"
   sodipodi:docname="mooc_floss_course_samples.svg"
   xml:space="preserve"
   inkscape:export-filename="html/images/mod3-troll.svg"
   inkscape:export-xdpi="96"
   inkscape:export-ydpi="96"
   inkscape:export-batch-path="video/patch_animation/patch_parts"
   inkscape:export-batch-name=" "
   xmlns:inkscape="http://www.inkscape.org/namespaces/inkscape"
   xmlns:sodipodi="http://sodipodi.sourceforge.net/DTD/sodipodi-0.dtd"
   xmlns="http://www.w3.org/2000/svg"
   xmlns:svg="http://www.w3.org/2000/svg"><sodipodi:namedview
     id="namedview1"
     pagecolor="#ffffff"
     bordercolor="#000000"
     borderopacity="0.25"
     inkscape:showpageshadow="2"
     inkscape:pageopacity="0.0"
     inkscape:pagecheckerboard="0"
     inkscape:deskcolor="#d1d1d1"
     inkscape:document-units="mm"
     inkscape:zoom="1.1784405"
     inkscape:cx="3109.6181"
     inkscape:cy="4421.5213"
     inkscape:window-width="1920"
     inkscape:window-height="1011"
     inkscape:window-x="0"
     inkscape:window-y="0"
     inkscape:window-maximized="1"
     inkscape:current-layer="layer1"
     showguides="true"
     showgrid="false"
     inkscape:lockguides="false"><inkscape:grid
       id="grid5732"
       units="mm"
       originx="-919.8737"
       originy="-1145.9496"
       spacingx="0.26458332"
       spacingy="0.26458333"
       empcolor="#0099e5"
       empopacity="0.30196078"
       color="#0099e5"
       opacity="0.14901961"
       empspacing="5"
       enabled="true"
       visible="false" /><inkscape:page
       x="9.3023369e-15"
       y="0"
       width="63.090073"
       height="61.967407"
       id="page2"
       margin="0"
       bleed="0" /></sodipodi:namedview><defs
     id="defs1" /><g
     inkscape:label="Layer 1"
     inkscape:groupmode="layer"
     id="layer1"
     transform="translate(-995.3154,-1018.6663)"><g
       id="g14065"
       transform="translate(2.6458334)"><g
         id="g12705"
         transform="matrix(0.70098441,0,0,0.70098441,219.49924,299.15757)"
         style="stroke-width:1.42656"><g
           id="g12704"
           transform="translate(-78.992642,-19.411161)"
           style="stroke-width:1.42656"><path
             id="path12691"
             style="opacity:1;stroke-width:1.16978;stroke-linecap:round;stroke-linejoin:round;stroke-miterlimit:5.6;paint-order:stroke markers fill"
             d="m 1236.1648,1055.091 c 5.2628,0.9607 10.0264,2.9681 13.1897,5.2744 1.4743,0.8374 2.8104,1.8794 4.061,3.002 1.2196,1.1026 2.2967,2.3559 3.2235,3.717 1.8974,2.7644 3.397,5.8133 4.503,9.027 0.8311,2.431 1.4514,4.9547 1.7995,7.5445 0.2423,1.7356 0.3991,3.4964 0.3359,5.2808 -0.063,2.1502 -0.3508,4.3144 -0.8279,6.4544 -0.663,2.9226 -1.6809,5.8028 -3.0505,8.5408 -0.721,1.4526 -1.5367,2.8682 -2.4541,4.222 -0.9208,1.3655 -1.9507,2.6647 -3.0785,3.8762 -1.1547,1.2411 -2.388,2.4083 -3.6816,3.5033 -1.6806,1.3987 -3.4974,2.6229 -5.3705,3.724 -1.7676,1.022 -3.6047,1.9075 -5.4879,2.6429 -2.1515,0.8408 -4.3587,1.5016 -6.5877,1.9632 -1.4832,0.2968 -2.975,0.511 -4.4655,0.6221 -2.6284,0.2057 -5.248,0.1119 -7.7985,-0.2563 -2.7486,-0.3937 -5.4133,-1.1304 -7.9036,-2.211 -1.8801,-0.8343 -3.7713,-1.6603 -5.5379,-2.6919 -0.945,-0.5608 -1.8392,-1.1943 -2.7385,-1.8186 -1.4239,-1.0018 -2.7896,-2.0837 -4.0356,-3.2921 -1.0002,-0.9728 -1.9187,-2.025 -2.784,-3.1198 -1.0999,-1.3839 -2.0797,-2.8657 -2.9426,-4.419 -1.5651,-2.8406 -2.7169,-5.9445 -3.3165,-9.2103 -0.3952,-2.1678 -0.5281,-4.4107 -0.38,-6.6641 0.1225,-1.8045 0.4606,-3.606 0.8008,-5.402 0.1818,-0.8975 0.3716,-1.7973 0.6337,-2.6835 0.3785,-1.188 0.8524,-2.3519 1.3382,-3.5094 0.3981,-0.928 0.8097,-1.8518 1.2363,-2.7696 0.9274,-1.9053 2.0335,-3.7465 3.3818,-5.418 0.9008,-1.1365 1.9011,-2.1947 2.913,-3.236 1.8308,-1.8352 3.8084,-3.5243 5.9084,-5.0357 3.0414,-2.2024 6.3231,-4.0478 9.7345,-5.5075 1.9407,-0.8328 4.6691,-1.8179 6.7153,-2.1387 4.1785,-0.8719 8.5735,-0.7582 12.6667,-0.011 z m 2.146,2.0274 c -5.2114,-1.149 -11.4937,-1.2862 -17.7172,0.087 -1.9284,0.6492 -3.8122,1.4629 -5.6594,2.3583 -2.1844,1.0767 -4.3257,2.2667 -6.3673,3.6256 -1.8201,1.2201 -3.5514,2.5812 -5.1791,4.0582 -1.7478,1.6076 -3.3544,3.38 -4.7152,5.3157 -0.9995,1.4465 -1.8565,2.9794 -2.5629,4.5668 -0.7527,1.663 -1.4141,3.3594 -2.0059,5.0708 -0.5688,1.8926 -0.8176,3.8283 -1.0616,5.7507 -0.2598,2.2725 -0.2751,4.5446 -0.088,6.7773 0.3159,3.5991 1.216,7.1025 2.7671,10.2551 1.0417,2.1499 2.3763,4.131 3.9278,5.9196 1.3171,1.5205 2.7704,2.9213 4.3593,4.1617 1.3636,1.0704 2.8152,2.0351 4.3316,2.8958 0.9939,0.5664 2.0426,1.0418 3.1047,1.487 1.2124,0.5114 2.4424,0.9867 3.6754,1.455 2.6165,0.9483 5.408,1.4915 8.253,1.6916 1.8785,0.1411 3.7817,0.1471 5.6896,-4e-4 2.9204,-0.2146 5.8514,-0.7878 8.7056,-1.6961 2.5068,-0.7846 4.945,-1.8627 7.2677,-3.1706 1.3361,-0.7493 2.6609,-1.5368 3.883,-2.4798 1.2163,-0.9221 2.3472,-1.9579 3.3993,-3.0649 0.8856,-0.9036 1.7404,-1.8422 2.4829,-2.8633 0.8079,-1.0742 1.4997,-2.2217 2.1366,-3.3922 1.0717,-1.9087 1.9799,-3.898 2.6958,-5.9363 0.7892,-2.2474 1.3384,-4.5546 1.6306,-6.8695 0.2715,-2.0278 0.3255,-4.06 0.1866,-6.0587 -0.1435,-2.1404 -0.5819,-4.2211 -1.1137,-6.2579 -0.6537,-2.4636 -1.4805,-4.8661 -2.475,-7.1837 -0.6526,-1.5289 -1.4328,-2.9907 -2.2839,-4.4042 -0.9208,-1.5119 -1.9301,-2.9713 -3.1286,-4.2677 -1.1622,-1.2638 -2.4246,-2.4459 -3.8594,-3.4083 -0.7371,-0.4987 -1.5162,-0.9395 -2.2994,-1.3694 -2.1121,-1.3101 -4.8534,-2.364 -7.9801,-3.0534 z m -2.4237,4.9813 c 3.3003,0.7663 6.4154,2.1288 9.1337,4.0066 1.1856,0.6735 2.2587,1.5103 3.2641,2.4131 0.9807,0.8867 1.848,1.8944 2.5933,2.989 1.5256,2.2229 2.7326,4.674 3.6218,7.2586 0.6685,1.9545 1.1659,3.984 1.4457,6.0662 0.1949,1.3958 0.321,2.8116 0.2701,4.2466 -0.051,1.7289 -0.2825,3.4697 -0.6661,5.1905 -0.5325,2.3503 -1.3497,4.6672 -2.4525,6.8687 -0.5797,1.168 -1.234,2.3066 -1.9717,3.3952 -0.4622,0.6854 -0.9704,1.3403 -1.4994,1.9796 -0.015,-0.019 -0.028,-0.037 -0.044,-0.055 -0.1014,-0.1213 -0.2119,-0.2334 -0.3207,-0.3473 -0.066,-0.069 -0.1303,-0.1401 -0.1985,-0.2072 -0.1484,-0.1448 -0.3002,-0.2861 -0.4573,-0.4222 -0.4702,-0.3992 -0.9575,-0.7789 -1.4567,-1.1433 -0.03,-0.031 -0.059,-0.062 -0.088,-0.093 -3.6405,-3.8526 -7.2545,-7.7299 -10.874,-11.6021 -8.1737,-8.9992 -0.8675,-0.9082 -8.6254,-9.629 -2.3409,-2.6312 -4.258,-4.7078 -6.5674,-7.3402 -0.9268,-1.0563 -1.8364,-2.1278 -2.7534,-3.1927 -0.6855,-0.7962 -1.3698,-1.5938 -2.0546,-2.3906 -0.9259,-1.132 -1.8562,-2.2597 -2.7863,-3.3881 0,-0.01 0.014,-0.011 0.022,-0.017 -0.056,-0.057 -0.1124,-0.1142 -0.1689,-0.1706 1.7885,-1.1185 3.6534,-2.1012 5.5754,-2.9236 5.5453,-2.3962 11.5602,-2.7714 17.0604,-1.4933 z m -1.5479,1.2145 c -3.6622,-0.7996 -7.6539,-0.8313 -12.1221,0.6024 -1.5114,0.5089 -2.99,1.1479 -4.438,1.8498 -0.9232,0.4551 -1.8307,0.9471 -2.7264,1.462 0.054,0.057 0.1074,0.1143 0.1613,0.1712 0.5885,0.6182 1.1791,1.2342 1.7686,1.8514 0.7152,0.7687 1.4235,1.5438 2.1453,2.3062 0.9654,1.0197 1.952,2.0191 2.9162,3.0399 2.2587,2.3916 4.47,4.8283 6.7285,7.2201 10.0729,10.6676 -1.5712,-1.8012 8.8785,9.4244 3.5457,3.9416 7.1391,7.8459 10.5233,11.9315 0.3547,0.4284 0.7055,0.8606 1.0513,1.2968 0.5441,-0.7583 1.0317,-1.5528 1.4743,-2.3664 0.8401,-1.4961 1.5514,-3.0532 2.1126,-4.6508 0.6191,-1.7613 1.0501,-3.5718 1.2805,-5.3857 0.2133,-1.5894 0.2548,-3.1819 0.1451,-4.7486 -0.1123,-1.6777 -0.4541,-3.3081 -0.871,-4.9042 -0.5123,-1.9309 -1.162,-3.813 -1.9414,-5.6293 -0.5117,-1.1983 -1.1241,-2.3458 -1.791,-3.4539 -0.7217,-1.1848 -1.5135,-2.3285 -2.4527,-3.3445 -0.911,-0.9905 -1.899,-1.9151 -3.0232,-2.6695 -0.5779,-0.3909 -1.1877,-0.7369 -1.8014,-1.074 -2.5204,-1.2213 -5.1697,-2.3071 -8.0183,-2.9288 z m -27.8299,8.5774 c 0.6639,0.6814 1.3078,1.3829 1.9635,2.0718 0.5883,0.6181 1.1791,1.2341 1.7685,1.8512 0.7152,0.7687 1.4237,1.5438 2.1455,2.3062 0.9653,1.0198 1.9518,2.0191 2.916,3.04 2.2588,2.3916 4.47,4.8282 6.7285,7.22 10.0729,10.6676 -1.5711,-1.8011 8.8785,9.4245 3.2365,3.5977 6.5046,7.1713 9.6251,10.8732 6e-4,0.1879 0.085,0.3833 0.261,0.6123 0.3587,0.4378 0.7345,0.861 1.1007,1.2921 0.2978,0.3384 0.601,0.6717 0.9041,1.0052 0.1251,0.1376 0.423,0.4695 0.5672,0.612 -0.6531,0.4423 -1.3191,0.8641 -1.9971,1.2626 -1.4212,0.8217 -2.9003,1.5315 -4.4145,2.1228 -1.7301,0.6761 -3.5037,1.2085 -5.2963,1.5797 -1.1928,0.2387 -2.3925,0.4132 -3.591,0.5025 -2.1133,0.1654 -4.2195,0.089 -6.2705,-0.2074 -2.2101,-0.3164 -4.354,-0.9109 -6.3565,-1.7798 -1.5119,-0.6709 -3.0317,-1.333 -4.4525,-2.1624 -0.7598,-0.4509 -1.4798,-0.9594 -2.2028,-1.4614 -1.145,-0.8056 -2.2426,-1.6772 -3.2448,-2.649 -0.804,-0.7822 -1.5428,-1.627 -2.2388,-2.5073 -0.8843,-1.1128 -1.6734,-2.3061 -2.3672,-3.5552 -1.2584,-2.2843 -2.1839,-4.7789 -2.6661,-7.4051 -0.3178,-1.7431 -0.4258,-3.5458 -0.3064,-5.3577 0.098,-1.4511 0.3707,-2.9005 0.6447,-4.3447 0.1456,-0.7217 0.2989,-1.4448 0.5088,-2.1575 0.3092,-0.9543 0.6865,-1.8923 1.0776,-2.823 0.3201,-0.7464 0.6482,-1.4891 0.9916,-2.2269 0.746,-1.5322 1.637,-3.0136 2.7213,-4.358 0.7244,-0.9139 1.527,-1.7643 2.3406,-2.6016 0.045,-0.045 0.091,-0.087 0.1362,-0.1312 0.011,0.014 0.021,0.025 0.031,0.039 0.031,-0.029 0.062,-0.057 0.093,-0.086 z m 0.2134,1.717 c -0.8575,0.8959 -1.664,1.84 -2.3747,2.8506 -0.783,1.1338 -1.4543,2.3364 -2.0078,3.5806 -0.5893,1.3036 -1.1068,2.6324 -1.5705,3.9739 -0.4457,1.4833 -0.6422,3.0013 -0.8333,4.5079 -0.204,1.7811 -0.2164,3.5627 -0.07,5.3127 0.2475,2.8207 0.9546,5.5639 2.1702,8.0348 0.8165,1.6851 1.8622,3.2394 3.078,4.6414 1.0323,1.1917 2.1725,2.2885 3.4181,3.2609 1.0685,0.8389 2.2062,1.5958 3.3943,2.2705 0.7791,0.4437 1.6002,0.8149 2.4329,1.164 0.9495,0.4018 1.9135,0.7742 2.88,1.1411 2.0505,0.7431 4.2406,1.1673 6.4698,1.3264 1.4725,0.1102 2.9625,0.1152 4.4577,-5e-4 2.2887,-0.168 4.5858,-0.6152 6.8228,-1.3273 1.9645,-0.6149 3.8758,-1.4596 5.6963,-2.4846 0.094,-0.053 0.1862,-0.1105 0.2797,-0.1647 -0.3189,-0.3318 -0.6385,-0.6627 -0.9545,-0.9971 -3.6404,-3.8526 -7.2544,-7.7299 -10.874,-11.6021 -8.1737,-8.9992 -0.8675,-0.9082 -8.6254,-9.629 -2.3409,-2.6312 -4.2579,-4.7078 -6.5674,-7.3402 -0.9267,-1.0563 -1.8363,-2.1278 -2.7534,-3.1927 -0.6855,-0.7962 -1.3698,-1.5938 -2.0546,-2.3906 -0.8023,-0.9808 -1.6087,-1.9579 -2.4145,-2.9358 z m 44.1907,34.0956 c 0.01,0.027 0.01,0.034 0.012,0.064 -0.027,-0.01 -0.054,-0.011 -0.083,-0.01 0.023,-0.018 0.047,-0.035 0.071,-0.053 z m -0.2654,0.1976 v 0.01 c -10e-4,0.01 -10e-4,0.01 0.01,0.014 -0.01,0 -0.01,0 -0.011,-0.012 z m -2.6698,-0.253 c 0.03,0.034 0.063,0.065 0.091,0.1 0.065,0.094 0.1443,0.1791 0.2113,0.2727 -10e-4,0.01 -0.013,0.011 -0.018,0.017 -0.094,-0.1307 -0.1891,-0.2604 -0.2853,-0.3893 z m -3.9512,6.2541 c -0.024,0.046 -0.05,0.09 -0.081,0.1321 -0.015,-0.013 -0.041,-0.037 -0.055,-0.051 0.045,-0.027 0.09,-0.055 0.1353,-0.082 z"
             sodipodi:nodetypes="scccccccccccccccccccccccccccccccccsscccccccccccccccccccccccsccccccccsccccccccccccscccccssscccccccscccscssscscccccccccccscscsssccccscccccccccccccccccccsccccccccccccccccccscccsssccccccccscccccccccccccc" /><path
             style="font-variation-settings:normal;opacity:1;fill:#de3c21;fill-opacity:1;fill-rule:nonzero;stroke:none;stroke-width:4.42122;stroke-linecap:round;stroke-linejoin:round;stroke-miterlimit:5.6;stroke-dasharray:none;stroke-dashoffset:0;stroke-opacity:1;paint-order:stroke markers fill"
             d="m 4359.2163,4473.3476 c -20.0009,-0.6741 -39.5541,5.2115 -56.99,14.7311 -28.7953,15.1372 -56.1089,37.1121 -68.3358,68.1922 -10.4727,21.9831 -11.6464,47.0416 -9.0832,70.8758 5.72,41.6249 39.2836,75.2243 78.0324,88.5993 25.259,9.9479 53.3749,11.19 79.6017,4.4923 34.6762,-8.0563 67.7323,-29.0948 84.0067,-61.5702 12.5165,-22.3948 18.3304,-48.4063 15.4333,-73.9774 -3.9965,-27.6436 -14.517,-54.8606 -31.9423,-76.855 -17.3052,-20.39 -44.0284,-30.9096 -70.1148,-33.8035 -6.8499,-0.5967 -13.7343,-0.759 -20.608,-0.6846 z m 5.0789,19.8299 c 30.8104,0.038 62.4996,14.7232 79.9942,40.4698 17.3747,27.7105 23.8661,63.2798 12.532,94.5402 -4.3338,12.4306 -10.5383,25.0091 -18.9204,34.8098 -20.988,-18.7899 -39.3156,-40.3904 -58.5933,-60.9032 -26.8459,-29.527 -53.4148,-59.2939 -78.998,-89.9246 18.4708,-12.0471 40.158,-19.6168 62.3356,-18.988 h 1.019 0.6289 z m -89.7997,39.8309 c 26.0828,24.7602 49.703,52.3254 74.859,78.1414 21.9945,23.6531 44.1191,47.3809 63.9343,72.8615 0.8725,2.9199 -4.5378,3.5276 -6.1874,5.1466 -17.1128,9.1543 -35.7375,15.5191 -55.2379,16.318 -31.3552,1.1771 -62.7878,-12.8863 -84.3893,-35.523 -21.5652,-22.4019 -29.5504,-56.0867 -21.428,-85.9667 4.5324,-19.0275 13.5578,-38.086 28.4493,-50.9778 z"
             id="path12703"
             transform="matrix(0.26458333,0,0,0.26458333,75.441658,-127.2833)" /></g><g
           id="g12703"
           transform="translate(87.883015,25.545171)"
           style="stroke-width:1.42656"><g
             id="g12664"
             transform="matrix(1,0,0.22289241,1.3449525,-234.69515,-369.41434)"
             style="stroke-width:1.23009"><path
               style="font-variation-settings:normal;opacity:1;fill:#ff681c;fill-opacity:1;fill-rule:nonzero;stroke:none;stroke-width:3.81233;stroke-linecap:round;stroke-linejoin:round;stroke-miterlimit:5.6;stroke-dasharray:none;stroke-dashoffset:0;stroke-opacity:1;paint-order:stroke markers fill"
               d="m 3820.4438,4394.6043 c -2.2732,0.055 -4.6413,0.1219 -6.7798,0.9 -6.9549,8.3997 -14.7258,16.0906 -22.1845,24.0538 -15.4149,16.2378 -31.1158,32.2005 -46.5144,48.4559 -2.8759,2.945 -5.6886,5.9689 -8.7164,8.7369 5.7666,-7.3855 12.159,-14.254 18.3859,-21.2493 14.4774,-15.9094 29.0189,-31.7716 44.2782,-46.9414 3.3502,-3.4002 6.8909,-6.5921 10.3282,-9.9005 0.684,-0.4415 0.9309,-1.7622 -0.08,-1.9374 -4.0593,0.082 -8.1125,0.3305 -12.1845,0.3473 -26.0486,0.4484 -52.1065,0.1985 -78.1515,0.8506 -3.237,0.1686 -6.519,0.1393 -9.7143,0.6959 -1.1372,0.678 -1.7095,2.0189 -2.7115,2.8792 -10.6654,11.5261 -21.4998,22.8974 -32.9107,33.6784 -15.1935,14.5014 -30.4294,28.9514 -45.9924,43.052 -0.7793,0.7086 -1.981,1.8423 -1.2538,2.9728 0.7909,0.5148 1.7992,-0.1319 2.6771,-0.062 33.4091,-1.0163 55.0742,-0.3658 85.8966,-0.9211 2.85,0.148 11.1594,2.5741 15.8091,2.3427 2.8225,-0.1405 2.3771,-3.1142 4.0624,-2.8402 -0.01,0.8049 -0.095,2.205 1.0888,2.1092 4.3157,0.4656 8.6475,1.9058 12.2526,4.3403 2.9672,2.3689 2.7186,8.3432 4.0744,11.9822 l 4.1304,-4.3783 c 4.8615,-5.3276 9.5496,-10.8171 14.5124,-16.0468 15.1659,-16.2351 30.8274,-32.0046 45.8063,-48.4144 6.2805,-6.8945 11.2203,-13.6159 17.8934,-20.1296 l -1.8759,-8.8773 c -2.7066,-2.9043 -6.393,-5.7888 -10.4562,-5.6793 -0.5565,-0.019 -1.1133,-0.024 -1.6701,-0.02 z"
               id="path12662"
               transform="matrix(0.26458333,0,0,0.26458333,75.441658,-127.2833)"
               sodipodi:nodetypes="scccccccccccccccccsccccccccccss" /><path
               style="font-variation-settings:normal;opacity:1;fill:#ffffff;fill-opacity:1;fill-rule:nonzero;stroke:none;stroke-width:3.81233;stroke-linecap:round;stroke-linejoin:round;stroke-miterlimit:5.6;stroke-dasharray:none;stroke-dashoffset:0;stroke-opacity:1;paint-order:stroke markers fill"
               d="m 3727.3531,4481.0651 c -10.8427,0.6344 -21.7169,0.6084 -32.5777,0.7949 -18.8548,0.2733 -37.7169,0.1172 -56.5667,0.6708 -0.7994,0.1602 -2.3804,-0.2696 -2.4377,0.9228 1.2437,6.5013 -0.7337,-0.3549 -0.1813,6.2435 0.4045,4.5775 0.7009,9.2083 0.4566,13.8062 0.3574,1.1622 0.3935,1.3934 1.2835,1.5479 11.7981,-0.312 27.7664,0.6134 39.5679,0.5982 22.2897,0.1107 41.759,-0.3432 64.0441,0.1583 1.4341,-0.061 3.794,-0.7447 5.1921,-1.0207 1.6966,-1.4658 1.9024,-3.9218 2.9541,-5.8624 l 0.7068,-8.8385 c 0.7849,-3.9055 -7.7909,-10.0771 -14.3266,-9.193 -5.0061,0.6771 -6.2851,0.3389 -7.3742,0.1018 -0.247,0.023 -0.4939,0.047 -0.7409,0.07 z"
               id="path12664"
               transform="matrix(0.26458333,0,0,0.26458333,75.441658,-127.2833)"
               sodipodi:nodetypes="scccccccccccscss" /><path
               style="font-variation-settings:normal;opacity:1;fill:#ff681c;fill-opacity:1;fill-rule:nonzero;stroke:#000000;stroke-width:1.00868;stroke-linecap:round;stroke-linejoin:round;stroke-miterlimit:5.6;stroke-dasharray:none;stroke-dashoffset:0;stroke-opacity:1;paint-order:stroke markers fill"
               d="m 1037.5083,1062.3223 -3.584,3.984 20.4615,0.05 6.9169,-0.4397 1.2448,0.6202 1.7125,-0.1053 2.1549,-1.5034 -18.5912,-0.05 -10.155,-0.1002 z"
               id="path12688"
               sodipodi:nodetypes="cccccccccc" /></g><path
             style="font-variation-settings:normal;opacity:1;fill:#000000;fill-opacity:1;fill-rule:nonzero;stroke:none;stroke-width:1.16978;stroke-linecap:round;stroke-linejoin:round;stroke-miterlimit:5.6;stroke-dasharray:none;stroke-dashoffset:0;stroke-opacity:1;paint-order:stroke markers fill"
             id="path12648"
             d="m 1053.0782,1024.2073 c -0.2369,0.294 -0.4865,0.5706 -0.7106,0.8812 -0.6532,0.9061 -2.2667,3.4439 -2.7248,4.1329 -0.8938,1.3448 -1.8091,2.6626 -2.7013,4.0093 -1.561,2.357 -5.1706,7.9437 -6.6369,10.2077 -4.1588,6.9609 -2.2745,3.528 -5.7051,10.2412 -0.031,0.066 0.7446,0.9217 0.7788,0.86 v 0 c 4.0115,-6.025 1.9371,-2.8237 6.2028,-9.628 1.6009,-2.5769 4.8234,-7.7191 6.4181,-10.4567 0.8282,-1.4223 1.6171,-2.8883 2.4147,-4.3444 0.4974,-0.9086 0.9807,-1.8337 1.4715,-2.7494 0.3112,-0.5815 0.6393,-1.1453 0.9345,-1.7434 0.1782,-0.3616 0.3229,-0.7558 0.484,-1.1339 0.01,-0.019 -0.2144,-0.2937 -0.2257,-0.2765 z" /><path
             style="font-variation-settings:normal;opacity:1;fill:#000000;fill-opacity:1;fill-rule:nonzero;stroke:none;stroke-width:1.16978;stroke-linecap:round;stroke-linejoin:round;stroke-miterlimit:5.6;stroke-dasharray:none;stroke-dashoffset:0;stroke-opacity:1;paint-order:stroke markers fill"
             id="path12649"
             d="m 1064.7305,1053.4355 c -0.151,0.095 -0.3081,0.1791 -0.4649,0.2637 -0.1066,0.056 -0.2152,0.1088 -0.3203,0.168 -0.086,0.045 -0.1798,0.074 -0.2764,0.081 -0.1076,0.01 -0.2151,-0.01 -0.3225,-0.012 l -0.6658,-0.5999 -7.2626,0.1166 c -0.1444,-0.01 -0.2888,-0.014 -0.4332,-0.017 -5.5249,0.047 -11.0498,0.095 -16.5746,0.1424 -0.7974,0.1238 -1.5946,0.2486 -2.392,0.3717 l -0.4479,0.06 c -0.1966,0.012 -0.3932,0.025 -0.5898,0.037 0,0.1144 0.031,0.225 0.055,0.3359 0.017,0.066 0.037,0.1311 0.061,0.1953 0.3456,0.037 0.691,0.076 1.0367,0.1128 0.1474,0.012 0.2951,0.023 0.4429,0.029 0.1942,0.01 0.3886,0.014 0.5829,0.02 0.5482,0 1.0964,-0.014 1.6445,-0.023 0.2305,-0.01 0.461,-0.014 0.6913,-0.026 0.7814,-0.036 1.5626,-0.073 2.3439,-0.1106 0.3124,-0.011 0.625,-0.016 0.9375,-0.027 0.428,-0.01 0.856,0 1.284,-0.01 0.9077,0 1.8153,0 2.723,-0.01 0.2701,0 0.5402,0 0.8103,-6e-4 1.385,-0.01 2.77,-0.022 4.1549,-0.033 1.4049,-0.024 2.8098,-0.047 4.2146,-0.072 0.9599,-0.018 1.9197,-0.035 2.8796,-0.053 0.5358,-0.024 1.0716,-0.047 1.6074,-0.07 0.5417,0.01 1.0834,0.012 1.625,0.018 0.085,0.075 0.1714,0.1492 0.2486,0.2327 0.1385,0.1488 0.2739,0.3008 0.4211,0.4412 0.08,0.071 0.1657,0.1353 0.2548,0.1942 0.086,0.067 0.1957,0.094 0.3021,0.1085 0.1056,0.013 0.2127,0.013 0.3183,4e-4 0.097,-0.023 0.2131,-0.018 0.2817,-0.1032 0.08,-0.074 0.1649,-0.1443 0.2301,-0.2326 0.2578,-0.3303 0.5156,-0.6605 0.7734,-0.9908 -10e-4,-0.1076 -0.036,-0.2098 -0.064,-0.3125 -0.023,-0.082 -0.039,-0.1668 -0.084,-0.2402 h -0.014 z"
             sodipodi:nodetypes="ccsccccscccccccsccccccccccccccccccccccccc" /><path
             style="font-variation-settings:normal;opacity:1;fill:#000000;fill-opacity:1;fill-rule:nonzero;stroke:none;stroke-width:1.16978;stroke-linecap:round;stroke-linejoin:round;stroke-miterlimit:5.6;stroke-dasharray:none;stroke-dashoffset:0;stroke-opacity:1;paint-order:stroke markers fill"
             id="path12650"
             d="m 1052.7145,1024.8136 c 0.8112,-0.036 1.6038,-0.1645 2.4136,-0.2058 4.3051,-0.2179 8.6605,-0.1614 12.9981,-0.1915 1.7567,-0.014 3.5106,-0.043 5.2658,-0.065 5.2412,-0.1103 2.8672,0.014 7.1371,-0.2929 0.038,0 -0.1414,-0.7685 -0.1815,-0.7631 v 0 c -4.4597,-0.5146 -2.0036,-0.2978 -7.3572,-0.5555 -1.7684,-0.013 -3.5435,-0.064 -5.3041,-0.032 -1.8003,0.034 -3.5924,0.1144 -5.3769,0.2318 -3.3058,0.218 -6.6026,0.5838 -9.747,1.4626 -0.019,0.015 0.1305,0.4192 0.1511,0.4109 z" /><path
             style="font-variation-settings:normal;opacity:1;fill:#000000;fill-opacity:1;fill-rule:nonzero;stroke:none;stroke-width:1.16978;stroke-linecap:round;stroke-linejoin:round;stroke-miterlimit:5.6;stroke-dasharray:none;stroke-dashoffset:0;stroke-opacity:1;paint-order:stroke markers fill"
             id="path12651"
             d="m 1064.8973,1052.8563 c 1.6808,-2.7712 3.1956,-5.7216 4.7711,-8.6061 0.5625,-1.0299 1.138,-2.046 1.707,-3.0689 1.9646,-3.5225 3.899,-7.0773 5.827,-10.6386 0.7293,-1.347 2.1088,-3.8861 2.856,-5.3935 0.2218,-0.4476 0.4205,-0.9178 0.6307,-1.3766 0.042,-0.1368 0.084,-0.2734 0.1261,-0.4101 0,0 -0.052,-0.074 -0.055,-0.07 v 0 c -0.1114,0.062 -0.2227,0.1237 -0.3341,0.1853 -0.2943,0.37 -0.6079,0.7149 -0.883,1.1097 -1.0069,1.4459 -2.2744,3.6182 -3.1302,5.1285 -1.9868,3.506 -3.8713,7.1228 -5.765,10.7266 -1.3988,2.7354 -2.8194,5.4487 -4.1645,8.2381 -0.2758,0.5723 -1.1785,2.4774 -1.5069,3.2469 -0.1036,0.2426 -0.1911,0.4995 -0.2867,0.7493 -0.01,0.018 0.2011,0.1965 0.2077,0.1795 z" /><path
             id="path12652"
             style="font-variation-settings:normal;opacity:1;fill:#000000;fill-opacity:1;fill-rule:nonzero;stroke:none;stroke-width:1.16978;stroke-linecap:round;stroke-linejoin:round;stroke-miterlimit:5.6;stroke-dasharray:none;stroke-dashoffset:0;stroke-opacity:1;paint-order:stroke markers fill"
             sodipodi:type="inkscape:offset"
             inkscape:radius="0.18331043"
             inkscape:original="M 1082.3438 1022.6367 C 1081.7809 1022.5599 1081.2265 1022.6146 1080.7207 1022.7812 C 1080.5684 1022.8312 1080.4381 1022.9274 1080.2969 1023 C 1080.2809 1023.016 1080.5435 1023.3113 1080.5586 1023.2949 L 1080.5586 1023.2891 C 1081.2973 1023.0804 1082.2963 1022.9492 1083.125 1023.2988 C 1083.9093 1023.6248 1084.1802 1023.9856 1084.8457 1024.6016 C 1085.5168 1025.5001 1086.0891 1026.4851 1086.375 1027.5547 C 1086.5338 1028.1495 1086.5438 1028.7486 1086.5156 1029.3164 C 1086.4566 1029.3674 1086.4002 1029.4175 1086.3418 1029.4688 C 1086.3418 1029.4688 1086.375 1029.5176 1086.377 1029.5156 C 1086.448 1029.4646 1086.5188 1029.4157 1086.5898 1029.3652 C 1086.6718 1029.25 1086.7823 1029.1581 1086.834 1029.0195 C 1087.2169 1027.9931 1086.5902 1026.3317 1085.9453 1025.3262 C 1085.6641 1024.8878 1085.31 1024.5043 1084.9922 1024.0938 C 1084.6679 1023.8235 1084.3631 1023.5131 1084.0195 1023.2832 C 1083.4786 1022.9214 1082.9066 1022.7135 1082.3438 1022.6367 z "
             d="m 1081.4941,1022.4355 c -0.2859,0.026 -0.5639,0.084 -0.83,0.1719 -0.1891,0.062 -0.3278,0.167 -0.4512,0.2305 a 0.18332877,0.18332877 0 0 0 -0.045,0.033 c -3e-4,2e-4 -0.047,0.076 -0.047,0.076 -10e-5,3e-4 -0.01,0.06 -0.01,0.06 0,5e-4 0,0.026 0,0.035 0,0.01 0,0.017 0.01,0.023 0.01,0.025 0.015,0.034 0.022,0.045 0.013,0.021 0.025,0.037 0.039,0.055 0.027,0.036 0.061,0.076 0.096,0.1152 0.035,0.039 0.07,0.078 0.1016,0.1094 0.016,0.016 0.031,0.028 0.051,0.043 0.01,0.01 0.019,0.016 0.045,0.027 0.01,0 0.013,0.01 0.023,0.01 0.01,0 0.041,0.01 0.041,0.01 5e-4,10e-5 0.068,-0.01 0.068,-0.01 0,0 0.01,-0.01 0.014,-0.01 0.7152,-0.2003 1.6711,-0.317 2.4317,0 a 0.18332877,0.18332877 0 0 0 0,0 c 0.7477,0.3108 0.9913,0.6423 1.6523,1.2559 0.6585,0.8836 1.2142,1.8441 1.4903,2.877 0.1449,0.5429 0.158,1.0957 0.1347,1.6328 -0.037,0.032 -0.075,0.065 -0.1113,0.098 a 0.18332877,0.18332877 0 0 0 -0.031,0.2403 c 0,0 0.01,0.013 0.02,0.027 0.01,0.01 0.01,0.014 0.018,0.023 0,0 0.01,0.01 0.016,0.018 0,0 0.029,0.025 0.029,0.025 2e-4,10e-5 0.056,0.025 0.057,0.025 10e-5,0 0.076,0.01 0.076,0.01 0,0 -0.027,-0.1817 -0.027,-0.1817 l 0.1074,0.1485 c 0.069,-0.05 0.1386,-0.099 0.2109,-0.1504 a 0.18332877,0.18332877 0 0 0 0.043,-0.043 c 0.064,-0.089 0.1952,-0.1928 0.2676,-0.3867 0.2142,-0.5742 0.1406,-1.2784 -0.055,-1.9688 -0.1954,-0.6903 -0.5189,-1.37 -0.8516,-1.8886 -0.2927,-0.4564 -0.6516,-0.8421 -0.9629,-1.2442 a 0.18332877,0.18332877 0 0 0 -0.027,-0.029 c -0.3147,-0.2623 -0.623,-0.5778 -0.9883,-0.8222 -0.5636,-0.377 -1.1617,-0.5953 -1.752,-0.6758 -0.2952,-0.04 -0.589,-0.046 -0.875,-0.02 z" /><path
             style="font-variation-settings:normal;opacity:1;fill:#000000;fill-opacity:1;fill-rule:nonzero;stroke:none;stroke-width:1.16978;stroke-linecap:round;stroke-linejoin:round;stroke-miterlimit:5.6;stroke-dasharray:none;stroke-dashoffset:0;stroke-opacity:1;paint-order:stroke markers fill"
             id="path12653"
             d="m 1086.6206,1028.6275 c -0.1746,0.2727 -0.3603,0.5333 -0.5241,0.8176 -1.0547,1.8307 -1.9674,3.813 -2.938,5.726 -1.6128,3.1796 -1.2687,2.487 -3.101,5.8999 -3.3821,6.3377 -6.9872,12.4691 -10.0398,19.127 -0.3341,0.7286 -0.637,1.4847 -0.9554,2.2271 -0.42,1.3937 -0.3753,0.8075 -0.4017,1.6234 l 0.042,0.032 v 0 c 0,0 0.1183,-0.1117 0.8899,-1.1723 1.302,-2.1849 1.4815,-2.4533 2.868,-4.9537 0.6786,-1.2238 1.3416,-2.4632 2.0114,-3.6958 2.2087,-4.0643 4.4144,-8.133 6.4652,-12.3518 1.2987,-2.6848 1.7084,-3.5041 2.9121,-6.0847 0.9163,-1.9638 1.8413,-3.9337 2.6359,-6.004 0.1235,-0.3216 0.2267,-0.6589 0.34,-0.9884 0.01,-0.015 -0.1962,-0.2178 -0.2045,-0.202 z"
             sodipodi:nodetypes="csccsccsscsscssccc" /><path
             id="path12654"
             style="font-variation-settings:normal;opacity:1;fill:#000000;fill-opacity:1;fill-rule:nonzero;stroke:none;stroke-width:1.16978;stroke-linecap:round;stroke-linejoin:round;stroke-miterlimit:5.6;stroke-dasharray:none;stroke-dashoffset:0;stroke-opacity:1;paint-order:stroke markers fill"
             d="m 1065.0449,1053.4082 c -0.093,0.01 -0.1817,0.043 -0.2553,0.1 -0.083,0.064 -0.1514,0.1446 -0.2122,0.2294 -0.06,0.093 -0.1163,0.1901 -0.1724,0.2863 -0.1071,0.191 -0.2175,0.3802 -0.3414,0.5608 -0.067,0.098 -0.1371,0.1961 -0.2241,0.2778 -0.045,0.046 -0.1016,0.082 -0.152,0.1203 -0.014,0.035 0,0.075 -0.01,0.1108 -0.01,0.071 -0.035,0.1381 -0.031,0.2095 0.01,0.013 0.025,0.036 0.041,0.02 0.103,-0.036 0.2109,-0.064 0.3027,-0.125 0.091,-0.071 0.1834,-0.1427 0.2642,-0.2257 0.1632,-0.1969 0.3265,-0.3938 0.4897,-0.5907 0.07,-0.074 0.1405,-0.1505 0.2325,-0.1973 0.098,-0.052 0.2122,-0.061 0.3208,-0.045 0.1081,0.012 0.215,0.034 0.3208,0.059 0.1111,0.026 0.2215,0.056 0.3302,0.09 0.1383,0.046 0.2775,0.09 0.4122,0.1456 0.1291,0.052 0.2571,0.1069 0.3855,0.1608 0.1224,0.061 0.2466,0.1192 0.3654,0.1874 0.1657,0.09 0.3292,0.1838 0.4894,0.283 0.099,0.061 0.1929,0.1282 0.2897,0.1917 0.1157,0.08 0.2346,0.1547 0.3463,0.24 0.1281,0.094 0.2561,0.1889 0.3842,0.2834 0.094,0.1771 0.1875,0.3542 0.2812,0.5312 0.075,0.1682 0.1536,0.3352 0.2152,0.509 0.047,0.1285 0.095,0.257 0.1423,0.3856 0.049,0.1809 0.1012,0.3611 0.143,0.544 0.03,0.1231 0.055,0.2475 0.08,0.372 0.02,0.1226 0.041,0.2451 0.055,0.3686 0.014,0.116 0.03,0.232 0.033,0.3491 0.01,0.1233 0.015,0.2466 0.012,0.3702 l -0.012,0.5605 c -0.025,0.2328 -0.047,0.4661 -0.089,0.6965 -0.019,0.1153 -0.042,0.2299 -0.065,0.3445 -0.031,0.1202 -0.063,0.2399 -0.1,0.3585 -0.055,0.1795 -0.1058,0.3608 -0.1738,0.5361 -0.049,0.1286 -0.099,0.2571 -0.1624,0.3794 -0.052,0.1078 -0.1077,0.214 -0.1678,0.3177 -0.086,0.1538 -0.1772,0.305 -0.2723,0.4535 -0.083,0.1238 -0.1652,0.2482 -0.2533,0.3684 -0.09,0.1282 -0.1833,0.2544 -0.285,0.3737 -0.1229,0.1485 -0.2513,0.2923 -0.3801,0.4357 -0.1192,0.1288 -0.2436,0.2526 -0.3678,0.3767 -0.1455,0.1368 -0.2981,0.2658 -0.4492,0.3964 -0.139,0.1123 -0.2833,0.2185 -0.4368,0.3101 -0.059,0.036 -0.1177,0.073 -0.1765,0.1099 0.017,0.083 0.089,0.1557 0.1753,0.1621 0.1097,0 0.2133,-0.049 0.3186,-0.076 0.1446,-0.044 0.2904,-0.084 0.4337,-0.1322 0.1092,-0.039 0.216,-0.084 0.3233,-0.1272 0.1222,-0.047 0.2361,-0.1126 0.3526,-0.1719 0.1005,-0.054 0.1988,-0.1122 0.2949,-0.1739 0.1379,-0.088 0.2684,-0.1867 0.4004,-0.2832 0.1383,-0.123 0.2784,-0.2442 0.4079,-0.3766 0.082,-0.08 0.1596,-0.1624 0.2355,-0.2472 0.088,-0.1015 0.1767,-0.202 0.2598,-0.3074 0.075,-0.088 0.1401,-0.183 0.2084,-0.2759 0.084,-0.1262 0.1678,-0.2532 0.2455,-0.3837 0.072,-0.1288 0.1457,-0.2573 0.2161,-0.3872 0.068,-0.1295 0.1244,-0.2646 0.1866,-0.397 0.088,-0.2015 0.1701,-0.4059 0.243,-0.6135 0.063,-0.1684 0.1051,-0.3433 0.1522,-0.5164 0.046,-0.1885 0.095,-0.3762 0.1312,-0.5669 0.02,-0.1082 0.051,-0.2152 0.053,-0.3258 0,-0.1165 0,-0.2332 0,-0.3497 -0.01,-0.1532 -0.015,-0.3068 -0.035,-0.4589 -0.017,-0.1393 -0.035,-0.2786 -0.058,-0.417 -0.031,-0.1985 -0.078,-0.3942 -0.124,-0.5897 -0.029,-0.1116 -0.062,-0.2222 -0.098,-0.332 -0.053,-0.1674 -0.1124,-0.3323 -0.1699,-0.498 -0.048,-0.1212 -0.097,-0.242 -0.1509,-0.3609 -0.098,-0.2237 -0.2175,-0.4371 -0.3315,-0.6528 -0.089,-0.1497 -0.179,-0.2984 -0.2762,-0.4427 -0.065,-0.099 -0.1355,-0.1953 -0.2062,-0.2907 -0.073,-0.097 -0.1487,-0.192 -0.2287,-0.2834 -0.1233,-0.1396 -0.2531,-0.2734 -0.3807,-0.409 -0.1023,-0.098 -0.2099,-0.1899 -0.3255,-0.2716 -0.1039,-0.074 -0.2065,-0.1515 -0.3191,-0.2128 -0.2572,-0.1458 -0.5173,-0.2867 -0.7831,-0.4162 -0.1839,-0.092 -0.3738,-0.1711 -0.5648,-0.2468 -0.1453,-0.056 -0.2911,-0.1098 -0.4392,-0.1573 -0.2073,-0.054 -0.4149,-0.1065 -0.624,-0.1532 -0.1126,-0.029 -0.229,-0.038 -0.3439,-0.054 -0.1069,-0.013 -0.2152,-0.026 -0.3231,-0.021 z"
             sodipodi:nodetypes="scccccccccccccssccccsccccccccccscccsccccccccccccccccccccccccccccccccccccccccccccccccs" /><path
             style="font-variation-settings:normal;opacity:1;fill:#000000;fill-opacity:1;fill-rule:nonzero;stroke:none;stroke-width:1.16978;stroke-linecap:round;stroke-linejoin:round;stroke-miterlimit:5.6;stroke-dasharray:none;stroke-dashoffset:0;stroke-opacity:1;paint-order:stroke markers fill"
             id="path12656"
             d="m 1061.0625,1064.5547 c -1.1319,-0.024 -2.2638,-0.048 -3.3957,-0.071 -1.0958,-0.015 -2.1916,-0.029 -3.2875,-0.039 -0.4062,0 -0.8125,-0.01 -1.2188,-0.01 -0.9018,0 -1.8037,-0.01 -2.7055,-0.01 -0.3987,0 -0.7973,0 -1.196,-5e-4 -1.3718,0.014 -2.7437,0.026 -4.1155,0.04 -0.824,0.01 -1.648,0.02 -2.4719,0.033 -0.2826,0.01 -0.5653,0.011 -0.8477,0.021 -1.1964,0.036 -2.3927,0.074 -3.5891,0.1091 -0.4607,0.01 -0.9214,0.021 -1.3822,0.02 l -0.169,6e-4 c 0.019,0.1027 0.06,0.1992 0.1084,0.2911 0.072,0.062 0.1761,0.028 0.2622,0.05 0.5919,0.041 1.184,0.078 1.7763,0.1103 0.2907,0.016 0.5815,0.031 0.8724,0.043 0.5441,0.023 1.0881,0.047 1.6322,0.07 0.5506,0.017 1.1013,0.035 1.652,0.049 0.9151,0.025 1.8302,0.047 2.7454,0.064 0.6583,0.013 1.3165,0.025 1.9748,0.036 0.5585,0.01 1.117,0.021 1.6755,0.025 1.069,0.011 2.138,0.023 3.207,0.033 1.2737,0.01 2.5475,0.017 3.8213,0.024 0.6999,0 1.3999,0.01 2.0998,0.01 1.0615,-0.01 2.1229,-0.012 3.1844,-0.017 0.2155,-0.01 0.431,-0.013 0.6465,-0.02 0.3014,-0.1829 0.6029,-0.3659 0.9043,-0.5488 0.4036,-0.096 0.8073,-0.1914 1.2109,-0.2871 0.1576,0.166 0.3151,0.332 0.4727,0.498 0.1588,0.088 0.3177,0.1758 0.4765,0.2637 0.1153,0 0.2306,0 0.3458,0 0.3171,-0.014 0.6345,-0.027 0.9512,-0.05 0.118,-0.01 0.2363,-0.014 0.3536,-0.03 0.2324,-0.027 0.4647,-0.054 0.6971,-0.08 0.056,-0.012 0.1142,-0.022 0.1602,-0.059 -0.067,-0.097 -0.1852,-0.1346 -0.2793,-0.1992 0.024,-9e-4 0.062,0.01 0.074,-0.022 -0.099,-0.04 -0.2058,-0.046 -0.3102,-0.059 -0.48,-0.045 -0.9615,-0.073 -1.4425,-0.1058 -0.1119,-0.01 -0.2257,-0.01 -0.3354,-0.035 -0.1196,-0.024 -0.229,-0.079 -0.3397,-0.1283 -0.1022,-0.044 -0.1911,-0.1114 -0.2826,-0.1734 -0.097,-0.066 -0.1944,-0.1331 -0.2916,-0.1996 -0.103,-0.06 -0.205,-0.1232 -0.3141,-0.1723 -0.172,-0.082 -0.344,-0.1638 -0.5159,-0.2457 -0.9382,0.2572 -1.8763,0.5143 -2.8145,0.7715 z"
             sodipodi:nodetypes="csscccccsscsccsccccscccccccccccccccccccccccccc" /><path
             style="font-variation-settings:normal;opacity:1;fill:#000000;fill-opacity:1;fill-rule:nonzero;stroke:none;stroke-width:1.16979;stroke-linecap:round;stroke-linejoin:round;stroke-miterlimit:5.6;stroke-dasharray:none;stroke-dashoffset:0;stroke-opacity:1;paint-order:stroke markers fill"
             id="path12657"
             d="m 1038.1262,1054.7435 c 0.6675,2.012 1.0912,4.0665 1.5039,6.112 0.1641,0.4696 0.1488,0.9645 0.2979,1.4366 0.076,0.2418 0.2023,0.3908 0.2731,0.3181 0.051,-0.052 0.036,-0.138 0.054,-0.2071 0,0 -0.044,-0.011 -0.045,-0.01 v 0 c 0.017,0.07 0,0.1496 0.039,0.2115 0.021,0.029 0.093,0.029 0.1128,0 0.06,-0.082 0.089,-0.185 0.095,-0.2863 0.012,-0.2334 -0.1466,-1.336 -0.1611,-1.4442 -0.059,-0.366 -0.1086,-0.7326 -0.1767,-1.098 -0.1583,-0.8437 -0.3529,-1.6538 -0.5772,-2.4904 -0.1652,-0.6166 -0.3948,-1.4225 -0.6344,-2.0385 -0.08,-0.204 -0.1844,-0.4009 -0.2766,-0.6014 -0.013,-0.033 -0.5167,0.061 -0.5063,0.093 z" /><path
             style="font-variation-settings:normal;opacity:1;fill:#000000;fill-opacity:1;fill-rule:nonzero;stroke:none;stroke-width:1.16978;stroke-linecap:round;stroke-linejoin:round;stroke-miterlimit:5.6;stroke-dasharray:none;stroke-dashoffset:0;stroke-opacity:1;paint-order:stroke markers fill"
             id="path12659"
             d="m 1037.3125,1062.4609 c -0.1725,0.2504 -0.3426,0.5024 -0.5167,0.7516 -0.084,0.1147 -0.1672,0.2294 -0.2509,0.3441 -0.075,0.1388 -0.1519,0.2762 -0.225,0.4158 -0.047,0.099 -0.1,0.1991 -0.1159,0.3084 -0.01,0.1056 0.058,0.2044 0.1508,0.2496 0.077,0.043 0.1692,0.069 0.2214,0.1454 0.023,0.058 -0.065,0.081 -0.1085,0.079 -0.024,6e-4 -0.047,0.01 -0.071,0.011 0.1653,7e-4 0.3307,0 0.4961,0 0.106,-0.011 0.2071,-0.064 0.2754,-0.1465 0.096,-0.1154 0.1936,-0.23 0.2841,-0.3498 0.062,-0.088 0.11,-0.1853 0.1595,-0.2808 0.1314,-0.2805 0.2559,-0.5642 0.3949,-0.841 0.076,-0.1561 0.1547,-0.3112 0.2297,-0.4678 0.073,-0.1654 0.1459,-0.3308 0.2189,-0.4962 0.1237,-0.2195 0.2431,-0.4416 0.3716,-0.6584 0.1953,-0.3213 0.3875,-0.6444 0.5815,-0.9666 0.063,-0.1255 0.1241,-0.2525 0.1816,-0.3808 0.078,-0.2095 0.1532,-0.4198 0.2266,-0.6309 0.05,-0.093 0.042,-0.2122 -0.021,-0.2977 -0.07,-0.1124 -0.1537,-0.2161 -0.239,-0.3175 -0.035,-0.039 -0.07,-0.078 -0.1054,-0.1172 -0.7129,1.2149 -1.4258,2.4297 -2.1387,3.6445 z"
             sodipodi:nodetypes="sssccsscsscss" /><path
             id="path12660"
             style="font-variation-settings:normal;opacity:1;fill:#000000;fill-opacity:1;fill-rule:nonzero;stroke:none;stroke-width:1.16978;stroke-linecap:round;stroke-linejoin:round;stroke-miterlimit:5.6;stroke-dasharray:none;stroke-dashoffset:0;stroke-opacity:1;paint-order:stroke markers fill"
             d="m 1059.9397,1062.4384 v 0.01 c -1.7789,-0.02 -3.5582,-0.04 -5.3371,-0.059 -0.9401,-0.01 -1.8799,-0.014 -2.82,-0.02 -1.1339,0 -2.2679,-0.01 -3.4019,-0.013 -1.2288,0 -2.4578,-4e-4 -3.6866,-0.01 -0.4188,0 -0.8375,4e-4 -1.2562,0.01 -0.363,0 -0.7261,0.013 -1.0889,0.023 -0.2719,0.01 -0.5435,0.017 -0.8154,0.026 -0.2818,0.014 -0.5638,0.029 -0.8454,0.049 -0.2333,0.018 -0.4662,0.038 -0.6992,0.062 l -0.2548,0.031 c 0.02,0.103 0.067,0.1974 0.1189,0.2878 0.028,0.062 0.103,0.029 0.1545,0.036 0.4393,0.01 0.8791,0.014 1.3183,0.024 0.3685,0.01 0.7368,0.018 1.1053,0.029 0.4143,0.012 0.8287,0.025 1.2428,0.041 1.0401,0.038 2.0798,0.076 3.1197,0.1158 0.4934,0.018 0.9871,0.038 1.4806,0.056 0.9209,0.025 1.8417,0.051 2.7626,0.075 0.8481,0.021 1.6964,0.042 2.5445,0.062 0.574,0.01 1.1479,0.019 1.7219,0.027 0.867,0.01 1.7339,0.015 2.6009,0.015 0.7577,0 1.5155,-0.01 2.2732,-0.01 0.286,0 0.5718,-0.01 0.8578,-0.013 0.4297,-0.024 1.567,0.019 1.9966,-0.01 0.2609,-0.2003 0.2049,-0.7196 0.8289,-0.7177 0.6171,0 0.6508,0.4216 0.8746,0.6166 -1.0206,0.1534 1.8173,-0.01 2.1063,-0.02 0.1897,-0.01 0.379,-0.019 0.5684,-0.034 0.5918,-0.043 1.1839,-0.089 1.7757,-0.1334 l 0.016,-0.01 c -0.027,-0.1074 -0.071,-0.2092 -0.1153,-0.3106 -0.015,-0.036 -0.03,-0.072 -0.045,-0.1074 -0.6361,-0.01 -3.496,-0.1021 -4.1321,-0.1111 -0.6382,-0.9717 -1.5263,-1.1101 -2.1553,-0.087 z"
             sodipodi:nodetypes="ccscccccccccccccccccccssccscccccccccc" /><path
             id="path12683"
             style="opacity:1;fill:#ffffff;stroke:#000000;stroke-width:2.02572;stroke-linecap:round;stroke-linejoin:round;stroke-miterlimit:5.6;stroke-dasharray:none;paint-order:stroke markers fill"
             d="m 1063.9793,1026.2999 c -0.1533,0.013 -0.077,0 -0.148,0.013 -0.055,0.017 -0.1235,0.031 -0.1975,0.062 -0.2106,0.086 -0.4056,0.2055 -0.5927,0.3309 -0.2566,0.1717 -0.5008,0.3762 -0.7359,0.5997 0.028,-0.1563 0.066,-0.3075 0.086,-0.4683 0,-3e-4 0.01,-0.069 0.01,-0.069 0,-3e-4 -0.01,-0.058 -0.01,-0.058 0,-2e-4 -0.017,-0.042 -0.017,-0.042 -10e-5,-3e-4 -0.013,-0.02 -0.014,-0.027 -0.017,-0.03 -0.028,-0.039 -0.035,-0.046 -0.018,-0.016 -0.026,-0.023 -0.038,-0.028 -0.021,-0.014 -0.042,-0.024 -0.063,-0.035 -0.026,-0.013 -0.054,-0.022 -0.08,-0.032 -0.021,-0.027 -0.043,-0.056 -0.062,-0.079 -0.016,-0.018 -0.029,-0.034 -0.048,-0.05 -0.012,-0.013 -0.018,-0.018 -0.039,-0.028 -0.012,-0.014 -0.023,-0.014 -0.05,-0.016 h -0.022 c -10e-5,0 -0.029,0.014 -0.029,0.014 -4e-4,10e-5 -0.065,0.051 -0.066,0.051 -0.4837,0.5224 -0.9239,1.1002 -1.358,1.6773 -0.1358,0.1811 -0.2775,0.3616 -0.4137,0.5557 -0.1058,0.1511 -0.1992,0.3072 -0.2936,0.4527 -0.022,0.042 -0.029,0.094 -0.023,0.146 -0.01,0.013 -0.01,0.013 -0.012,0.013 -0.035,0.036 -0.078,0.078 -0.1197,0.1387 -0.02,0.031 -0.043,0.067 -0.057,0.1224 -0.01,0.036 0,0.087 0.013,0.1361 v 0 0.013 c 0.014,0.026 -0.01,0.048 0,0.073 0.013,0.016 0.015,0.03 0.022,0.043 0,0.013 0.017,0.015 0.023,0.022 0.012,0.014 0,0.016 0.014,0.027 0,0 0.012,0.013 0.012,0.013 0.044,0.043 0.1018,0.059 0.1449,0.056 0.043,-0.013 0.076,-0.023 0.1042,-0.042 0.054,-0.039 0.097,-0.086 0.1337,-0.125 0.031,-0.035 0.052,-0.058 0.063,-0.07 0.024,0 0.049,-10e-4 0.072,-0.013 0.1153,-0.1143 0.241,-0.2262 0.3628,-0.3598 0.1547,-0.1693 0.3017,-0.3479 0.446,-0.5255 0.2218,-0.2735 0.4208,-0.5821 0.6294,-0.877 -0.036,0.1689 0.5441,0.6586 0.5896,0.6079 0.073,-0.081 0.1554,-0.1596 0.2407,-0.2461 v 0 c 0.3106,-0.3073 0.6488,-0.5641 0.9957,-0.8017 -0.3359,0.6766 -0.6999,1.3612 -0.9318,2.1578 -0.027,0.094 -0.047,0.1848 -0.067,0.2652 0,0.014 -0.01,0.024 -0.01,0.036 -0.01,0.022 -0.029,0.091 -0.017,0.2151 0.01,0.1197 0.07,0.2519 0.161,0.3011 0.065,0.036 0.122,0.014 0.1782,-0.017 0.02,0.014 0.053,0.014 0.053,0.014 5e-4,-10e-5 0.065,-0.026 0.065,-0.026 4e-4,-2e-4 0.028,-0.027 0.035,-0.039 0.053,-0.083 0.054,-0.1409 0.055,-0.1528 0.2831,-0.7912 0.6546,-1.5259 0.9978,-2.3 0.1318,-0.2999 0.1795,-0.3913 0.2892,-0.6989 0.033,-0.093 0.073,-0.1739 0.086,-0.3024 0.012,-0.1277 -0.022,-0.2696 -0.09,-0.4084 -0.04,-0.079 -0.094,-0.1117 -0.1338,-0.1265 -0.039,-0.015 -0.072,-0.017 -0.1029,-0.017 0,-2e-4 -0.01,-2e-4 -0.01,0 z m 2.9758,0.2484 c -10e-5,0 -0.02,0.014 -0.037,0.018 10e-5,-10e-5 -0.01,-10e-5 -0.01,0 -0.045,0.03 -0.092,0.058 -0.1365,0.087 -0.3153,0.1533 -0.327,0.1484 -0.676,0.3847 -0.3628,0.2458 -0.7044,0.5065 -1.0623,0.6833 0.014,-0.047 0.014,-0.081 0.037,-0.1636 0.057,-0.2018 0.059,-0.2197 0.1064,-0.4074 l -0.01,0.03 c 10e-5,-3e-4 0.018,-0.079 0.018,-0.079 2e-4,-4e-4 -0.011,-0.064 -0.011,-0.064 -2e-4,-6e-4 -0.015,-0.03 -0.016,-0.039 -0.012,-0.013 -0.013,-0.019 -0.014,-0.025 -0.014,-0.026 -0.022,-0.036 -0.029,-0.044 -0.015,-0.017 -0.024,-0.027 -0.038,-0.038 -0.024,-0.023 -0.051,-0.044 -0.079,-0.065 -0.027,-0.02 -0.054,-0.039 -0.081,-0.056 -0.013,-0.013 -0.024,-0.015 -0.044,-0.023 -0.012,-0.013 -0.02,-0.013 -0.042,-0.013 -0.01,-4e-4 -0.011,0 -0.021,0 -0.01,0 -0.029,0.013 -0.029,0.013 -3e-4,2e-4 -0.039,0.022 -0.039,0.022 -2e-4,10e-5 -0.043,0.055 -0.043,0.055 0,0.014 -0.01,0.018 -0.011,0.026 -0.043,0.1224 -0.1317,0.3355 -0.1944,0.5639 -0.063,0.2282 -0.1205,0.4827 -0.024,0.7311 0.055,0.1415 0.1246,0.2085 0.1671,0.2666 -0.1648,0.2902 -0.3201,0.59 -0.4461,0.9043 0,0 0,0.014 0,0.014 0.01,-0.014 -0.023,0.055 -0.043,0.113 -0.01,0.029 -0.021,0.062 -0.029,0.098 -0.01,0.036 -0.02,0.071 -0.013,0.1445 -10e-5,0 0,0.013 0,0.013 0.01,0.1224 0.081,0.1811 0.1218,0.2104 0.025,0.017 0.043,0.021 0.064,0.03 0.012,0.013 0.029,0.03 0.03,0.031 v 0 c -0.01,0 0.012,0.014 0.028,0.034 0.024,0.022 0.081,0.065 0.1479,0.039 0.076,-0.028 0.082,-0.062 0.1,-0.09 0.018,-0.028 0.036,-0.055 0.049,-0.083 0.029,-0.055 0.05,-0.1 0.05,-0.1008 0.2037,-0.4197 0.4059,-0.8453 0.5928,-1.2869 0.2433,-0.093 0.5161,-0.2466 0.6804,-0.3538 0.3215,-0.2092 0.5349,-0.3745 0.8037,-0.6928 0.092,-0.1076 0.1587,-0.2271 0.2236,-0.3204 l 0.01,-0.013 c 0.033,-0.055 0.066,-0.1076 0.098,-0.1625 0.041,-0.067 0.043,-0.1653 0,-0.239 0,0 -0.012,-0.014 -0.014,-0.027 -0.012,-0.014 -0.012,-0.015 -0.015,-0.024 -0.012,-0.013 -0.012,-0.013 -0.017,-0.023 -0.012,-0.013 -0.018,-0.016 -0.024,-0.022 l -0.012,-0.014 c -2e-4,-2e-4 -0.01,0 -0.01,0 0,-10e-5 -0.046,-0.023 -0.046,-0.023 h -0.046 z m -7.0375,2.9433 c 0.017,0.04 0.036,0.074 0.066,0.097 -0.012,-0.013 -0.022,-0.013 -0.03,-0.02 -0.024,-0.031 -0.031,-0.062 -0.035,-0.078 z m -7.2626,1.0001 c 0,-10e-5 -0.01,-10e-5 -0.01,0 -0.026,-5e-4 -0.05,10e-5 -0.071,0 0,-10e-5 -0.01,-10e-5 -0.01,0 -0.1676,0.014 -0.3107,0.074 -0.4382,0.1063 -0.011,0 -0.021,0.013 -0.032,0.013 -0.1391,0.081 -0.2968,0.1498 -0.4521,0.264 -0.5604,0.4132 -1.1199,1.1236 -1.2144,2.0694 -0.021,0.2018 0.012,0.3759 0.017,0.5127 0,0.038 0.012,0.074 0.027,0.1049 0.061,0.1224 0.1121,0.344 0.2672,0.5151 0.383,0.4208 0.8122,0.5245 1.2587,0.5136 0.2431,-0.013 0.4881,-0.048 0.7228,-0.1291 0.034,-0.013 0.068,-0.025 0.1005,-0.04 0.021,0.06 0.033,0.121 0.063,0.1792 0.034,0.07 0.097,0.1049 0.1565,0.088 h 0.011 c 0.01,0 0.01,0 0.011,-0.014 0,0 0.01,0 0.011,-0.013 0.01,0 0.018,-0.014 0.018,-0.014 l 0.012,-0.013 c 0,-2e-4 0.023,-0.023 0.023,-0.023 l 0.01,-0.013 0.01,-0.014 0.019,-0.038 -0.1319,-0.097 0.1404,-0.052 c -0.022,-0.071 -0.013,-0.079 -0.013,-0.02 0,-0.027 0.016,-0.081 0.027,-0.1673 2e-4,0 0,0 0,-0.014 0.085,-0.047 0.1691,-0.094 0.2509,-0.1493 0.2203,-0.1472 0.4021,-0.3425 0.5846,-0.4983 0.01,-0.013 0.017,-0.016 0.025,-0.025 0.1179,-0.1582 0.2097,-0.2767 0.3016,-0.4026 -0.01,0.09 -0.028,0.1757 -0.025,0.2677 0,2e-4 0,0 0,0 0,2e-4 0,0 0,0 0.01,0.2513 0.075,0.532 0.2465,0.724 0,2e-4 -10e-5,-2e-4 0,0 0,2e-4 -2e-4,0 0,0 0.1351,0.1529 0.3065,0.2141 0.4685,0.1971 0.1959,-0.021 0.3726,-0.093 0.538,-0.1482 0.4229,-0.1505 0.8419,-0.3615 1.215,-0.687 0.1192,-0.1062 0.2351,-0.2298 0.3401,-0.3717 -0.026,0.073 -0.055,0.1493 -0.081,0.2188 0,0 -0.01,0.013 -0.01,0.019 -0.021,0.079 -0.079,0.2096 -0.095,0.3812 -0.01,0.086 0,0.1937 0.048,0.2904 0.045,0.097 0.1195,0.1662 0.2071,0.209 0.08,0.039 0.1493,0.013 0.1889,-0.014 0.041,-0.021 0.066,-0.035 0.068,-0.036 0.3059,-0.09 0.1723,-0.055 0.5278,-0.1264 v 0 c 0.8595,-0.091 0.6878,-0.1667 0.998,-0.1 0.068,0 0.095,-0.09 0.1016,-0.1129 -5e-4,0 0.01,-0.022 0.023,-0.062 0.014,-0.04 0.034,-0.1062 0.024,-0.197 -0.01,-0.1144 -0.069,-0.1665 -0.1059,-0.1984 -0.036,-0.032 -0.069,-0.05 -0.1019,-0.066 -0.064,-0.031 -0.116,-0.043 -0.1321,-0.048 -0.3313,-0.085 -0.6476,-0.026 -0.9432,0.028 -10e-5,-3e-4 -0.01,-3e-4 -0.011,0 -0.028,0.014 -0.041,0.014 -0.065,0.02 0.058,-0.1224 0.1145,-0.2463 0.1722,-0.368 0.037,-0.079 0.076,-0.158 0.1138,-0.2366 3e-4,2e-4 0,0 0,0 3e-4,2e-4 0.072,0 0.072,0 l -0.021,0.014 c 0.5383,-0.061 1.0756,-0.1251 1.6132,-0.1925 0.012,0 0.023,-0.013 0.034,-0.013 -0.013,0.013 0.035,-0.014 0.089,-0.038 0.027,-0.016 0.062,-0.043 0.089,-0.098 0.026,-0.05 0.031,-0.1224 0.024,-0.185 0,-0.013 -0.012,-0.013 -0.012,-0.013 0,-0.013 0.01,-0.013 0.01,-0.02 -0.012,-0.07 -0.036,-0.14 -0.069,-0.1817 -0.034,-0.042 -0.066,-0.062 -0.095,-0.077 -0.055,-0.027 -0.1069,-0.039 -0.098,-0.035 -0.014,-0.013 -0.028,-0.013 -0.043,-0.013 -0.4264,-0.014 -0.8482,0.05 -1.2641,0.1398 0.091,-0.193 0.185,-0.3829 0.2696,-0.5844 0.012,0.014 0.021,0.014 0.021,0.014 h 0.025 l 0.012,0.013 c 0.5091,0.066 1.0159,0.057 1.5154,0.026 l 0.01,-0.014 c 0.012,-2e-4 0.038,0 0.069,-0.013 0.01,-5e-4 0.019,-0.014 0.028,-0.014 -0.01,0.014 -0.017,0.032 -0.022,0.042 -0.015,0.03 -0.023,0.065 -0.024,0.1023 -0.01,0.07 -0.044,0.2088 0,0.4001 0.092,0.404 0.3702,0.6277 0.5654,0.7767 0.2581,0.1965 0.542,0.2948 0.8112,0.381 -0.2854,0.1515 -0.5906,0.3293 -0.8408,0.2964 -0.041,-0.013 -0.099,-0.027 -0.1677,-0.046 v 0 c -0.1586,-0.057 -0.3138,-0.1345 -0.4602,-0.2343 v 0 c -0.039,-0.027 -0.096,-0.059 -0.145,-0.09 0,-0.013 -0.013,-0.018 -0.014,-0.024 0,0 -0.012,-0.013 -0.013,-0.017 -0.012,-0.013 -0.012,-0.013 -0.013,-0.02 l -0.019,-0.023 c -0.012,-0.014 -0.012,-0.014 -0.012,-0.014 0,-10e-5 -0.023,-0.017 -0.023,-0.017 -10e-5,-10e-5 -0.052,-0.017 -0.052,-0.017 -10e-5,0 -0.043,0.013 -0.043,0.013 0,0 -0.04,0.023 -0.046,0.027 -5e-4,10e-5 -0.01,0 -0.01,0 -0.023,0.014 -0.046,0.02 -0.078,0.051 -0.046,0.044 -0.1095,0.1537 -0.093,0.2845 -1e-4,0 0,0.013 0,0.013 0.023,0.1355 0.073,0.1825 0.071,0.1792 l 0.012,0.013 c 0.2171,0.4315 0.5918,0.5626 0.8775,0.6714 0.01,0 0.014,0.014 0.022,0.014 0.071,0.013 0.1531,0.038 0.248,0.043 0.4278,0.027 0.8038,-0.2126 1.1336,-0.4169 0.01,0 0.01,-0.014 0.015,-0.014 0.045,-0.038 0.1537,-0.1197 0.2528,-0.2234 0.028,-0.03 0.052,-0.067 0.077,-0.1022 -0.033,0.091 -0.074,0.1806 -0.1054,0.2749 0,0.014 -0.01,0.015 -0.01,0.023 0,0.013 -0.011,0.032 -0.018,0.064 -0.01,0.032 -0.019,0.065 -0.021,0.1305 0.01,0.032 -0.01,0.085 0.035,0.1493 0.031,0.056 0.091,0.079 0.1324,0.083 0.03,0.038 0.059,0.083 0.099,0.086 0.059,0 0.085,-0.027 0.1041,-0.044 0.037,-0.036 0.051,-0.065 0.068,-0.091 0.016,-0.025 0.03,-0.054 0.035,-0.061 0,0 0.01,-0.014 0.01,-0.015 0.1976,-0.402 0.3698,-0.8091 0.544,-1.2174 0.1477,-0.3464 0.3081,-0.6919 0.4548,-1.0515 0.049,-0.1211 0.091,-0.2392 0.1334,-0.3536 0.2182,0 0.4401,-0.014 0.6513,-0.039 0.1083,-0.018 0.2043,-0.048 0.2972,-0.073 -0.1463,0.2963 -0.3975,0.8102 -0.4367,0.8926 -0.069,0.1456 -0.4363,0.9379 -0.5216,1.1398 -0.056,0.1332 -0.1024,0.267 -0.1491,0.3894 0,0 -0.01,0.013 -0.01,0.017 -0.03,0.1035 -0.034,0.1049 -0.05,0.1457 -0.01,0.02 -0.022,0.079 -0.024,0.1171 0,0.039 -9e-4,0.055 0.013,0.079 0,0.017 0.01,0.034 0.01,0.05 0,0 0,0.013 0.013,0.016 0,0.014 0.012,0.014 0.013,0.017 0,0.013 0,0.013 0.014,0.022 0.012,0.014 0.022,0.035 0.022,0.035 10e-5,0 0.043,0.042 0.043,0.042 0,0 0.033,0.013 0.048,0.016 h -0.01 0.013 c 0.018,0.014 0.03,0.014 0.055,0.014 0.033,0.013 0.1,-0.024 0.1245,-0.05 0.049,-0.052 0.04,-0.055 0.1113,-0.1224 0.01,-0.013 0.016,-0.017 0.024,-0.027 0.068,-0.1009 0.1493,-0.2016 0.2242,-0.3311 0.1411,-0.243 0.4602,-0.9132 0.5588,-1.1265 0.1092,-0.2365 0.2429,-0.5598 0.3644,-0.8592 -0.154,0.4105 -0.2846,0.8616 -0.2827,1.3634 -0.01,0.1062 0.017,0.2485 0.038,0.3954 0.024,0.1469 0.066,0.3005 0.1593,0.4242 0.1126,0.1485 0.2368,0.1988 0.3097,0.2581 0.022,0.017 0.048,0.028 0.073,0.03 0.086,0.013 0.1957,0.034 0.3223,0.018 0.5245,-0.067 1.0589,-0.5078 1.3884,-0.9953 0.04,-0.061 0.065,-0.1157 0.097,-0.1758 -0.032,0.083 -0.075,0.1871 -0.091,0.2451 -0.026,0.094 -0.027,0.1593 -0.051,0.3764 0,0.014 -0.01,0.024 -0.01,0.038 0,10e-5 0.014,0.086 0.014,0.086 10e-5,2e-4 0.014,0.027 0.018,0.036 0.013,0.016 0.016,0.023 0.022,0.03 0.012,0.013 0.015,0.015 0.021,0.02 0.012,0.014 0.022,0.015 0.029,0.023 0.012,0.013 0.017,0.013 0.029,0.02 0.012,0.013 0.012,0.013 0.026,0.013 0.01,0 0.01,0 0.015,0.014 0.01,0 0.023,0.013 0.023,0.013 2e-4,0 0.048,-0.013 0.048,-0.013 10e-5,0 0.039,-0.024 0.039,-0.024 10e-5,0 0.039,-0.056 0.039,-0.056 l -0.015,0.03 c 0.2096,-0.3133 0.101,-0.1378 0.3445,-0.5926 0.081,-0.1497 0.1691,-0.3014 0.2511,-0.4696 0.096,-0.1973 0.1773,-0.4014 0.262,-0.6045 0.151,0.4643 0.3047,0.928 0.4693,1.3917 -10e-5,0 0,0.014 0,0.014 0.031,0.079 0.046,0.1502 0.1012,0.2364 0.028,0.043 0.073,0.086 0.1206,0.1036 0.028,0.014 0.054,0.014 0.081,0.014 0.035,0.017 0.067,0.032 0.1006,0.046 0.017,0.013 0.039,0.013 0.071,0.013 0.032,-0.013 0.072,-0.032 0.093,-0.071 0.045,-0.074 0.035,-0.1291 0.033,-0.1588 0,-0.015 -0.013,-0.019 -0.015,-0.03 0.01,-0.023 0.01,-0.05 0.01,-0.062 0,-0.038 0.01,-0.053 -0.01,0 10e-5,0 0,-0.014 0,-0.014 0.015,-0.098 0.019,-0.117 0.023,-0.1291 0.01,-0.014 0.025,-0.058 0.054,-0.1291 0.2211,-0.3531 0.5031,-0.6611 0.7635,-1.0204 0.2333,-0.322 0.2894,-0.4248 0.4955,-0.7563 0.01,-0.014 0.013,-0.023 0.018,-0.036 0.01,-0.016 0.085,-0.1492 0.1571,-0.2821 0.072,-0.1331 0.1594,-0.2801 0.1375,-0.5006 -0.01,-0.046 -0.017,-0.1008 -0.047,-0.1482 -0.029,-0.048 -0.075,-0.078 -0.1108,-0.089 h -0.011 c -0.034,-0.044 -0.069,-0.1 -0.1259,-0.1036 0,-10e-5 -0.01,-10e-5 -0.01,0 -0.011,-7e-4 -0.019,0 -0.018,0 -0.01,-9e-4 -0.016,-9e-4 -0.023,0 -0.082,0.017 -0.1315,0.079 -0.1522,0.1022 -0.1231,0.1291 -0.275,0.3626 -0.3461,0.4636 -0.2504,0.3574 -0.4979,0.7168 -0.7482,1.0705 -0.1486,0.2098 -0.2322,0.31 -0.3646,0.528 -0.1663,-0.5265 -0.3568,-1.0548 -0.6024,-1.5771 -10e-5,-3e-4 -0.027,-0.051 -0.027,-0.051 -2e-4,-3e-4 -0.016,-0.021 -0.024,-0.028 -0.013,-0.014 -0.022,-0.02 -0.03,-0.024 -0.015,-0.013 -0.024,-0.013 -0.033,-0.015 -0.017,-0.014 -0.03,-0.014 -0.044,-0.014 -0.028,-0.013 -0.058,-0.013 -0.088,-0.013 h -0.085 c -0.014,0 -0.025,0 -0.046,0.013 -0.01,0 -0.02,0.014 -0.046,0.022 -0.01,0.014 -0.012,0.014 -0.019,0.017 -0.01,0.014 -0.027,0.036 -0.027,0.036 -10e-5,3e-4 -0.023,0.067 -0.024,0.067 -10e-5,2e-4 -0.01,0.09 -0.01,0.09 0,0.013 0.014,0.027 0.01,0.039 0.018,0.05 0.034,0.1 0.051,0.1482 -0.083,0.1451 -0.1141,0.1972 -0.2633,0.5044 -0.061,0.125 -0.1242,0.2575 -0.1857,0.3928 0.053,-0.2379 0.076,-0.4924 0,-0.7681 -0.081,-0.3006 -0.2548,-0.5359 -0.4434,-0.6858 -0.1117,-0.089 -0.2152,-0.1076 -0.2818,-0.1397 -0.012,-0.014 -0.024,-0.014 -0.036,-0.014 -0.1475,-0.02 -0.1999,-0.035 -0.2713,-0.035 -0.072,-3e-4 -0.1304,0.019 -0.2716,0.058 -0.06,0.017 -0.1324,0.032 -0.2096,0.071 -0.061,0.031 -0.1005,0.071 -0.1284,0.093 l 0.078,-0.027 c -0.2539,-0.014 -0.4486,0.2025 -0.5725,0.374 -0.072,0.1009 -0.1204,0.2005 -0.1701,0.2939 0.01,-0.021 0.02,-0.044 0.026,-0.065 0.047,-0.1277 0.08,-0.2521 0.1159,-0.3666 0,-10e-5 0.015,-0.073 0.015,-0.073 v -0.061 c -10e-5,-2e-4 -0.01,-0.039 -0.01,-0.039 0,-2e-4 -0.013,-0.02 -0.014,-0.025 -0.014,-0.027 -0.021,-0.038 -0.027,-0.044 -0.014,-0.017 -0.021,-0.026 -0.03,-0.035 -0.019,-0.017 -0.037,-0.034 -0.056,-0.05 -0.18,-0.062 -0.2339,-0.098 -0.2783,-0.014 -0.039,0.073 -0.083,0.1488 -0.1258,0.2258 0,-0.017 -0.01,-0.035 -0.01,-0.055 0,-0.014 -0.013,-0.02 -0.01,-0.039 -0.012,-0.014 -0.013,-0.02 -0.018,-0.043 -0.012,-0.014 -0.014,-0.022 -0.014,-0.022 -10e-5,-1e-4 -0.024,-0.028 -0.024,-0.028 0,0 -0.046,-0.028 -0.047,-0.028 -10e-5,0 -0.066,-0.013 -0.066,-0.013 h 0.043 c -0.1117,-0.02 -0.2316,-0.051 -0.3606,-0.063 -0.1598,-0.015 -0.3153,-0.014 -0.4655,-0.016 -0.3222,-0.013 -0.6411,0 -0.9586,0 -0.117,0 -0.232,0 -0.3456,-0.013 -0.05,-0.014 -0.1061,-0.017 -0.168,-0.027 -0.01,0 -0.015,0.013 -0.022,0.013 l 0.01,-0.013 c -2e-4,0 -0.057,0.015 -0.058,0.015 -10e-5,10e-5 -0.02,0.016 -0.029,0.023 0,0 -0.01,0.013 -0.013,0.015 -0.01,0.013 -0.015,0.017 -0.015,0.017 0,3e-4 -0.01,0.016 -0.01,0.023 -0.01,0.026 -0.013,0.039 -0.015,0.05 -0.01,0.023 -0.01,0.034 -0.01,0.048 -0.01,0.025 -0.01,0.052 -0.01,0.079 v 0.079 c 0,0.013 0,0.026 0,0.043 0,0.014 0,0.015 0.014,0.024 5e-4,0 0,0.014 0,0.014 4e-4,0 0,0 0,0.013 0,0.014 0.013,0.019 0.015,0.032 0.012,0.014 0.014,0.023 0.014,0.023 3e-4,10e-5 0.02,0.031 0.019,0.032 0.018,0.024 0.041,0.042 0.066,0.052 0.268,0.1063 0.5383,0.1408 0.8036,0.1601 -0.1821,0.3441 -0.3315,0.675 -0.4857,1.0346 -0.097,0.2253 -0.1762,0.4596 -0.2636,0.6895 0,-0.02 0.013,-0.028 0.012,-0.05 -0.01,-0.2258 -0.1253,-0.4003 -0.2391,-0.4791 -0.1137,-0.079 -0.2278,-0.1049 -0.3014,-0.1331 -0.3076,-0.113 -0.6061,-0.224 -0.888,-0.3885 -0.047,-0.027 -0.113,-0.067 -0.1699,-0.1116 -0.057,-0.044 -0.1028,-0.1009 -0.1102,-0.1157 0.012,0.014 0,-0.02 0,-0.016 0.023,-0.048 0.048,-0.1036 0.055,-0.113 0.047,-0.054 0.1106,-0.098 0.1832,-0.1411 0.2436,-0.1449 0.5063,-0.1423 0.8005,-0.1022 l -0.037,-0.013 c 3e-4,1e-4 0.063,0.013 0.063,0.013 10e-5,0 0.048,-0.015 0.048,-0.015 3e-4,0 0.021,-0.015 0.028,-0.023 0.01,-0.014 0.014,-0.014 0.018,-0.02 0.016,-0.023 0.021,-0.036 0.025,-0.046 0.01,-0.023 0.013,-0.036 0.018,-0.053 0.01,-0.032 0.018,-0.069 0.024,-0.1062 0.01,-0.038 0.013,-0.071 0.017,-0.1063 0.01,-0.017 0.01,-0.032 0.01,-0.058 0,-0.013 0.01,-0.026 4e-4,-0.058 0,-0.013 -0.013,-0.016 -0.014,-0.027 -0.012,-0.013 -0.016,-0.039 -0.016,-0.039 -2e-4,-4e-4 -0.031,-0.05 -0.031,-0.05 -2e-4,-2e-4 -0.047,-0.035 -0.053,-0.039 -3e-4,-4e-4 -0.01,0 -0.01,0 -0.01,0 -0.015,-0.014 -0.023,-0.014 -0.1619,-0.075 -0.3232,-0.1224 -0.4826,-0.1251 v 0 c -0.2199,-0.013 -0.4341,0.063 -0.6409,0.196 -0.076,0.05 -0.1603,0.1184 -0.2391,0.2019 -0.012,-0.014 -0.012,-0.015 -0.014,-0.023 0.01,-0.02 0.014,-0.027 0.014,-0.051 1e-4,0 0,-0.013 0,-0.013 -0.011,-0.065 -0.038,-0.1318 -0.069,-0.1649 -0.032,-0.034 -0.059,-0.044 -0.082,-0.053 -0.046,-0.015 -0.079,-0.015 -0.1079,-0.015 -0.029,-2e-4 -0.053,0 -0.059,0 -0.01,0 -0.012,-0.013 -0.018,-0.013 -0.2497,-0.015 -0.5001,-0.024 -0.7519,-0.023 v 0 c -0.2529,0 -0.5051,0.015 -0.7566,0.048 h 0.014 c -10e-5,0 -0.064,0.019 -0.064,0.019 -2e-4,1e-4 -0.042,0.039 -0.042,0.039 -10e-5,2e-4 -0.02,0.039 -0.02,0.039 -1e-4,2e-4 -0.01,0.02 -0.01,0.027 -0.01,0.016 -0.01,0.02 -0.01,0.028 -0.012,-0.013 -0.012,-0.013 -0.013,-0.016 -0.012,-0.014 -0.019,-0.023 -0.031,-0.038 -0.012,-0.013 -0.013,-0.013 -0.025,-0.022 h -0.01 c -4e-4,-4e-4 0,0 0,0 -0.012,-0.014 -0.014,-0.014 -0.026,-0.015 -0.01,0 -0.015,-0.014 -0.024,-0.014 h -0.037 c -0.031,0 -0.06,0.02 -0.082,0.046 -0.2601,0.283 -0.4518,0.6583 -0.6444,1.0216 -0.071,0.1358 -0.1317,0.2869 -0.1996,0.4313 0.051,-0.2236 0.082,-0.4609 0.033,-0.7109 -0.044,-0.2069 -0.1407,-0.4265 -0.3217,-0.5185 -0.1493,-0.086 -0.2989,-0.05 -0.4184,0.024 -0.04,0.016 -0.076,0.034 -0.1142,0.096 -0.021,0.032 -0.044,0.085 -0.044,0.1555 -0.01,0.071 0.034,0.1448 0.061,0.1863 0,0 0.012,0.013 0.012,0.015 0.06,0.062 0.1403,0.067 0.1878,0.051 0.029,-0.014 0.043,-0.024 0.061,-0.039 0.01,0 0.046,0.034 0.045,0.042 0,0.013 0,0.019 0,0.027 0.016,0.1925 -0.05,0.3968 -0.1486,0.5711 -0.1606,0.2759 -0.3913,0.4829 -0.639,0.6619 -3e-4,2e-4 0,-2e-4 0,0 -5e-4,2e-4 0,0 0,0 -0.3845,0.2671 -0.8093,0.4466 -1.2371,0.6429 0.025,-0.3742 0.1411,-0.7348 0.2876,-1.0765 0.1456,-0.3414 0.3351,-0.6581 0.5192,-0.9941 0.018,-0.035 0.027,-0.078 0.025,-0.1224 -0.01,-0.1855 -0.1055,-0.2988 -0.2162,-0.3548 -0.012,-0.013 -0.017,-0.013 -0.026,-0.017 -0.012,-0.013 -0.02,-0.019 -0.031,-0.022 l 0.014,0.022 c -0.036,-0.02 -0.076,-0.02 -0.1126,0 l -0.01,0.014 c 0,0 -0.01,0.013 -0.012,0.013 -0.2061,0.1992 -0.3996,0.4358 -0.5734,0.7014 -3e-4,4e-4 0,0 0,0 v -0.013 c -0.01,-0.185 -0.042,-0.3859 -0.1347,-0.5591 -0.1262,-0.2366 -0.2498,-0.3766 -0.3832,-0.4541 -0.1336,-0.078 -0.2574,-0.097 -0.4172,-0.1505 -0.012,-0.013 -0.024,-0.013 -0.037,-0.013 -0.093,0 -0.2189,-0.039 -0.3673,-0.014 -0.082,0.017 -0.1497,0.067 -0.2197,0.113 -0.1783,-0.1381 -0.3762,-0.2307 -0.5864,-0.2352 z m 19.5724,0.032 c -0.1815,0.013 -0.3801,0.073 -0.5814,0.215 -0.1151,0.082 -0.2058,0.1943 -0.2871,0.2713 -0.014,0.014 -0.025,0.03 -0.035,0.048 -0.054,0.1076 -0.1471,0.2327 -0.2038,0.4074 -0.1332,0.4092 -0.036,0.7766 0.041,0.988 0.096,0.2853 0.2503,0.479 0.4085,0.6502 -0.2149,0.02 -0.5183,0.046 -0.583,0.051 -0.1414,0.013 -0.5476,0.013 -0.7552,0.043 -0.1031,0.02 -0.1959,0.065 -0.2733,0.09 l 0.032,-0.013 c -2e-4,0 -0.057,0.016 -0.057,0.016 l -0.027,0.02 c 0,10e-5 -0.017,0.019 -0.021,0.024 -0.01,0.013 -0.01,0.017 -0.014,0.023 -0.01,0.013 -0.01,0.019 -0.012,0.027 -0.01,0.015 -0.014,0.031 -0.019,0.046 -0.01,0.016 -0.013,0.032 -0.017,0.048 -0.01,0.014 -0.01,0.015 -0.01,0.032 0,0.013 -0.01,0.042 -0.01,0.043 v 0.03 c 0,2e-4 0.01,0.057 0.01,0.057 10e-5,0 0.017,0.043 0.017,0.043 1e-4,10e-5 0.034,0.051 0.034,0.051 h 0.01 v 0 c 0.035,0.036 0.088,0.1381 0.2052,0.2018 0.2613,0.1427 0.5214,0.1063 0.7806,0.1103 0.01,3e-4 0.01,3e-4 0.016,0 0.3374,-0.042 0.5188,-0.042 0.8936,-0.177 0.081,-0.03 0.2228,-0.04 0.3599,-0.1827 0.1132,-0.1171 0.188,-0.2182 0.236,-0.3262 0.047,-0.1076 0.065,-0.2394 0.039,-0.3489 -0.052,-0.2187 -0.1845,-0.294 -0.2165,-0.3333 -10e-5,-10e-5 -0.01,-10e-5 -0.01,0 -0.201,-0.2355 -0.3846,-0.4687 -0.5351,-0.7455 -0.039,-0.071 -0.064,-0.1143 -0.074,-0.1446 -0.015,-0.03 -0.019,-0.055 0,-0.1344 10e-5,5e-4 0.022,-0.061 0.04,-0.1103 0.057,-0.056 0.1122,-0.1157 0.1422,-0.1349 0.2526,-0.1644 0.4304,-0.1049 0.6473,-0.056 0.061,0.015 0.1125,0.023 0.1488,0.039 0.01,0 0.024,0.015 0.066,0.042 l -0.043,-0.039 c 0,10e-5 0.05,0.043 0.05,0.043 l 0.045,0.015 c 10e-5,10e-5 0.055,-0.013 0.055,-0.013 4e-4,-2e-4 0.019,-0.014 0.024,-0.014 0.01,-0.013 0.01,-0.013 0.013,-0.013 0.014,-0.014 0.018,-0.019 0.022,-0.023 0.01,-0.014 0.017,-0.02 0.025,-0.032 0.016,-0.022 0.032,-0.048 0.05,-0.074 0.017,-0.027 0.032,-0.052 0.047,-0.077 0.01,-0.014 0.012,-0.022 0.019,-0.036 0.01,-0.014 0.01,-0.015 0.014,-0.032 0,-0.014 0.01,-0.014 0.01,-0.016 0,-0.013 0.01,-0.031 0.01,-0.031 0,-4e-4 0.01,-0.064 0.01,-0.064 10e-5,-2e-4 -0.01,-0.057 -0.01,-0.057 10e-5,-2e-4 -0.035,-0.065 -0.035,-0.065 l 0.027,0.043 c -0.013,-0.015 -0.024,-0.088 -0.088,-0.1686 -0.151,-0.1837 -0.3646,-0.2827 -0.6008,-0.2758 z m -12.0286,0.344 c -0.1767,-0.2087 0.5972,0.5741 0.066,0.04 -0.019,-0.02 -0.042,-0.034 -0.066,-0.04 z m 0.091,0.071 c 0.027,0.036 0.034,0.091 0.032,0.1049 0,-0.038 -0.012,-0.073 -0.032,-0.1049 z m 0.032,0.1291 c -0.01,0.066 0.016,0.038 -0.022,0.097 l 0.012,0.013 0.021,0.035 c 0,0 0,0.013 0.012,0.013 -0.012,-0.013 -0.022,-0.025 -0.035,-0.036 0,0.014 -0.01,0.014 -0.01,0.014 0,0 0.01,-0.014 0.01,-0.015 -0.016,-0.027 -0.038,-0.048 -0.061,-0.062 0,-4e-4 0,0 0.012,0.014 0.01,0 0.017,0.013 0.016,0.013 0,0 0.016,0.013 0.016,0.013 0,0 0.012,0.013 0.021,0.022 0.015,-0.027 0.024,-0.058 0.027,-0.091 z m 0.019,0.1875 c 0.016,0.038 -0.014,0.1574 0,0.1211 0.013,-0.039 0.014,-0.081 0,-0.1211 z m -7.4808,0.044 c 0.01,0 0.068,0.031 0.1285,0.073 0.06,0.04 0.1208,0.089 0.1684,0.1224 0.044,0.031 0.066,0.042 0.063,0.039 0.012,0.014 0.026,0.035 0.061,0.078 l -0.034,-0.059 c 10e-5,3e-4 0.039,0.067 0.039,0.067 10e-5,3e-4 0.041,0.032 0.043,0.034 3e-4,2e-4 0.023,0.014 0.032,0.014 0.01,0 0.015,0.013 0.021,0.013 0.024,0 0.034,-0.013 0.044,-0.013 0.018,-0.014 0.03,-0.014 0.041,-0.016 0.024,-0.013 0.05,-0.027 0.074,-0.043 0.024,-0.016 0.049,-0.034 0.071,-0.053 0.011,-0.013 0.02,-0.017 0.035,-0.034 0.01,-0.013 0.016,-0.016 0.028,-0.042 0.01,-0.013 0.01,-0.015 0.01,-0.024 0.01,-0.013 0.011,-0.039 0.011,-0.039 3e-4,-4e-4 0.01,-0.062 0.01,-0.062 0,0 0,-0.013 -0.012,-0.015 0.021,0.014 0.061,0.014 0.073,0.015 0.086,0.049 0.1709,0.094 0.2515,0.1422 0.075,0.044 0.1034,0.063 0.089,0.042 0.075,0.1076 0.074,0.214 0.037,0.3704 -0.036,0.1564 -0.123,0.3291 -0.1962,0.4492 -0.096,0.1562 -0.2245,0.2985 -0.3514,0.4647 -0.088,0.073 -0.1672,0.1349 -0.249,0.2055 0.01,-0.027 0.01,-0.056 0.01,-0.085 l -0.012,0.052 c 0,-10e-5 0.014,-0.079 0.014,-0.079 -10e-5,-3e-4 -0.01,-0.062 -0.012,-0.063 -10e-5,-6e-4 -0.015,-0.03 -0.016,-0.039 -0.012,-0.013 -0.013,-0.019 -0.014,-0.025 -0.014,-0.027 -0.022,-0.038 -0.03,-0.044 -0.016,-0.018 -0.026,-0.027 -0.039,-0.039 -0.025,-0.022 -0.054,-0.043 -0.083,-0.063 -0.029,-0.02 -0.058,-0.04 -0.085,-0.055 -0.014,-0.014 -0.026,-0.015 -0.048,-0.022 -0.012,-0.013 -0.021,-0.013 -0.044,-0.013 -0.01,-2e-4 -0.013,0 -0.021,0 -0.01,0 -0.03,0.013 -0.03,0.013 -3e-4,3e-4 -0.04,0.03 -0.04,0.03 -2e-4,2e-4 -0.039,0.065 -0.039,0.065 0,0.013 -0.01,0.015 -0.01,0.023 -0.061,0.2408 -0.1,0.495 -0.1239,0.7552 -0.2547,0.1305 -0.5036,0.2127 -0.8066,0.2401 -0.05,0.014 -0.213,0 -0.3718,-0.016 -0.1588,-0.019 -0.33,-0.066 -0.3769,-0.097 -0.024,-0.015 -0.073,-0.083 -0.122,-0.1446 -0.014,-0.087 -0.017,-0.179 -0.016,-0.2185 0.031,-0.2841 0.1515,-0.5629 0.2947,-0.8066 0.2651,-0.4511 0.591,-0.7377 0.9959,-0.963 0.1954,-0.073 0.3655,-0.1589 0.5152,-0.1291 z m 13.6182,0.091 c 0.09,0.021 0.1739,0.034 0.2748,0.066 0.047,0.024 0.099,0.047 0.1481,0.074 0.054,0.031 0.1006,0.07 0.1104,0.081 0.1306,0.1688 0.1393,0.3278 0.076,0.5688 -0.021,0.085 -0.069,0.1829 -0.1135,0.301 -0.071,0.1264 -0.13,0.2467 -0.1947,0.3405 -0.244,0.3554 -0.7196,0.7551 -1.0681,0.8281 -0.044,0.014 -0.1159,-0.013 -0.2095,0.014 h 0.028 c -0.028,-0.014 -0.035,0 -0.049,0 -0.012,-0.015 -0.02,-0.042 -0.03,-0.1049 -0.013,-0.078 -0.015,-0.1719 -0.016,-0.2186 0.01,-0.4031 0.1278,-0.803 0.2569,-1.2009 0.1131,-0.2343 0.2083,-0.4532 0.3424,-0.5138 h 0.027 c 0.012,0.014 0.012,0.014 0.022,0.032 l -0.016,-0.032 c 0.013,0.02 0.022,0.039 0.022,0.039 2e-4,0 0.039,0.034 0.039,0.035 2e-4,10e-5 0.021,0.014 0.028,0.015 0.01,0 0.015,0.014 0.021,0.014 0.023,0.013 0.033,4e-4 0.043,0 0.018,-0.014 0.029,-0.014 0.039,-0.014 0.022,-0.013 0.045,-0.019 0.067,-0.03 0.022,-0.013 0.043,-0.024 0.064,-0.039 0.011,-0.013 0.02,-0.013 0.034,-0.027 0.01,-0.013 0.016,-0.013 0.03,-0.038 0.01,-0.014 0.01,-0.014 0.011,-0.023 0.01,-0.014 0.014,-0.039 0.014,-0.039 2e-4,-3e-4 0.01,-0.062 0.01,-0.062 10e-5,-10e-5 -0.014,-0.027 -0.01,-0.051 z m -6.1639,0.04 c -0.017,0.042 -0.1189,0.078 -0.084,0.07 0.034,-0.013 0.064,-0.034 0.084,-0.07 z m 3.4775,0.056 v 0 l -0.01,0.013 z m 2.2618,0.1 c 10e-5,0 0.012,0.014 0.012,0.014 -5e-4,-3e-4 -10e-5,2e-4 0,0 z m -11.1074,2.0482 c -0.01,0 -0.01,0.014 -0.016,0.014 10e-5,0 0,0 0,0 z"
             sodipodi:nodetypes="cccscsccccccccccccsccsscccccsccccssscccccsscsssccccccccccccssccsccccccscsccccccccscccscccccccccccccscssccscccssscscccccscccccccccccscsccsscscccccscccccccccccsccsccsccssccccccccccccssscccccccccssccccccccccccccccccccccccccsccssssccccsccccscccccccccccccccsccccccscssccccccccccccscccccccssssscccsscsccscsccccccscccccccscccscccccccsccccsscsccccscccccscscccccssccccscccscccccsccccsccscscccccccsccccsccccsccccscsccccscsscscccccsccscssccccccccccscccsccccsccsscccscsssccsscccccccccccccscccccccccsccccccssccccccccccccscsccccccccccscccccccccccscccsssccccssscsscsccssccscccccccccccccccscccccccccsccccccccccccscsccccccccssccccsssccsccccccccsccscccccsccccsccssccccccccccscccccccccsccccscccccccsccccccccccccccsccccccccccscc" /><path
             id="path12684"
             style="font-variation-settings:normal;opacity:1;fill:#ffffff;fill-opacity:1;fill-rule:nonzero;stroke:#000000;stroke-width:2.02572;stroke-linecap:round;stroke-linejoin:round;stroke-miterlimit:5.6;stroke-dasharray:none;stroke-dashoffset:0;stroke-opacity:1;paint-order:stroke markers fill"
             d="m 1047.9967,1037.2533 c -0.067,0 -0.1409,-10e-5 -0.2098,0.014 -0.037,0 -0.071,0.013 -0.1019,0.015 -0.015,0 -0.029,0.013 -0.045,0.016 -0.01,0 -0.017,0.014 -0.029,0.017 -0.01,0 -0.013,0.013 -0.022,0.019 0,0 -0.015,0.017 -0.016,0.017 -2e-4,4e-4 -0.016,0.028 -0.016,0.03 -0.073,0.151 -0.2966,0.6094 -0.3382,0.6964 -0.097,0.207 -0.1882,0.4086 -0.2833,0.6116 -0.3765,0.7997 -0.545,1.0987 -0.8911,1.9544 -0.1777,0.4421 -0.3282,0.877 -0.4902,1.308 a 0.20599117,0.15067827 79.243501 0 0 0,0.014 c -0.3383,1.0415 -0.6721,2.0912 -0.8728,3.1123 -0.033,0.1691 -0.059,0.341 -0.073,0.5102 0,0 -0.012,0.054 -0.02,0.1223 -0.01,0.035 -0.01,0.078 0.013,0.1446 0.011,0.066 0.07,0.1535 0.1246,0.1842 a 0.20599117,0.15067827 79.243501 0 0 0.01,0 c 0.1024,0.051 0.1969,0.052 0.2898,0.052 0.093,-4e-4 0.1844,0 0.2537,0 a 0.20599117,0.15067827 79.243501 0 0 0.1082,-0.058 c 0.08,-0.1157 0.1815,-0.2386 0.2639,-0.3836 0.142,-0.2492 0.1789,-0.4655 0.2808,-0.6541 0.124,-0.2235 0.3838,-0.5843 0.5688,-0.7881 0.1678,-0.1845 0.3594,-0.3567 0.5467,-0.5435 v 0 c 1.6666,-1.54 3.436,-2.9506 5.1637,-4.4231 0.102,-0.093 0.2194,-0.1865 0.3275,-0.2996 0.042,-0.044 0.075,-0.1022 0.087,-0.1842 0.01,-0.028 -0.019,-0.053 -0.013,-0.081 0.013,-0.055 0.025,-0.1103 0.022,-0.1731 0,-0.077 -0.028,-0.168 -0.073,-0.2447 -0.053,-0.077 -0.132,-0.117 -0.1981,-0.121 -0.066,0 -0.1258,0.015 -0.1926,0.05 -0.1358,0.07 -0.2545,0.1653 -0.3679,0.2391 a 0.20599117,0.15067827 79.243501 0 0 -0.01,0 c -0.2089,0.1524 -0.4235,0.2984 -0.6355,0.4594 -0.6585,0.5001 -1.2722,1.004 -1.9096,1.5423 -0.5408,0.4566 -1.4548,1.2472 -1.9875,1.741 -0.2788,0.2584 -0.5449,0.5262 -0.8152,0.786 a 0.20599117,0.15067827 79.243501 0 0 -0.01,0 c -0.023,0.026 -0.047,0.051 -0.071,0.077 0.096,-0.3013 0.1925,-0.6015 0.2885,-0.9036 v 0 c 0.3618,-1.1192 0.3911,-1.2458 0.7874,-2.322 v 0 c 0.013,-0.031 0.039,-0.1 0.087,-0.226 0.05,-0.1291 0.1157,-0.2965 0.182,-0.4698 0.1327,-0.3466 0.2635,-0.6934 0.2969,-0.7909 0.1168,-0.3427 0.1372,-0.4624 0.1946,-0.7305 0,-1e-4 0,-0.013 0,-0.013 0,-0.019 0.011,-0.065 0.011,-0.066 10e-5,-7e-4 -0.017,-0.1049 -0.017,-0.1049 -10e-5,-7e-4 -0.043,-0.073 -0.043,-0.074 -5e-4,-5e-4 -0.026,-0.027 -0.036,-0.034 -0.012,-0.014 -0.018,-0.014 -0.025,-0.014 -0.013,0 -0.023,-0.013 -0.031,-0.013 -0.026,0 -0.042,-0.013 -0.057,-0.013 z m 20.3008,0.6346 c 0.01,-0.021 0.012,-0.024 -0.077,0.079 a 0.20599117,0.15067827 79.243501 0 0 -0.021,0 c -0.027,0.015 -0.06,0.028 -0.096,0.047 -0.6778,0.3731 -1.3538,0.7803 -2.0239,1.1899 -0.01,0 -0.02,0.013 -0.02,0.013 -6e-4,4e-4 -0.014,0.016 -0.02,0.024 -0.011,0.015 -0.017,0.027 -0.022,0.039 -0.01,0.023 -0.013,0.04 -0.016,0.055 -0.01,0.031 -0.01,0.052 -0.01,0.075 -0.01,0.046 0,0.089 0,0.1345 0.01,0.046 0,0.089 0.022,0.1369 0,0.024 0.018,0.05 0.032,0.091 0,0.013 0.013,0.02 0.021,0.034 0.012,0.013 0.038,0.044 0.039,0.044 8e-4,8e-4 0.066,0.035 0.067,0.035 9e-4,2e-4 0.069,-0.013 0.07,-0.013 0.2406,-0.1103 0.4843,-0.2438 0.7264,-0.3649 -0.9734,1.3737 -1.9443,2.7481 -2.9665,4.1055 -0.2614,0.3743 -0.5652,0.7483 -0.8264,1.1426 -0.7975,0.058 -1.6154,0.1489 -2.4818,0.3496 a 0.20599117,0.15067827 79.243501 0 0 -0.038,0.019 c -6e-4,4e-4 -0.027,0.022 -0.032,0.03 -0.01,0.014 -0.01,0.014 -0.012,0.015 -0.01,0.014 -0.011,0.019 -0.016,0.027 -0.01,0.016 -0.018,0.032 -0.025,0.05 -0.017,0.036 -0.033,0.081 -0.051,0.1237 -0.017,0.043 -0.034,0.086 -0.046,0.1224 -0.01,0.019 -0.012,0.032 -0.017,0.058 0,0 0,0.013 -0.01,0.024 0,0.014 -0.01,0.046 -0.01,0.047 -10e-5,6e-4 0.01,0.05 0.01,0.05 10e-5,4e-4 0.034,0.086 0.034,0.087 10e-5,10e-5 0.039,0.047 0.039,0.047 1e-4,0 0.05,0.031 0.05,0.031 2e-4,10e-5 0.072,0 0.072,0 h -0.029 c 0.6822,0 1.392,-0.064 2.0727,-0.083 0.2326,-0.013 0.4631,-0.013 0.6959,-0.013 0.796,0.043 1.6361,-0.014 2.3415,0.1318 10e-5,0 7e-4,0 0,0 0.05,0.044 0.1272,0.051 0.1727,0.031 0.1743,-0.077 0.2747,-0.1345 0.3278,-0.2731 0.027,-0.07 0.026,-0.1493 0.022,-0.1995 -0.01,-0.05 0,-0.081 -0.01,-0.1009 a 0.20599117,0.15067827 79.243501 0 0 -0.074,-0.1709 c -0.2009,-0.1902 -0.4395,-0.2545 -0.6715,-0.3072 -0.4006,-0.091 -0.8305,-0.1197 -1.2693,-0.1318 0.1495,-0.187 0.3005,-0.3762 0.4497,-0.5594 1.1668,-1.5277 2.2874,-3.0901 3.2771,-4.6649 0.4432,-0.7118 0.1878,-0.2772 0.4928,-0.8327 a 0.20599117,0.15067827 79.243501 0 0 0.01,-0.016 c 0,0 0,0 0,0 0.021,-0.013 0.039,-0.023 0.06,-0.042 0.014,-0.014 0.029,-0.026 0.046,-0.053 0.01,-0.013 0.019,-0.031 0.028,-0.06 0.01,-0.015 0.01,-0.034 0.01,-0.055 0,-0.022 0,-0.07 0,-0.071 a 0.20599117,0.15067827 79.243501 0 0 0,-0.014 c 0,-0.013 0,-0.085 -0.028,-0.1709 -0.017,-0.043 -0.026,-0.095 -0.066,-0.1523 -0.012,-0.013 -0.024,-0.013 -0.033,-0.019 0,-0.014 -0.014,-0.026 -0.014,-0.026 -4e-4,-6e-4 -0.042,-0.052 -0.042,-0.052 -6e-4,-6e-4 -0.042,-0.028 -0.042,-0.03 -6e-4,-3e-4 -0.022,-0.014 -0.031,-0.014 -0.01,0 -0.013,0 -0.017,0 a 0.20599117,0.15067827 79.243501 0 0 -0.01,0 c -0.054,0.031 -0.035,-0.013 -0.025,-0.031 z m -8.9823,0.2641 a 0.20599117,0.15067827 79.243501 0 0 -0.09,0.044 c -1.0144,1.1731 -2.9036,3.4532 -3.8068,4.6837 -0.2285,0.3109 -0.4374,0.6217 -0.6538,0.93 a 0.20599117,0.15067827 79.243501 0 0 -0.01,0.014 c -0.1608,0.2607 -0.4759,0.7113 -0.6899,1.1453 -0.107,0.2171 -0.1929,0.4268 -0.2158,0.6464 -0.012,0.1103 0,0.2311 0.043,0.3469 0.046,0.1156 0.13,0.2051 0.2229,0.2543 0.1737,0.091 0.327,0.03 0.4964,-0.023 0.169,-0.054 0.3406,-0.1277 0.4502,-0.1702 a 0.20599117,0.15067827 79.243501 0 0 0.018,-0.014 c 0.9486,-0.5848 1.4018,-0.7381 2.529,-0.8173 0.1116,0 0.1142,-0.014 0.1415,-0.014 a 0.20599117,0.15067827 79.243501 0 0 0.014,0.014 c 0.044,0 0.1012,0.013 0.1768,0.013 0.1288,0.014 0.2723,0.036 0.4264,-0.017 0.1558,-0.055 0.3011,-0.2095 0.4124,-0.4941 v 0 c 0.019,-0.048 0.031,-0.1224 0.014,-0.1946 -0.012,-0.074 -0.053,-0.1237 -0.079,-0.1523 -0.052,-0.056 -0.09,-0.067 -0.1045,-0.075 v 0 c -0.1258,-0.077 -0.2614,-0.094 -0.4021,-0.1076 -0.1415,-0.015 -0.2832,-0.019 -0.3734,-0.027 h 0.01 c -0.7806,-0.1318 -1.3706,0.2905 -1.9926,0.5595 -0.1587,0.063 -0.6984,0.3348 -0.8662,0.4178 0.028,-0.044 0.034,-0.079 0.063,-0.1238 0.1451,-0.2219 0.3071,-0.4429 0.428,-0.6484 l 0.01,-0.013 c 0.813,-1.1334 0.4599,-0.653 1.361,-1.8496 0.5882,-0.7813 2.0963,-2.6595 2.6561,-3.4778 0.077,-0.1116 0.142,-0.22 0.21,-0.326 8e-4,-8e-4 0.039,-0.087 0.038,-0.089 2e-4,-9e-4 4e-4,-0.1062 0,-0.1075 -10e-5,-6e-4 -0.017,-0.042 -0.017,-0.043 -2e-4,-7e-4 -0.013,-0.02 -0.015,-0.028 -0.013,-0.016 -0.016,-0.027 -0.023,-0.036 -0.026,-0.038 -0.042,-0.05 -0.059,-0.063 -0.032,-0.027 -0.065,-0.047 -0.1023,-0.069 -0.036,-0.022 -0.073,-0.04 -0.1082,-0.055 -0.035,-0.015 -0.06,-0.032 -0.1178,-0.031 z m -4.2093,0.2704 c -0.1529,-0.015 -0.3039,0.022 -0.4541,0.081 -0.1247,0.05 -0.2223,0.1197 -0.3127,0.1946 -0.066,0 -0.1305,0.015 -0.199,0.031 -0.5052,0.1291 -0.8732,0.421 -1.3398,0.7228 a 0.20599117,0.15067827 79.243501 0 0 -0.013,0.013 c -0.2567,0.2156 -0.5341,0.4179 -0.7901,0.6616 -0.6875,0.6546 -1.1697,1.238 -1.6934,1.9809 -0.4028,0.5714 -0.8371,1.2806 -1.063,1.8911 -0.1029,0.2791 -0.1254,0.5274 -0.1774,0.7486 a 0.20599117,0.15067827 79.243501 0 0 10e-5,0.121 c 0.024,0.083 0.024,0.2038 0.046,0.3392 0.021,0.1332 0.049,0.2935 0.1447,0.433 0.157,0.2378 0.3792,0.3047 0.5789,0.3655 0.6606,0.2011 1.5346,-0.023 2.3617,-0.3995 0.2828,-0.1292 0.5581,-0.3002 0.8269,-0.4463 a 0.20599117,0.15067827 79.243501 0 0 0.012,-0.014 c 0.2341,-0.1663 0.4919,-0.3136 0.7322,-0.5198 0.9293,-0.7971 1.682,-1.8396 2.0994,-2.8238 0.1475,-0.3536 0.2552,-0.7035 0.3235,-1.0426 0.065,-0.3294 0.045,-0.6127 0.063,-0.8674 a 0.20599117,0.15067827 79.243501 0 0 0,-0.081 c -0.049,-0.2059 -0.061,-0.4948 -0.19,-0.7723 -0.1627,-0.3476 -0.5168,-0.6059 -0.9484,-0.6227 z m -0.1267,1.1085 c 0.1446,0.1237 0.2397,0.2815 0.2751,0.5151 -0.027,0.5819 0.012,0.7778 -0.2396,1.447 -0.2748,0.7301 -0.8692,1.6862 -1.5957,2.3199 -0.1751,0.1527 -0.3853,0.2674 -0.5952,0.4123 -0.2387,0.1291 -0.4742,0.2722 -0.7016,0.378 -0.4277,0.1989 -0.8552,0.342 -1.2245,0.3836 -0.3683,0.042 -0.6722,-0.024 -0.8544,-0.1861 0,0 -0.027,-0.053 -0.035,-0.071 0.03,-0.1628 0.044,-0.3087 0.095,-0.4413 0.1812,-0.4754 0.5938,-1.1245 0.936,-1.6153 0.2862,-0.4109 1.0588,-1.4238 1.419,-1.8126 0.1921,-0.2072 0.4239,-0.3946 0.647,-0.6018 0.1361,-0.098 0.3574,-0.2751 0.5843,-0.4255 0.1158,-0.077 0.2328,-0.1433 0.3315,-0.1889 0.096,-0.044 0.1752,-0.061 0.2036,-0.058 0,0 0,0 0.014,0.026 0.017,0.035 0.048,0.1009 0.1068,0.1501 0.031,0.027 0.071,0.022 0.1082,0.031 7e-4,8e-4 0,0 0,0 3e-4,3e-4 0.032,0.015 0.032,0.015 10e-4,4e-4 0.023,0.014 0.031,0.014 0.01,0 0.013,-2e-4 0.017,0 0.02,9e-4 0.034,0 0.051,0 0.034,0 0.073,-0.014 0.1136,-0.017 0.04,-0.014 0.081,-0.02 0.1148,-0.03 0.018,0 0.033,-0.014 0.05,-0.015 0.01,0 0.015,0 0.026,-0.013 0.01,0 0.014,-0.014 0.024,-0.016 0.01,0 0.017,-0.017 0.017,-0.017 2e-4,-4e-4 0.023,-0.042 0.023,-0.043 a 0.20599117,0.15067827 79.243501 0 0 0.018,-0.074 c 0,-0.013 0.01,-0.052 0,-0.069 z m 4.0371,5.5665 c -0.1078,0.029 -0.2555,0.055 -0.4019,0.1626 -0.138,0.1008 -0.2855,0.2856 -0.3629,0.4337 -0.051,0.098 -0.059,0.1828 -0.068,0.2126 a 0.20599117,0.15067827 79.243501 0 0 0.025,0.21 c -0.012,-0.014 0,0.013 0.026,0.063 0.023,0.053 0.077,0.1439 0.1521,0.1814 0.069,0.034 0.1139,0.023 0.1578,0.014 0.043,-0.014 0.084,-0.024 0.1213,-0.043 0.2682,-0.1223 0.3852,-0.3993 0.4455,-0.6011 3e-4,-4e-4 0.03,-0.079 0.03,-0.079 -10e-5,-3e-4 0,-0.066 0,-0.066 -10e-5,-1e-4 -0.01,-0.04 -0.02,-0.058 -10e-5,-7e-4 8e-4,0 0,0 a 0.20599117,0.15067827 79.243501 0 0 0.074,-0.1157 l 0.01,-0.034 a 0.20599117,0.15067827 79.243501 0 0 -0.08,-0.2447 h -0.01 a 0.20599117,0.15067827 79.243501 0 0 -0.1157,-0.03 z" /><path
             style="font-variation-settings:normal;opacity:0.2;fill:#000000;fill-opacity:1;fill-rule:nonzero;stroke:none;stroke-width:1.16978;stroke-linecap:round;stroke-linejoin:round;stroke-miterlimit:5.6;stroke-dasharray:none;stroke-dashoffset:0;stroke-opacity:1;paint-order:stroke markers fill"
             d="m 1085.9004,1026.198 -16.4456,30.3299 -2.9655,-2.2916 -2.2916,0.2696 -0.4044,0.4044 -1.4828,-1.2132 -24.3988,0.4044 2.022,7.0096 v 1.7524 l 2.1568,0.2696 24.264,4.8528 2.022,-0.9436 2.696,0.9436 1.7524,-0.9436 2.2075,-2.7521 15.4716,-33.0241 -3.7948,-2.1025 z"
             id="path12689"
             sodipodi:nodetypes="cccccccccccccccccc" /></g></g><rect
         style="opacity:0;fill:#ffffff;stroke-width:0.622001;stroke-linecap:square;-inkscape-stroke:none;paint-order:markers stroke fill"
         id="rect14065"
         width="63.090023"
         height="61.967449"
         x="992.66962"
         y="1018.6662" /></g></g></svg>
