<?xml version="1.0" encoding="UTF-8" standalone="no"?>
<svg xmlns:svg="http://www.w3.org/2000/svg" xmlns="http://www.w3.org/2000/svg" xmlns:xlink="http://www.w3.org/1999/xlink" width="1216" height="193" version="1.2" font-family="sans-serif" id="svg19190">
  <defs id="defs37318">
    <marker style="overflow:visible" id="Triangle" orient="auto">
      <path d="m 3,0 -5,2.5 v -5 z" style="fill:#ff493e" id="path1077"/>
    </marker>
  </defs>
  <path id="path3040" style="fill:#eaecf0;stroke:#c8ccd1" d="m 0.5,0.5 v 192 h 1215 V 0.5 Z"/>
  <path fill-rule="evenodd" d="M 1215,1 V 155 H 281 V 1 Z" id="path3036" style="fill:#ffffff;stroke-width:0.7265"/>
  <text fill="#0645ad" xml:space="preserve" x="905" y="125" font-size="17.3333px" id="text3056">add reference</text>
  <path style="fill:#3d80b3" d="m 325,87 h 10 l -5,5 z" id="path36866"/>
  <text fill="#0645ad" xml:space="preserve" x="340" y="96" font-size="18.6667px" id="text3104">0 references</text>
  <text fill="#0645ad" xml:space="preserve" x="316" y="36" font-size="18.6667px" id="text3108">terrestrial planet</text>
  <text fill="#0645ad" xml:space="preserve" x="905" y="36" font-size="17.3333px" id="text3112">edit</text>
  <path d="m 899,27.5 1.94,-2 a 1,1 0 0 0 0,-1.41 l -3.34,-3.3 a 1,1 0 0 0 -1.41,0 l -1.96,1.94 z m -5.81,-3.71 -9.96,9.96 v 4.75 h 4.75 l 9.96,-9.96 z" id="path37262" style="opacity:0.87"/>
  <path d="m 898,118 h -5 v -5 h -2 v 5 h -5 v 2 h 5 v 5 h 2 v -5 h 5 z" id="path36684" style="opacity:0.87"/>
  <text fill="#0645ad" xml:space="preserve" x="905" y="180" font-size="17.3333px" id="text3154">add value</text>
  <use xlink:href="#path36684" id="use36787" transform="translate(0,55)"/>
  <text fill="#0645ad" xml:space="preserve" x="14" y="36" font-size="18.6667px" id="text11780">instance of</text>
  <path fill-rule="nonzero" d="m 285,27 v 2 l 3,3 h 5 l 3,-3 v -2 l -3,-3 h -5 z" id="path11796" style="fill:#72777d"/>
  <path fill-rule="nonzero" d="m 286,34 h 9 v 2 l -4,5 h -1 l -4,-5 z m 0,-12 h 9 v -2 l -4,-5 h -1 l -4,5 z" id="path11806" style="fill:none;stroke:#72777d"/>
  <text xml:space="preserve" style="font-size:34px;fill:#ff493e" x="30.545446" y="169.06831" id="text929"><tspan id="tspan927" x="30.545446" y="169.06831">property</tspan></text>
  <path style="stroke:#ff493e;stroke-width:4;marker-end:url(#Triangle)" d="M 96,138 78,52" id="path931"/>
  <text xml:space="preserve" style="font-size:34px;fill:#ff493e" x="547" y="112.26126" id="text1560"><tspan id="tspan1558" x="547" y="112.26126">value</tspan></text>
  <path style="stroke:#ff493e;stroke-width:4;marker-end:url(#Triangle)" d="m 578,78 -91,-39" id="path1562"/>
</svg>